This file contains any messages produced by compilers while
running configure, to aid debugging if configure makes a mistake.

It was created by configure, which was
generated by GNU Autoconf 2.57.  Invocation command line was

  $ ./configure --with-apxs2=/opt/broadon/pkgs/httpd/bin/apxs --with-tomcat41=../../../tomcat/package --with-java-home=/opt/routefree/java1.4 --with-pic --enable-shared

## --------- ##
## Platform. ##
## --------- ##

hostname = mongoose.routefree.com
uname -m = i686
uname -r = 2.4.22-10mdk
uname -s = Linux
uname -v = #1 Thu Sep 18 12:30:58 CEST 2003

/usr/bin/uname -p = unknown
/bin/uname -X     = unknown

/bin/arch              = i686
/usr/bin/arch -k       = unknown
/usr/convex/getsysinfo = unknown
hostinfo               = unknown
/bin/machine           = unknown
/usr/bin/oslevel       = unknown
/bin/universe          = unknown

PATH: /home/ho/bin
PATH: /home/ho/java/java/bin
PATH: /usr/local/bin
PATH: /sbin
PATH: /usr/sbin
PATH: /usr/bin/X11
PATH: /bin
PATH: /usr/bin
PATH: /etc
PATH: /usr/etc


## ----------- ##
## Core tests. ##
## ----------- ##

configure:1525: checking build system type
configure:1543: result: i686-redhat-linux-gnu
configure:1551: checking host system type
configure:1565: result: i686-redhat-linux-gnu
configure:1573: checking target system type
configure:1587: result: i686-redhat-linux-gnu
configure:1618: checking for a BSD-compatible install
configure:1672: result: /usr/bin/install -c
configure:1683: checking whether build environment is sane
configure:1726: result: yes
configure:1759: checking for gawk
configure:1775: found /bin/gawk
configure:1785: result: gawk
configure:1795: checking whether make sets $(MAKE)
configure:1815: result: yes
configure:2026: checking for gcc
configure:2042: found /usr/bin/gcc
configure:2052: result: gcc
configure:2296: checking for C compiler version
configure:2299: gcc --version </dev/null >&5
gcc (GCC) 3.3.1 (Mandrake Linux 9.2 3.3.1-2mdk)
Copyright (C) 2003 Free Software Foundation, Inc.
This is free software; see the source for copying conditions.  There is NO
warranty; not even for MERCHANTABILITY or FITNESS FOR A PARTICULAR PURPOSE.

configure:2302: $? = 0
configure:2304: gcc -v </dev/null >&5
Reading specs from /usr/lib/gcc-lib/i586-mandrake-linux-gnu/3.3.1/specs
Configured with: ../configure --prefix=/usr --libdir=/usr/lib --with-slibdir=/lib --mandir=/usr/share/man --infodir=/usr/share/info --enable-shared --enable-threads=posix --disable-checking --enable-long-long --enable-__cxa_atexit --enable-languages=c,c++,ada,f77,objc,java,pascal --host=i586-mandrake-linux-gnu --with-system-zlib
Thread model: posix
gcc version 3.3.1 (Mandrake Linux 9.2 3.3.1-2mdk)
configure:2307: $? = 0
configure:2309: gcc -V </dev/null >&5
gcc: `-V' option must have argument
configure:2312: $? = 1
configure:2336: checking for C compiler default output
configure:2339: gcc    conftest.c  >&5
configure:2342: $? = 0
configure:2388: result: a.out
configure:2393: checking whether the C compiler works
configure:2399: ./a.out
configure:2402: $? = 0
configure:2419: result: yes
configure:2426: checking whether we are cross compiling
configure:2428: result: no
configure:2431: checking for suffix of executables
configure:2433: gcc -o conftest    conftest.c  >&5
configure:2436: $? = 0
configure:2461: result: 
configure:2467: checking for suffix of object files
configure:2489: gcc -c   conftest.c >&5
configure:2492: $? = 0
configure:2514: result: o
configure:2518: checking whether we are using the GNU C compiler
configure:2543: gcc -c   conftest.c >&5
configure:2546: $? = 0
configure:2549: test -s conftest.o
configure:2552: $? = 0
configure:2565: result: yes
configure:2571: checking whether gcc accepts -g
configure:2593: gcc -c -g  conftest.c >&5
configure:2596: $? = 0
configure:2599: test -s conftest.o
configure:2602: $? = 0
configure:2613: result: yes
configure:2630: checking for gcc option to accept ANSI C
configure:2691: gcc  -c -g -O2  conftest.c >&5
configure:2694: $? = 0
configure:2697: test -s conftest.o
configure:2700: $? = 0
configure:2718: result: none needed
configure:2736: gcc -c -g -O2  conftest.c >&5
conftest.c:2: error: syntax error before "me"
configure:2739: $? = 1
configure: failed program was:
| #ifndef __cplusplus
|   choke me
| #endif
configure:2859: checking for style of include used by make
configure:2887: result: GNU
configure:2915: checking dependency style of gcc
configure:2998: result: none
configure:3015: checking for a sed that does not truncate output
configure:3069: result: /bin/sed
configure:3072: checking for egrep
configure:3082: result: grep -E
configure:3098: checking for ld used by gcc
configure:3165: result: /usr/bin/ld
configure:3174: checking if the linker (/usr/bin/ld) is GNU ld
configure:3189: result: yes
configure:3270: checking for /usr/bin/ld option to reload object files
configure:3277: result: -r
configure:3286: checking for BSD-compatible nm
configure:3328: result: /usr/bin/nm -B
configure:3332: checking whether ln -s works
configure:3336: result: yes
configure:3343: checking how to recognise dependent libraries
configure:3543: result: pass_all
configure:3747: checking how to run the C preprocessor
configure:3783: gcc -E  conftest.c
configure:3789: $? = 0
configure:3821: gcc -E  conftest.c
configure:3822:28: ac_nonexistent.h: No such file or directory
configure:3827: $? = 1
configure: failed program was:
| #line 3812 "configure"
| /* confdefs.h.  */
| 
| #define PACKAGE_NAME ""
| #define PACKAGE_TARNAME ""
| #define PACKAGE_VERSION ""
| #define PACKAGE_STRING ""
| #define PACKAGE_BUGREPORT ""
| #define PACKAGE "mod_jk2"
| #define VERSION "2.0.2"
| /* end confdefs.h.  */
| #include <ac_nonexistent.h>
configure:3865: result: gcc -E
configure:3890: gcc -E  conftest.c
configure:3896: $? = 0
configure:3928: gcc -E  conftest.c
configure:3929:28: ac_nonexistent.h: No such file or directory
configure:3934: $? = 1
configure: failed program was:
| #line 3919 "configure"
| /* confdefs.h.  */
| 
| #define PACKAGE_NAME ""
| #define PACKAGE_TARNAME ""
| #define PACKAGE_VERSION ""
| #define PACKAGE_STRING ""
| #define PACKAGE_BUGREPORT ""
| #define PACKAGE "mod_jk2"
| #define VERSION "2.0.2"
| /* end confdefs.h.  */
| #include <ac_nonexistent.h>
configure:3977: checking for ANSI C header files
configure:4003: gcc -c -g -O2  conftest.c >&5
configure:4006: $? = 0
configure:4009: test -s conftest.o
configure:4012: $? = 0
configure:4101: gcc -o conftest -g -O2   conftest.c  >&5
configure:4104: $? = 0
configure:4106: ./conftest
configure:4109: $? = 0
configure:4124: result: yes
configure:4148: checking for sys/types.h
configure:4165: gcc -c -g -O2  conftest.c >&5
configure:4168: $? = 0
configure:4171: test -s conftest.o
configure:4174: $? = 0
configure:4185: result: yes
configure:4148: checking for sys/stat.h
configure:4165: gcc -c -g -O2  conftest.c >&5
configure:4168: $? = 0
configure:4171: test -s conftest.o
configure:4174: $? = 0
configure:4185: result: yes
configure:4148: checking for stdlib.h
configure:4165: gcc -c -g -O2  conftest.c >&5
configure:4168: $? = 0
configure:4171: test -s conftest.o
configure:4174: $? = 0
configure:4185: result: yes
configure:4148: checking for string.h
configure:4165: gcc -c -g -O2  conftest.c >&5
configure:4168: $? = 0
configure:4171: test -s conftest.o
configure:4174: $? = 0
configure:4185: result: yes
configure:4148: checking for memory.h
configure:4165: gcc -c -g -O2  conftest.c >&5
configure:4168: $? = 0
configure:4171: test -s conftest.o
configure:4174: $? = 0
configure:4185: result: yes
configure:4148: checking for strings.h
configure:4165: gcc -c -g -O2  conftest.c >&5
configure:4168: $? = 0
configure:4171: test -s conftest.o
configure:4174: $? = 0
configure:4185: result: yes
configure:4148: checking for inttypes.h
configure:4165: gcc -c -g -O2  conftest.c >&5
configure:4168: $? = 0
configure:4171: test -s conftest.o
configure:4174: $? = 0
configure:4185: result: yes
configure:4148: checking for stdint.h
configure:4165: gcc -c -g -O2  conftest.c >&5
configure:4168: $? = 0
configure:4171: test -s conftest.o
configure:4174: $? = 0
configure:4185: result: yes
configure:4148: checking for unistd.h
configure:4165: gcc -c -g -O2  conftest.c >&5
configure:4168: $? = 0
configure:4171: test -s conftest.o
configure:4174: $? = 0
configure:4185: result: yes
configure:4211: checking dlfcn.h usability
configure:4224: gcc -c -g -O2  conftest.c >&5
configure:4227: $? = 0
configure:4230: test -s conftest.o
configure:4233: $? = 0
configure:4243: result: yes
configure:4247: checking dlfcn.h presence
configure:4258: gcc -E  conftest.c
configure:4264: $? = 0
configure:4283: result: yes
configure:4319: checking for dlfcn.h
configure:4326: result: yes
configure:4391: checking for g++
configure:4407: found /usr/bin/g++
configure:4417: result: g++
configure:4433: checking for C++ compiler version
configure:4436: g++ --version </dev/null >&5
g++ (GCC) 3.3.1 (Mandrake Linux 9.2 3.3.1-2mdk)
Copyright (C) 2003 Free Software Foundation, Inc.
This is free software; see the source for copying conditions.  There is NO
warranty; not even for MERCHANTABILITY or FITNESS FOR A PARTICULAR PURPOSE.

configure:4439: $? = 0
configure:4441: g++ -v </dev/null >&5
Reading specs from /usr/lib/gcc-lib/i586-mandrake-linux-gnu/3.3.1/specs
Configured with: ../configure --prefix=/usr --libdir=/usr/lib --with-slibdir=/lib --mandir=/usr/share/man --infodir=/usr/share/info --enable-shared --enable-threads=posix --disable-checking --enable-long-long --enable-__cxa_atexit --enable-languages=c,c++,ada,f77,objc,java,pascal --host=i586-mandrake-linux-gnu --with-system-zlib
Thread model: posix
gcc version 3.3.1 (Mandrake Linux 9.2 3.3.1-2mdk)
configure:4444: $? = 0
configure:4446: g++ -V </dev/null >&5
g++: `-V' option must have argument
configure:4449: $? = 1
configure:4452: checking whether we are using the GNU C++ compiler
configure:4477: g++ -c   conftest.cc >&5
configure:4480: $? = 0
configure:4483: test -s conftest.o
configure:4486: $? = 0
configure:4499: result: yes
configure:4505: checking whether g++ accepts -g
configure:4527: g++ -c -g  conftest.cc >&5
configure:4530: $? = 0
configure:4533: test -s conftest.o
configure:4536: $? = 0
configure:4547: result: yes
configure:4591: g++ -c -g -O2  conftest.cc >&5
configure:4594: $? = 0
configure:4597: test -s conftest.o
configure:4600: $? = 0
configure:4627: g++ -c -g -O2  conftest.cc >&5
configure: In function `int main()':
configure:4635: error: `exit' undeclared (first use this function)
configure:4635: error: (Each undeclared identifier is reported only once for each function it appears in.)
configure:4630: $? = 1
configure: failed program was:
| #line 4610 "configure"
| /* confdefs.h.  */
| 
| #define PACKAGE_NAME ""
| #define PACKAGE_TARNAME ""
| #define PACKAGE_VERSION ""
| #define PACKAGE_STRING ""
| #define PACKAGE_BUGREPORT ""
| #define PACKAGE "mod_jk2"
| #define VERSION "2.0.2"
| #define STDC_HEADERS 1
| #define HAVE_SYS_TYPES_H 1
| #define HAVE_SYS_STAT_H 1
| #define HAVE_STDLIB_H 1
| #define HAVE_STRING_H 1
| #define HAVE_MEMORY_H 1
| #define HAVE_STRINGS_H 1
| #define HAVE_INTTYPES_H 1
| #define HAVE_STDINT_H 1
| #define HAVE_UNISTD_H 1
| #define HAVE_DLFCN_H 1
| /* end confdefs.h.  */
| 
| int
| main ()
| {
| exit (42);
|   ;
|   return 0;
| }
configure:4591: g++ -c -g -O2  conftest.cc >&5
configure:4594: $? = 0
configure:4597: test -s conftest.o
configure:4600: $? = 0
configure:4627: g++ -c -g -O2  conftest.cc >&5
configure:4630: $? = 0
configure:4633: test -s conftest.o
configure:4636: $? = 0
configure:4661: checking dependency style of g++
configure:4744: result: none
configure:4766: checking how to run the C++ preprocessor
configure:4798: g++ -E  conftest.cc
configure:4804: $? = 0
configure:4836: g++ -E  conftest.cc
configure:4851:28: ac_nonexistent.h: No such file or directory
configure:4842: $? = 1
configure: failed program was:
| #line 4827 "configure"
| /* confdefs.h.  */
| 
| #define PACKAGE_NAME ""
| #define PACKAGE_TARNAME ""
| #define PACKAGE_VERSION ""
| #define PACKAGE_STRING ""
| #define PACKAGE_BUGREPORT ""
| #define PACKAGE "mod_jk2"
| #define VERSION "2.0.2"
| #define STDC_HEADERS 1
| #define HAVE_SYS_TYPES_H 1
| #define HAVE_SYS_STAT_H 1
| #define HAVE_STDLIB_H 1
| #define HAVE_STRING_H 1
| #define HAVE_MEMORY_H 1
| #define HAVE_STRINGS_H 1
| #define HAVE_INTTYPES_H 1
| #define HAVE_STDINT_H 1
| #define HAVE_UNISTD_H 1
| #define HAVE_DLFCN_H 1
| #ifdef __cplusplus
| #include <stdlib.h>
| #endif
| /* end confdefs.h.  */
| #include <ac_nonexistent.h>
configure:4880: result: g++ -E
configure:4905: g++ -E  conftest.cc
configure:4911: $? = 0
configure:4943: g++ -E  conftest.cc
configure:4958:28: ac_nonexistent.h: No such file or directory
configure:4949: $? = 1
configure: failed program was:
| #line 4934 "configure"
| /* confdefs.h.  */
| 
| #define PACKAGE_NAME ""
| #define PACKAGE_TARNAME ""
| #define PACKAGE_VERSION ""
| #define PACKAGE_STRING ""
| #define PACKAGE_BUGREPORT ""
| #define PACKAGE "mod_jk2"
| #define VERSION "2.0.2"
| #define STDC_HEADERS 1
| #define HAVE_SYS_TYPES_H 1
| #define HAVE_SYS_STAT_H 1
| #define HAVE_STDLIB_H 1
| #define HAVE_STRING_H 1
| #define HAVE_MEMORY_H 1
| #define HAVE_STRINGS_H 1
| #define HAVE_INTTYPES_H 1
| #define HAVE_STDINT_H 1
| #define HAVE_UNISTD_H 1
| #define HAVE_DLFCN_H 1
| #ifdef __cplusplus
| #include <stdlib.h>
| #endif
| /* end confdefs.h.  */
| #include <ac_nonexistent.h>
configure:5043: checking for g77
configure:5072: result: no
configure:5043: checking for f77
configure:5072: result: no
configure:5043: checking for xlf
configure:5072: result: no
configure:5043: checking for frt
configure:5072: result: no
configure:5043: checking for pgf77
configure:5072: result: no
configure:5043: checking for fl32
configure:5072: result: no
configure:5043: checking for af77
configure:5072: result: no
configure:5043: checking for fort77
configure:5072: result: no
configure:5043: checking for f90
configure:5072: result: no
configure:5043: checking for xlf90
configure:5072: result: no
configure:5043: checking for pgf90
configure:5072: result: no
configure:5043: checking for epcf90
configure:5072: result: no
configure:5043: checking for f95
configure:5072: result: no
configure:5043: checking for fort
configure:5072: result: no
configure:5043: checking for xlf95
configure:5072: result: no
configure:5043: checking for lf95
configure:5072: result: no
configure:5043: checking for g95
configure:5072: result: no
configure:5087: checking for Fortran 77 compiler version
configure:5087:  --version </dev/null >&5
./configure: line 1: --version: command not found
configure:5090: $? = 127
configure:5092:  -v </dev/null >&5
./configure: line 1: -v: command not found
configure:5095: $? = 127
configure:5097:  -V </dev/null >&5
./configure: line 1: -V: command not found
configure:5100: $? = 127
configure:5107: checking whether we are using the GNU Fortran 77 compiler
configure:5121:  -c  conftest.F >&5
./configure: line 1: -c: command not found
configure:5124: $? = 127
configure: failed program was:
|       program main
| #ifndef __GNUC__
|        choke me
| #endif
| 
|       end
configure:5143: result: no
configure:5150: checking whether  accepts -g
configure:5162:  -c -g conftest.f >&5
./configure: line 1: -c: command not found
configure:5165: $? = 127
configure: failed program was:
|       program main
| 
|       end
configure:5183: result: no
configure:5211: checking the maximum length of command line arguments
configure:5270: result: 32768
configure:5281: checking command to parse /usr/bin/nm -B output from gcc object
configure:5370: gcc -c -g -O2  conftest.c >&5
configure:5373: $? = 0
configure:5377: /usr/bin/nm -B conftest.o \| sed -n -e 's/^.*[ 	]\([ABCDGIRSTW][ABCDGIRSTW]*\)[ 	][ 	]*\(\)\([_A-Za-z][_A-Za-z0-9]*\)$/\1 \2\3 \3/p' \> conftest.nm
configure:5380: $? = 0
configure:5432: gcc -o conftest -g -O2   conftest.c conftstm.o >&5
configure:5435: $? = 0
configure:5473: result: ok
configure:5477: checking for objdir
configure:5492: result: .libs
configure:5582: checking for ar
configure:5598: found /usr/bin/ar
configure:5609: result: ar
configure:5662: checking for ranlib
configure:5678: found /usr/bin/ranlib
configure:5689: result: ranlib
configure:5742: checking for strip
configure:5758: found /usr/bin/strip
configure:5769: result: strip
configure:6031: checking if gcc static flag  works
configure:6054: result: yes
configure:6071: checking if gcc supports -fno-rtti -fno-exceptions
configure:6092: gcc -c -g -O2  -fno-rtti -fno-exceptions conftest.c >&5
cc1: warning: "-fno-rtti" is valid for C++ but not for C/ObjC
configure:6096: $? = 0
configure:6104: result: no
configure:6119: checking for gcc option to produce PIC
configure:6296: result: -fPIC
configure:6303: checking if gcc PIC flag -fPIC works
configure:6324: gcc -c -g -O2  -fPIC -DPIC conftest.c >&5
configure:6328: $? = 0
configure:6336: result: yes
configure:6360: checking if gcc supports -c -o file.o
configure:6391: gcc -c -g -O2  -o out/conftest2.o conftest.c >&5
configure:6395: $? = 0
configure:6409: result: yes
configure:6435: checking whether the gcc linker (/usr/bin/ld) supports shared libraries
configure:7254: result: yes
configure:7280: checking whether -lc should be explicitly linked in
configure:7285: gcc -c -g -O2  conftest.c >&5
configure:7288: $? = 0
configure:7302: gcc -shared conftest.o  -v -Wl,-soname -Wl,conftest -o conftest 2\>\&1 \| grep  -lc  \>/dev/null 2\>\&1
configure:7305: $? = 0
configure:7317: result: no
configure:7325: checking how to hardcode library paths into programs
configure:7350: result: immediate
configure:7364: checking whether stripping libraries is possible
configure:7369: result: yes
configure:7391: checking dynamic linker characteristics
configure:7926: result: GNU/Linux ld.so
configure:8024: checking for shl_load
configure:8074: gcc -o conftest -g -O2   conftest.c  >&5
/tmp/cc0AC2CS.o(.text+0xe): In function `main':
/home/ho/servers/common/java/src/tomcat/tomcat-connectors-jk2/jk/native2/configure:8085: undefined reference to `shl_load'
/tmp/cc0AC2CS.o(.data+0x0):/home/ho/servers/common/java/src/tomcat/tomcat-connectors-jk2/jk/native2/configure:8084: undefined reference to `shl_load'
collect2: ld returned 1 exit status
configure:8077: $? = 1
configure: failed program was:
| #line 8029 "configure"
| /* confdefs.h.  */
| 
| #define PACKAGE_NAME ""
| #define PACKAGE_TARNAME ""
| #define PACKAGE_VERSION ""
| #define PACKAGE_STRING ""
| #define PACKAGE_BUGREPORT ""
| #define PACKAGE "mod_jk2"
| #define VERSION "2.0.2"
| #define STDC_HEADERS 1
| #define HAVE_SYS_TYPES_H 1
| #define HAVE_SYS_STAT_H 1
| #define HAVE_STDLIB_H 1
| #define HAVE_STRING_H 1
| #define HAVE_MEMORY_H 1
| #define HAVE_STRINGS_H 1
| #define HAVE_INTTYPES_H 1
| #define HAVE_STDINT_H 1
| #define HAVE_UNISTD_H 1
| #define HAVE_DLFCN_H 1
| #ifdef __cplusplus
| #include <stdlib.h>
| #endif
| /* end confdefs.h.  */
| /* System header to define __stub macros and hopefully few prototypes,
|     which can conflict with char shl_load (); below.
|     Prefer <limits.h> to <assert.h> if __STDC__ is defined, since
|     <limits.h> exists even on freestanding compilers.  */
| #ifdef __STDC__
| # include <limits.h>
| #else
| # include <assert.h>
| #endif
| /* Override any gcc2 internal prototype to avoid an error.  */
| #ifdef __cplusplus
| extern "C"
| {
| #endif
| /* We use char because int might match the return type of a gcc2
|    builtin and then its argument prototype would still apply.  */
| char shl_load ();
| /* The GNU C library defines this for functions which it implements
|     to always fail with ENOSYS.  Some functions are actually named
|     something starting with __ and the normal name is an alias.  */
| #if defined (__stub_shl_load) || defined (__stub___shl_load)
| choke me
| #else
| char (*f) () = shl_load;
| #endif
| #ifdef __cplusplus
| }
| #endif
| 
| int
| main ()
| {
| return f != shl_load;
|   ;
|   return 0;
| }
configure:8094: result: no
configure:8099: checking for shl_load in -ldld
configure:8130: gcc -o conftest -g -O2   conftest.c -ldld   >&5
/usr/bin/ld: cannot find -ldld
collect2: ld returned 1 exit status
configure:8133: $? = 1
configure: failed program was:
| #line 8106 "configure"
| /* confdefs.h.  */
| 
| #define PACKAGE_NAME ""
| #define PACKAGE_TARNAME ""
| #define PACKAGE_VERSION ""
| #define PACKAGE_STRING ""
| #define PACKAGE_BUGREPORT ""
| #define PACKAGE "mod_jk2"
| #define VERSION "2.0.2"
| #define STDC_HEADERS 1
| #define HAVE_SYS_TYPES_H 1
| #define HAVE_SYS_STAT_H 1
| #define HAVE_STDLIB_H 1
| #define HAVE_STRING_H 1
| #define HAVE_MEMORY_H 1
| #define HAVE_STRINGS_H 1
| #define HAVE_INTTYPES_H 1
| #define HAVE_STDINT_H 1
| #define HAVE_UNISTD_H 1
| #define HAVE_DLFCN_H 1
| #ifdef __cplusplus
| #include <stdlib.h>
| #endif
| /* end confdefs.h.  */
| 
| /* Override any gcc2 internal prototype to avoid an error.  */
| #ifdef __cplusplus
| extern "C"
| #endif
| /* We use char because int might match the return type of a gcc2
|    builtin and then its argument prototype would still apply.  */
| char shl_load ();
| int
| main ()
| {
| shl_load ();
|   ;
|   return 0;
| }
configure:8151: result: no
configure:8156: checking for dlopen
configure:8206: gcc -o conftest -g -O2   conftest.c  >&5
/tmp/ccFXBSdh.o(.text+0xe): In function `main':
/home/ho/servers/common/java/src/tomcat/tomcat-connectors-jk2/jk/native2/configure:8217: undefined reference to `dlopen'
/tmp/ccFXBSdh.o(.data+0x0):/home/ho/servers/common/java/src/tomcat/tomcat-connectors-jk2/jk/native2/configure:8216: undefined reference to `dlopen'
collect2: ld returned 1 exit status
configure:8209: $? = 1
configure: failed program was:
| #line 8161 "configure"
| /* confdefs.h.  */
| 
| #define PACKAGE_NAME ""
| #define PACKAGE_TARNAME ""
| #define PACKAGE_VERSION ""
| #define PACKAGE_STRING ""
| #define PACKAGE_BUGREPORT ""
| #define PACKAGE "mod_jk2"
| #define VERSION "2.0.2"
| #define STDC_HEADERS 1
| #define HAVE_SYS_TYPES_H 1
| #define HAVE_SYS_STAT_H 1
| #define HAVE_STDLIB_H 1
| #define HAVE_STRING_H 1
| #define HAVE_MEMORY_H 1
| #define HAVE_STRINGS_H 1
| #define HAVE_INTTYPES_H 1
| #define HAVE_STDINT_H 1
| #define HAVE_UNISTD_H 1
| #define HAVE_DLFCN_H 1
| #ifdef __cplusplus
| #include <stdlib.h>
| #endif
| /* end confdefs.h.  */
| /* System header to define __stub macros and hopefully few prototypes,
|     which can conflict with char dlopen (); below.
|     Prefer <limits.h> to <assert.h> if __STDC__ is defined, since
|     <limits.h> exists even on freestanding compilers.  */
| #ifdef __STDC__
| # include <limits.h>
| #else
| # include <assert.h>
| #endif
| /* Override any gcc2 internal prototype to avoid an error.  */
| #ifdef __cplusplus
| extern "C"
| {
| #endif
| /* We use char because int might match the return type of a gcc2
|    builtin and then its argument prototype would still apply.  */
| char dlopen ();
| /* The GNU C library defines this for functions which it implements
|     to always fail with ENOSYS.  Some functions are actually named
|     something starting with __ and the normal name is an alias.  */
| #if defined (__stub_dlopen) || defined (__stub___dlopen)
| choke me
| #else
| char (*f) () = dlopen;
| #endif
| #ifdef __cplusplus
| }
| #endif
| 
| int
| main ()
| {
| return f != dlopen;
|   ;
|   return 0;
| }
configure:8226: result: no
configure:8231: checking for dlopen in -ldl
configure:8262: gcc -o conftest -g -O2   conftest.c -ldl   >&5
configure:8265: $? = 0
configure:8268: test -s conftest
configure:8271: $? = 0
configure:8283: result: yes
configure:8438: checking whether a program can dlopen itself
configure:8510: gcc -o conftest -g -O2  -DHAVE_DLFCN_H  -Wl,--export-dynamic conftest.c -ldl  >&5
configure:8513: $? = 0
configure:8531: result: yes
configure:8536: checking whether a statically linked program can dlopen itself
configure:8608: gcc -o conftest -g -O2  -DHAVE_DLFCN_H  -Wl,--export-dynamic  conftest.c -ldl  >&5
configure:8611: $? = 0
configure:8629: result: yes
configure:8652: checking if libtool supports shared libraries
configure:8654: result: yes
configure:8657: checking whether to build shared libraries
configure:8706: result: yes
configure:8709: checking whether to build static libraries
configure:8713: result: yes
configure:8804: creating libtool
configure:9348: checking for ld used by g++
configure:9415: result: /usr/bin/ld
configure:9424: checking if the linker (/usr/bin/ld) is GNU ld
configure:9439: result: yes
configure:9490: checking whether the g++ linker (/usr/bin/ld) supports shared libraries
configure:10285: result: yes
configure:10303: g++ -c -g -O2  conftest.cc >&5
configure:10306: $? = 0
configure:10402: checking for g++ option to produce PIC
configure:10654: result: -fPIC
configure:10661: checking if g++ PIC flag -fPIC works
configure:10682: g++ -c -g -O2  -fPIC -DPIC conftest.cc >&5
configure:10686: $? = 0
configure:10694: result: yes
configure:10718: checking if g++ supports -c -o file.o
configure:10749: g++ -c -g -O2  -o out/conftest2.o conftest.cc >&5
configure:10753: $? = 0
configure:10767: result: yes
configure:10793: checking whether the g++ linker (/usr/bin/ld) supports shared libraries
configure:10818: result: yes
configure:10889: checking how to hardcode library paths into programs
configure:10914: result: immediate
configure:10928: checking whether stripping libraries is possible
configure:10933: result: yes
configure:10955: checking dynamic linker characteristics
configure:11490: result: GNU/Linux ld.so
configure:11588: checking for shl_load
configure:11658: result: no
configure:11663: checking for shl_load in -ldld
configure:11715: result: no
configure:11720: checking for dlopen
configure:11790: result: no
configure:11795: checking for dlopen in -ldl
configure:11847: result: yes
configure:12002: checking whether a program can dlopen itself
configure:12095: result: yes
configure:12100: checking whether a statically linked program can dlopen itself
configure:12193: result: yes
configure:18456: checking for test
configure:18474: found /usr/bin/test
configure:18487: result: /usr/bin/test
configure:18497: checking for rm
configure:18515: found /bin/rm
configure:18528: result: /bin/rm
configure:18538: checking for grep
configure:18556: found /bin/grep
configure:18569: result: /bin/grep
configure:18579: checking for echo
configure:18597: found /bin/echo
configure:18610: result: /bin/echo
configure:18620: checking for sed
configure:18651: result: /bin/sed
configure:18661: checking for cp
configure:18679: found /bin/cp
configure:18692: result: /bin/cp
configure:18702: checking for mkdir
configure:18720: found /bin/mkdir
configure:18733: result: /bin/mkdir
configure:18919: result: no apxs given
configure:18955: result: need to check for Perl first, apxs depends on it...
configure:18959: checking for perl
configure:18977: found /usr/bin/perl
configure:18990: result: /usr/bin/perl
configure:19108: result: building connector for "apache-2.0"
configure:19139: checking checking for apache13...
configure:19234: result: not provided
configure:19343: checking checking for apache20...
configure:19438: result: not provided
configure:19547: checking checking for iis...
configure:19642: result: not provided
configure:19751: checking checking for iPlanet...
configure:19846: result: not provided
configure:19959: checking for tomcat33 location
configure:19994: result: not provided
configure:20007: checking for tomcat40 location
configure:20042: result: not provided
configure:20055: checking for tomcat41 location
configure:20094: result: ../../../tomcat/package
configure:20968: creating ./config.status

## ---------------------- ##
## Running config.status. ##
## ---------------------- ##

This file was extended by config.status, which was
generated by GNU Autoconf 2.57.  Invocation command line was

  CONFIG_FILES    = 
  CONFIG_HEADERS  = 
  CONFIG_LINKS    = 
  CONFIG_COMMANDS = 
  $ ./config.status 

on mongoose.routefree.com

config.status:765: creating Makefile
config.status:765: creating server/apache13/Makefile
config.status:765: creating server/apache13/Makefile.apxs
config.status:765: creating server/apache2/Makefile
config.status:765: creating server/apache2/Makefile.apxs
config.status:765: creating ../build.properties
config.status:765: creating scripts/build/unix/dummy
config.status:890: executing depfiles commands

## ---------------- ##
## Cache variables. ##
## ---------------- ##

ac_cv_build=i686-redhat-linux-gnu
ac_cv_build_alias=i686-redhat-linux-gnu
ac_cv_c_compiler_gnu=yes
ac_cv_cxx_compiler_gnu=yes
ac_cv_env_CC_set=
ac_cv_env_CC_value=
ac_cv_env_CFLAGS_set=
ac_cv_env_CFLAGS_value=
ac_cv_env_CPPFLAGS_set=
ac_cv_env_CPPFLAGS_value=
ac_cv_env_CPP_set=
ac_cv_env_CPP_value=
ac_cv_env_CXXCPP_set=
ac_cv_env_CXXCPP_value=
ac_cv_env_CXXFLAGS_set=
ac_cv_env_CXXFLAGS_value=
ac_cv_env_CXX_set=
ac_cv_env_CXX_value=
ac_cv_env_F77_set=
ac_cv_env_F77_value=
ac_cv_env_FFLAGS_set=
ac_cv_env_FFLAGS_value=
ac_cv_env_LDFLAGS_set=
ac_cv_env_LDFLAGS_value=
ac_cv_env_build_alias_set=
ac_cv_env_build_alias_value=
ac_cv_env_host_alias_set=
ac_cv_env_host_alias_value=
ac_cv_env_target_alias_set=
ac_cv_env_target_alias_value=
ac_cv_exeext=
ac_cv_f77_compiler_gnu=no
ac_cv_func_dlopen=no
ac_cv_func_shl_load=no
ac_cv_header_dlfcn_h=yes
ac_cv_header_inttypes_h=yes
ac_cv_header_memory_h=yes
ac_cv_header_stdc=yes
ac_cv_header_stdint_h=yes
ac_cv_header_stdlib_h=yes
ac_cv_header_string_h=yes
ac_cv_header_strings_h=yes
ac_cv_header_sys_stat_h=yes
ac_cv_header_sys_types_h=yes
ac_cv_header_unistd_h=yes
ac_cv_host=i686-redhat-linux-gnu
ac_cv_host_alias=i686-redhat-linux-gnu
ac_cv_lib_dl_dlopen=yes
ac_cv_lib_dld_shl_load=no
ac_cv_objext=o
ac_cv_path_CP=/bin/cp
ac_cv_path_ECHO=/bin/echo
ac_cv_path_GREP=/bin/grep
ac_cv_path_MKDIR=/bin/mkdir
ac_cv_path_PERL=/usr/bin/perl
ac_cv_path_RM=/bin/rm
ac_cv_path_SED=/bin/sed
ac_cv_path_TEST=/usr/bin/test
ac_cv_path_install='/usr/bin/install -c'
ac_cv_prog_AWK=gawk
ac_cv_prog_CPP='gcc -E'
ac_cv_prog_CXXCPP='g++ -E'
ac_cv_prog_ac_ct_AR=ar
ac_cv_prog_ac_ct_CC=gcc
ac_cv_prog_ac_ct_CXX=g++
ac_cv_prog_ac_ct_RANLIB=ranlib
ac_cv_prog_ac_ct_STRIP=strip
ac_cv_prog_cc_g=yes
ac_cv_prog_cc_stdc=
ac_cv_prog_cxx_g=yes
ac_cv_prog_egrep='grep -E'
ac_cv_prog_f77_g=no
ac_cv_prog_make_make_set=yes
ac_cv_target=i686-redhat-linux-gnu
ac_cv_target_alias=i686-redhat-linux-gnu
am_cv_CC_dependencies_compiler_type=none
am_cv_CXX_dependencies_compiler_type=none
lt_cv_deplibs_check_method=pass_all
lt_cv_dlopen=dlopen
lt_cv_dlopen_libs=-ldl
lt_cv_dlopen_self=yes
lt_cv_dlopen_self_static=yes
lt_cv_file_magic_cmd='$MAGIC_CMD'
lt_cv_file_magic_test_file='/lib/libc.so.6 /lib/libc-2.3.2.so'
lt_cv_ld_reload_flag=-r
lt_cv_objdir=.libs
lt_cv_path_LD=/usr/bin/ld
lt_cv_path_LDCXX=/usr/bin/ld
lt_cv_path_NM='/usr/bin/nm -B'
lt_cv_path_SED=/bin/sed
lt_cv_prog_compiler_c_o=yes
lt_cv_prog_compiler_c_o_CXX=yes
lt_cv_prog_compiler_rtti_exceptions=no
lt_cv_prog_gnu_ld=yes
lt_cv_prog_gnu_ldcxx=yes
lt_cv_sys_global_symbol_pipe='sed -n -e '\''s/^.*[ 	]\([ABCDGIRSTW][ABCDGIRSTW]*\)[ 	][ 	]*\(\)\([_A-Za-z][_A-Za-z0-9]*\)$/\1 \2\3 \3/p'\'''
lt_cv_sys_global_symbol_to_c_name_address='sed -n -e '\''s/^: \([^ ]*\) $/  {\"\1\", (lt_ptr) 0},/p'\'' -e '\''s/^[BCDEGRST] \([^ ]*\) \([^ ]*\)$/  {"\2", (lt_ptr) \&\2},/p'\'''
lt_cv_sys_global_symbol_to_cdecl='sed -n -e '\''s/^. .* \(.*\)$/extern int \1;/p'\'''
lt_cv_sys_max_cmd_len=32768
lt_lt_cv_prog_compiler_c_o='"yes"'
lt_lt_cv_prog_compiler_c_o_CXX='"yes"'
lt_lt_cv_sys_global_symbol_pipe='"sed -n -e '\''s/^.*[ 	]\\([ABCDGIRSTW][ABCDGIRSTW]*\\)[ 	][ 	]*\\(\\)\\([_A-Za-z][_A-Za-z0-9]*\\)\$/\\1 \\2\\3 \\3/p'\''"'
lt_lt_cv_sys_global_symbol_to_c_name_address='"sed -n -e '\''s/^: \\([^ ]*\\) \$/  {\\\"\\1\\\", (lt_ptr) 0},/p'\'' -e '\''s/^[BCDEGRST] \\([^ ]*\\) \\([^ ]*\\)\$/  {\"\\2\", (lt_ptr) \\&\\2},/p'\''"'
lt_lt_cv_sys_global_symbol_to_cdecl='"sed -n -e '\''s/^. .* \\(.*\\)\$/extern int \\1;/p'\''"'

## ----------------- ##
## Output variables. ##
## ----------------- ##

ACLOCAL='${SHELL} /home/ho/servers/common/java/src/tomcat/tomcat-connectors-jk2/jk/native2/scripts/build/unix/missing --run aclocal-1.7'
AMDEPBACKSLASH='\'
AMDEP_FALSE='#'
AMDEP_TRUE=''
AMTAR='${SHELL} /home/ho/servers/common/java/src/tomcat/tomcat-connectors-jk2/jk/native2/scripts/build/unix/missing --run tar'
APACHE20_OEXT=''
APACHE2_BUILD=''
APACHE2_CC='gcc'
APACHE2_CFLAGS=''
APACHE2_CLEAN=''
APACHE2_CONFIG_VARS='/build/config_vars.mk'
APACHE2_DIR=''
APACHE2_HOME='/opt/broadon/pkgs/httpd'
APACHE2_INCDIR='/opt/broadon/pkgs/httpd/include'
APACHE2_INCL='-I/opt/broadon/pkgs/httpd/include'
APACHE2_LDFLAGS=''
APACHE2_LIBDIR='/opt/broadon/pkgs/httpd/lib'
APACHE2_LIBEXEC='/opt/broadon/pkgs/httpd/modules'
APACHE_BUILD=''
APACHE_CC=''
APACHE_CFLAGS=''
APACHE_CLEAN=''
APACHE_CONFIG_VARS=''
APACHE_DIR=''
APACHE_HOME=''
APACHE_INCDIR=''
APACHE_INCL=''
APACHE_LDFLAGS=''
APACHE_LIBDIR=''
APACHE_LIBEXEC=''
APR_BUILD=''
APR_CFLAGS=''
APR_CLEAN=''
APR_CONFIGURE_ARGS=''
APR_DIR=''
APR_HOME=''
APR_INCDIR='-I/home/ho/servers/common/src/apache/srclib/apr/include'
APR_LDFLAGS=''
APR_LIBDIR=''
APR_LIBDIR_LA=''
APR_LIBS='-L/opt/broadon/pkgs/httpd/lib -lapr-0'
APR_UTIL_DIR=''
APR_UTIL_INCDIR='-I/home/ho/servers/common/src/apache/srclib/apr-util/include'
APR_UTIL_LIBDIR=''
APXS2='/opt/broadon/pkgs/httpd/bin/apxs'
APXS2_CFLAGS='-I/home/ho/servers/common/include -O -pthread'
APXS2_CPPFLAGS='-DLINUX=2 -D_REENTRANT -D_XOPEN_SOURCE=500 -D_BSD_SOURCE -D_SVID_SOURCE -D_GNU_SOURCE'
APXS2_LDFLAGS=''
APXS=''
APXS_CFLAGS=''
APXS_CPPFLAGS=''
APXS_LDFLAGS=''
AR='ar'
AUTOCONF='${SHELL} /home/ho/servers/common/java/src/tomcat/tomcat-connectors-jk2/jk/native2/scripts/build/unix/missing --run autoconf'
AUTOHEADER='${SHELL} /home/ho/servers/common/java/src/tomcat/tomcat-connectors-jk2/jk/native2/scripts/build/unix/missing --run autoheader'
AUTOMAKE='${SHELL} /home/ho/servers/common/java/src/tomcat/tomcat-connectors-jk2/jk/native2/scripts/build/unix/missing --run automake-1.7'
AWK='gawk'
CC='gcc'
CCDEPMODE='depmode=none'
CFLAGS='-g -O2'
COMMON_APR_OBJECTS=''
CP='/bin/cp'
CPP='gcc -E'
CPPFLAGS=''
CXX='g++'
CXXCPP='g++ -E'
CXXDEPMODE='depmode=none'
CXXFLAGS='-g -O2'
CYGPATH_W='echo'
DEFS='-DPACKAGE_NAME=\"\" -DPACKAGE_TARNAME=\"\" -DPACKAGE_VERSION=\"\" -DPACKAGE_STRING=\"\" -DPACKAGE_BUGREPORT=\"\" -DPACKAGE=\"mod_jk2\" -DVERSION=\"2.0.2\" -DSTDC_HEADERS=1 -DHAVE_SYS_TYPES_H=1 -DHAVE_SYS_STAT_H=1 -DHAVE_STDLIB_H=1 -DHAVE_STRING_H=1 -DHAVE_MEMORY_H=1 -DHAVE_STRINGS_H=1 -DHAVE_INTTYPES_H=1 -DHAVE_STDINT_H=1 -DHAVE_UNISTD_H=1 -DHAVE_DLFCN_H=1 '
DEPDIR='.deps'
ECHO='/bin/echo'
ECHO_C=''
ECHO_N='-n'
ECHO_T=''
EGREP='grep -E'
EXEEXT=''
F77=''
FFLAGS=''
GREP='/bin/grep'
HAS_PCRE=''
HAVE_JNI=''
IIS_BUILD=''
IIS_CFLAGS=''
IIS_CLEAN=''
IIS_DIR=''
IIS_HOME=''
IIS_INCDIR=''
IIS_INCL=''
IIS_LDFLAGS=''
IIS_LIBDIR=''
INSTALL_DATA='${INSTALL} -m 644'
INSTALL_PROGRAM='${INSTALL}'
INSTALL_SCRIPT='${INSTALL}'
INSTALL_STRIP_PROGRAM='${SHELL} $(install_sh) -c -s'
INSTALL_TYPE=''
IPLANET_BUILD=''
IPLANET_CFLAGS=''
IPLANET_CLEAN=''
IPLANET_DIR=''
IPLANET_HOME=''
IPLANET_INCDIR=''
IPLANET_INCL=''
IPLANET_LDFLAGS=''
IPLANET_LIBDIR=''
JAVA_HOME=''
JAVA_PLATFORM=''
JNI_BUILD=''
LDFLAGS=''
LIBOBJS=''
LIBS=''
LIBTOOL='/bin/sh /opt/broadon/pkgs/httpd/build/libtool --silent'
LIB_JK_TYPE=''
LN_S='ln -s'
LTLIBOBJS=''
MAKEINFO='${SHELL} /home/ho/servers/common/java/src/tomcat/tomcat-connectors-jk2/jk/native2/scripts/build/unix/missing --run makeinfo'
MKDIR='/bin/mkdir'
OBJEXT='o'
OS=''
PACKAGE='mod_jk2'
PACKAGE_BUGREPORT=''
PACKAGE_NAME=''
PACKAGE_STRING=''
PACKAGE_TARNAME=''
PACKAGE_VERSION=''
PATH_SEPARATOR=':'
PCRE_LIBS=''
PERL='/usr/bin/perl'
RANLIB='ranlib'
RM='/bin/rm'
SED='/bin/sed'
SET_MAKE=''
SHELL='/bin/sh'
STRIP='strip'
TEST='/usr/bin/test'
TOMCAT33_HOME=''
TOMCAT40_HOME=''
TOMCAT41_HOME='../../../tomcat/package'
VERSION='2.0.2'
WEBSERVERS=' server/apache2'
ac_ct_AR='ar'
ac_ct_CC='gcc'
ac_ct_CXX='g++'
ac_ct_F77=''
ac_ct_RANLIB='ranlib'
ac_ct_STRIP='strip'
am__fastdepCC_FALSE=''
am__fastdepCC_TRUE='#'
am__fastdepCXX_FALSE=''
am__fastdepCXX_TRUE='#'
am__include='include'
am__leading_dot='.'
am__quote=''
bindir='${exec_prefix}/bin'
build='i686-redhat-linux-gnu'
build_alias=''
build_cpu='i686'
build_os='linux-gnu'
build_vendor='redhat'
datadir='${prefix}/share'
exec_prefix='${prefix}'
host='i686-redhat-linux-gnu'
host_alias=''
host_cpu='i686'
host_os='linux-gnu'
host_vendor='redhat'
includedir='${prefix}/include'
infodir='${prefix}/info'
install_sh='/home/ho/servers/common/java/src/tomcat/tomcat-connectors-jk2/jk/native2/scripts/build/unix/install-sh'
libdir='${exec_prefix}/lib'
libexecdir='${exec_prefix}/libexec'
localstatedir='${prefix}/var'
mandir='${prefix}/man'
oldincludedir='/usr/include'
prefix='/usr/local'
program_transform_name='s,x,x,'
sbindir='${exec_prefix}/sbin'
sharedstatedir='${prefix}/com'
sysconfdir='${prefix}/etc'
target='i686-redhat-linux-gnu'
target_alias=''
target_cpu='i686'
target_os='linux-gnu'
target_vendor='redhat'

## ----------- ##
## confdefs.h. ##
## ----------- ##

#define HAVE_DLFCN_H 1
#define HAVE_INTTYPES_H 1
#define HAVE_MEMORY_H 1
#define HAVE_STDINT_H 1
#define HAVE_STDLIB_H 1
#define HAVE_STRINGS_H 1
#define HAVE_STRING_H 1
#define HAVE_SYS_STAT_H 1
#define HAVE_SYS_TYPES_H 1
#define HAVE_UNISTD_H 1
#define PACKAGE "mod_jk2"
#define PACKAGE_BUGREPORT ""
#define PACKAGE_NAME ""
#define PACKAGE_STRING ""
#define PACKAGE_TARNAME ""
#define PACKAGE_VERSION ""
#define STDC_HEADERS 1
#define VERSION "2.0.2"
#endif
#ifdef __cplusplus
#include <stdlib.h>

configure: exit 0
