...
<FORM name="form1" method="POST" action="formTest?mode=YYYY">
	<BR/> Text:
	<INPUT type="text"   name="field1" value="" />
	<INPUT type="submit"               value="doIt" />
</FORM>
<FORM name="form2" method="POST" action="formTest?mode=XXXX">
	<BR/> Text:
	<INPUT type="text" name="field1" value="" />
	<INPUT type="submit"             value="doIt" />
</FORM>
...
