CREATE TABLE amon_reported_errors_histories
    (hr_id                          NUMBER(16) NOT NULL,
    reported_date                  DATE NOT NULL,
    error_seq                      NUMBER(8) NOT NULL,
    release_rev                    NUMBER(16),
    error_code                     VARCHAR2(30),
    error_mesg                     VARCHAR2(4000),
    status                         CHAR(1),
    status_date                    DATE,
    dispatcher_id                  NUMBER(16)
  ,
  CONSTRAINT AMONREH_PK
  PRIMARY KEY (HR_ID,REPORTED_DATE,ERROR_SEQ)
  USING INDEX
  PCTFREE     10
  INITRANS    2
  MAXTRANS    255
  TABLESPACE  amonx
  STORAGE   (
    FREELISTS   4
  ))
  TABLESPACE  amond
  STORAGE   (
    FREELISTS   4
  )
/
CREATE TABLE amon_reported_errors
    (hr_id                          NUMBER(16) NOT NULL,
    reported_date                  DATE NOT NULL,
    error_seq                      NUMBER(8) NOT NULL,
    release_rev                    NUMBER(16),
    error_code                     VARCHAR2(30),
    error_mesg                     VARCHAR2(4000),
    status                         CHAR(1),
    status_date                    DATE,
    dispatcher_id                  NUMBER(16)
  ,
  CONSTRAINT AMONRE_PK
  PRIMARY KEY (HR_ID,REPORTED_DATE,ERROR_SEQ)
  USING INDEX
  PCTFREE     10
  INITRANS    2
  MAXTRANS    255
  TABLESPACE  amonx
  STORAGE   (
    FREELISTS   4
  ))
  TABLESPACE  amond
  STORAGE   (
    FREELISTS   4
  )
/

