%!PS-Adobe-3.0
%XpPrinter-Model: Generic Printer
%%Creator: Wind/U Xprinter Version 3.1.0 (linux) (Compile Date: Aug  4 1999 13:39:24) (XpDummyUser)
%%Title: 
%%CreationDate:Wed Jun 21 15:43:51 2000
%%DocumentSuppliedResources: (atend)
%%Pages: (atend)
%%LanguageLevel: 2
%%EndComments
%%BeginProlog
/XPrinterDict dup 200 dict def load begin
/bdf{bind def}bind def
/ldf{load def}bdf
/m/rmoveto ldf
/l2/rlineto ldf
/gs/gsave ldf
/gr/grestore ldf
/np/newpath ldf
/sv/save ldf
/rs/restore ldf
/tl/translate ldf
/mt/matrix ldf
/l/length ldf
/z/dict ldf
/d/def ldf
/e/exch ldf
/a/array ldf
/ac/arc ldf
/an/arcn ldf
/b/begin ldf
/pi/putinterval ldf
/t/moveto ldf
/lo/lineto ldf
/st/stroke ldf
/p/add ldf
/s/sub ldf
/c/mul ldf
/v/div ldf
/cp/closepath ldf
/sl/scale ldf
/ff/findfont ldf
/mf/makefont ldf
/sf/setfont ldf
/f/fill ldf
/sw/setlinewidth ldf
/sc/setlinecap ldf
/sj/setlinejoin ldf
/sg/setgray ldf
/ski/ISOLatin1Encoding where{pop true}{false}ifelse d
/fcd{ff dup l z b{1 index /FID ne{d}{pop pop}ifelse}forall /Encoding ISOLatin1Encoding d currentdict end}bdf
/fdf{e definefont pop}bdf
/sdt 22 z d
sdt b
/tpm mt d
/tpt mt d
/tps mt d
/cps
{/pr2 e cvlit d
/pr1 e cvlit d
/npc pr1 l pr2 l p a d
npc 0 pr1 pi
npc pr1 l pr2 pi
npc cvx
}bdf
/rmx mt d
/frs
{72 0 rmx defaultmatrix dtransform
/yres e d /xres e d
xres dup c yres dup c p sqrt
}bdf
end

/reencodesmalldict 12 dict def
/ReEncodeSmall { 
	reencodesmalldict begin
		/newcodesandnames exch def
		/newfontname exch def
		/basefontname exch def
		/basefontdict basefontname findfont def
		/newfont basefontdict maxlength dict def

		basefontdict
		{
			exch dup /FID ne
			{ 
				dup /Encoding eq
				{ 
					ski
					{
						exch pop
						ISOLatin1Encoding dup length array copy
					}{
					 	exch dup length array copy
					}
					ifelse
					newfont 3 1 roll put
				}{
					exch newfont 3 1 roll put
				}
				ifelse
			}{
				pop pop
			}
			ifelse
		} forall

		newfont /FontName newfontname put
		newcodesandnames aload pop
		newcodesandnames length 2 idiv
		{
			newfont /Encoding get 3 1 roll put
		} repeat

		newfontname newfont definefont pop
	end
} def

/changesvec [
	16#80 /euro
	16#82 /quotesinglbase
	16#83 /florin
	16#84 /quotedblbase
	16#85 /ellipsis
	16#86 /dagger
	16#87 /daggerdbl
	16#88 /circumflex
	16#89 /perthousand
	16#8a /Scaron
	16#8b /guilsinglleft
	16#8c /OE
	16#8e /zcaron
	16#91 /quoteleft
	16#92 /quoteright
	16#93 /quotedblleft
	16#94 /quotedblright
	16#95 /bullet
	16#96 /endash
	16#97 /emdash
	16#98 /tilde
	16#99 /trademark
	16#9a /scaron
	16#9b /guilsinglright
	16#9c /oe
	16#9e /zcaron
	16#9f /Ydieresis
] def


/sus 
{sdt b
/spf e d
/sag e d 
/ces e d
300 ces v sag /spf load
setscreen
end
}bdf
/spt 18 z d
spt b
/bts
{/ybit e d /xbit e d
/byv bstr ybit bwd c xbit 8 idiv
p get d
/mask 1 7 xbit 8 mod s bitshift d
byv mask and 0 ne
}bdf
end
/bsf
{spt b
/y e d /x e d
/xix x 1 p 2 v bpx c cvi d
/yix y 1 p 2 v bpy c cvi d
xix yix bts
{/onb onb 1 p d 1}
{/ofb ofb 1 p d 0}
ifelse
end
}bdf
/setpattern
{spt b
/csz e d
/agl e d
/bwd e d
/bpy e d
/bpx e d
/bstr e d
/onb 0 d /ofb 0 d
csz agl /bsf load
sus
{ }settransfer
ofb ofb onb p v setgray
end
}bdf
/picstr 500 string d
/inch{72 c}bdf
/DP{gs np 0 360 ac cp f gr}bdf
/DL{gs np t lo st gr}bdf
/RGB{setrgbcolor}bdf
/C{gs t show gr}bdf

/ren 12 z d
/REn
{ren b
/nwc e d
/nwf e d
/bft e d
/bfd bft ff d
/nf bfd maxlength z d
bfd
{e dup /FID ne 
{dup /Encoding eq
{e dup l a copy
nf 3 1 roll put}
{e nf 3 1 roll put}
ifelse
}
{pop pop}
ifelse
}forall
nf /FontName nwf put
nwc aload pop
nwc l 2 idiv
{nf /Encoding get 3 1 roll put}
repeat
nwf nf definefont pop
end
}d
/rots{gs t rotate show gr}bdf

%%EndProlog
%%BeginSetup
%%BeginFeature: *PageRegion Letter
  <</PageSize [612 792] /ImagingBBox null>> setpagedevice
%%EndFeature
%%EndSetup
%%Page: 1 1
%%BeginPageSetup
/#copies 1 def
sv
1.0 -1.0 sl
18.0 -774.0 tl
%%EndPageSetup
%%BoundingBox: (atend)
gs
gr gs
0 0 t 0 756.0 lo 576.0 756.0 lo 576.0 0 lo cp clip np
 146.16 173.76 t 146.16 188.64 lo 175.92 188.64 lo 175.92 173.76 lo
cp clip np
0.0 0.0 0.0 RGB
/Times-Roman /Times-Roman-MSenc changesvec ReEncodeSmall
/Times-Roman-MSenc ff [12.0 0 0 -12.0 0 0] mf sf
<73> 146.16 185.04 C
<65> 150.72 185.04 C
<72> 156.0 185.04 C
<76> 160.08 185.04 C
<65> 166.08 185.04 C
<72> 171.36 185.04 C
gr gs
0 0 t 0 756.0 lo 576.0 756.0 lo 576.0 0 lo cp clip np
 18.72 224.16 t 18.72 239.04 lo 98.4 239.04 lo 98.4 224.16 lo
cp clip np
0.0 0.0 0.0 RGB
/Times-Roman-MSenc ff [12.0 0 0 -12.0 0 0] mf sf
<63> 18.72 235.44 C
<6f> 24.0 235.44 C
<6e> 30.0 235.44 C
<74> 36.0 235.44 C
<65> 39.36 235.44 C
<6e> 44.64 235.44 C
<74> 50.64 235.44 C
<68> 54.0 235.44 C
<61> 60.0 235.44 C
<72> 65.28 235.44 C
<76> 69.36 235.44 C
<65> 75.36 235.44 C
<73> 80.64 235.44 C
<74> 85.2 235.44 C
<65> 88.56 235.44 C
<72> 93.84 235.44 C
gr gs
0 0 t 0 756.0 lo 576.0 756.0 lo 576.0 0 lo cp clip np
 86.4 250.56 t 86.4 265.44 lo 142.08 265.44 lo 142.08 250.56 lo
cp clip np
0.0 0.0 0.0 RGB
/Times-Roman-MSenc ff [12.0 0 0 -12.0 0 0] mf sf
<61> 86.4 261.84 C
<64> 91.68 261.84 C
<68> 97.68 261.84 C
<61> 103.68 261.84 C
<72> 108.96 261.84 C
<76> 113.04 261.84 C
<65> 119.04 261.84 C
<73> 124.32 261.84 C
<74> 128.88 261.84 C
<65> 132.24 261.84 C
<72> 137.52 261.84 C
gr gs
0 0 t 0 756.0 lo 576.0 756.0 lo 576.0 0 lo cp clip np
 145.68 224.88 t 145.68 239.76 lo 205.92 239.76 lo 205.92 224.88 lo
cp clip np
0.0 0.0 0.0 RGB
/Times-Roman-MSenc ff [12.0 0 0 -12.0 0 0] mf sf
<70> 145.68 236.16 C
<72> 151.68 236.16 C
<69> 155.76 236.16 C
<6f> 159.12 236.16 C
<72> 165.12 236.16 C
<69> 169.2 236.16 C
<74> 172.56 236.16 C
<79> 175.92 236.16 C
<66> 181.92 236.16 C
<69> 186.0 236.16 C
<6c> 189.36 236.16 C
<74> 192.72 236.16 C
<65> 196.08 236.16 C
<72> 201.36 236.16 C
gr gs
0 0 t 0 756.0 lo 576.0 756.0 lo 576.0 0 lo cp clip np
 207.84 249.12 t 207.84 263.76 lo 259.68 263.76 lo 259.68 249.12 lo
cp clip np
0.0 0.0 0.0 RGB
/Times-Roman-MSenc ff [12.0 0 0 -12.0 0 0] mf sf
<61> 207.84 260.4 C
<6e> 213.12 260.4 C
<74> 219.12 260.4 C
<69> 222.48 260.4 C
<63> 225.84 260.4 C
<69> 231.12 260.4 C
<70> 234.48 260.4 C
<61> 240.48 260.4 C
<74> 245.76 260.4 C
<6f> 249.12 260.4 C
<72> 255.12 260.4 C
gr gs
0 0 t 0 756.0 lo 576.0 756.0 lo 576.0 0 lo cp clip np
 249.84 222.0 t 249.84 236.64 lo 296.16 236.64 lo 296.16 222.0 lo
cp clip np
0.0 0.0 0.0 RGB
/Times-Roman-MSenc ff [12.0 0 0 -12.0 0 0] mf sf
<73> 249.84 233.28 C
<63> 254.4 233.28 C
<68> 259.68 233.28 C
<65> 265.68 233.28 C
<64> 270.96 233.28 C
<75> 276.96 233.28 C
<6c> 282.96 233.28 C
<65> 286.32 233.28 C
<72> 291.6 233.28 C
gr gs
0 0 t 0 756.0 lo 576.0 756.0 lo 576.0 0 lo cp clip np
 276.24 260.4 t 276.24 275.04 lo 303.84 275.04 lo 303.84 260.4 lo
cp clip np
0.0 0.0 0.0 RGB
/Times-Roman-MSenc ff [12.0 0 0 -12.0 0 0] mf sf
<70> 276.24 271.68 C
<61> 282.24 271.68 C
<67> 287.52 271.68 C
<65> 293.52 271.68 C
<73> 298.8 271.68 C
gr gs
0 0 t 0 756.0 lo 576.0 756.0 lo 576.0 0 lo cp clip np
0.0 0.0 0.0 RGB
0.24 sw
[] 0 setdash
0 sc
0 sj
gs np 154.56 187.44 t 154.56 187.44 lo 57.12 224.16 lo st gr
gr gs
0 0 t 0 756.0 lo 576.0 756.0 lo 576.0 0 lo cp clip np
0.0 0.0 0.0 RGB
0.24 sw
[] 0 setdash
0 sc
0 sj
gs np 57.12 224.16 t 62.4 218.4 lo 64.8 225.12 lo 57.12 224.16 lo 57.12 224.16 lo eofill st gr
gs np 163.44 188.16 t 163.44 188.16 lo 110.16 249.84 lo st gr
gs np 110.16 249.84 t 112.32 242.16 lo 117.6 246.72 lo 110.16 249.84 lo 110.16 249.84 lo eofill st gr
gs np 168.72 188.88 t 168.72 188.88 lo 181.44 221.28 lo st gr
gs np 181.44 221.28 t 175.68 216.0 lo 182.16 213.36 lo 181.44 221.28 lo 181.44 221.28 lo eofill st gr
gs np 183.84 190.32 t 183.84 190.32 lo 231.12 249.84 lo st gr
gs np 231.12 249.84 t 223.92 246.48 lo 229.44 242.16 lo 231.12 249.84 lo 231.12 249.84 lo eofill st gr
gs np 192.72 183.6 t 192.72 183.6 lo 267.84 218.88 lo st gr
gs np 267.84 218.88 t 259.92 219.12 lo 262.8 212.88 lo 267.84 218.88 lo 267.84 218.88 lo eofill st gr
gs np 188.16 188.16 t 188.16 188.16 lo 280.56 258.24 lo st gr
gs np 280.56 258.24 t 272.64 256.56 lo 276.96 251.04 lo 280.56 258.24 lo 280.56 258.24 lo eofill st gr
gr gs
0 0 t 0 756.0 lo 576.0 756.0 lo 576.0 0 lo cp clip np
 233.28 79.68 t 233.28 94.56 lo 247.68 94.56 lo 247.68 79.68 lo
cp clip np
0.0 0.0 0.0 RGB
/Times-Roman-MSenc ff [12.0 0 0 -12.0 0 0] mf sf
<73> 233.28 90.96 C
<72> 237.84 90.96 C
<63> 241.92 90.96 C
gr gs
0 0 t 0 756.0 lo 576.0 756.0 lo 576.0 0 lo cp clip np
0.0 0.0 0.0 RGB
0.24 sw
[] 0 setdash
0 sc
0 sj
gs np 236.16 93.36 t 236.16 93.36 lo 172.56 171.6 lo st gr
gs np 172.56 171.6 t 174.24 163.92 lo 179.76 168.24 lo 172.56 171.6 lo 172.56 171.6 lo eofill st gr
gs np 230.16 94.08 t 230.16 94.08 lo 78.72 147.6 lo st gr
gs np 78.72 147.6 t 84.24 141.84 lo 86.64 148.56 lo 78.72 147.6 lo 78.72 147.6 lo eofill st gr
gr gs
0 0 t 0 756.0 lo 576.0 756.0 lo 576.0 0 lo cp clip np
 514.56 178.32 t 514.56 193.2 lo 525.12 193.2 lo 525.12 178.32 lo
cp clip np
0.0 0.0 0.0 RGB
/Times-Roman-MSenc ff [12.0 0 0 -12.0 0 0] mf sf
<68> 514.56 189.6 C
<72> 520.56 189.6 C
gr gs
0 0 t 0 756.0 lo 576.0 756.0 lo 576.0 0 lo cp clip np
0.0 0.0 0.0 RGB
0.24 sw
[] 0 setdash
0 sc
0 sj
gs np 246.0 93.36 t 246.0 93.36 lo 506.16 176.88 lo st gr
gs np 506.16 176.88 t 498.48 178.08 lo 500.64 171.36 lo 506.16 176.88 lo 506.16 176.88 lo eofill st gr
gr gs
0 0 t 0 756.0 lo 576.0 756.0 lo 576.0 0 lo cp clip np
 23.28 196.32 t 23.28 211.2 lo 50.88 211.2 lo 50.88 196.32 lo
cp clip np
0.0 0.0 0.0 RGB
/Times-Roman-MSenc ff [12.0 0 0 -12.0 0 0] mf sf
<64> 23.28 207.6 C
<62> 29.28 207.6 C
<61> 35.28 207.6 C
<73> 40.56 207.6 C
<65> 45.12 207.6 C
gr gs
0 0 t 0 756.0 lo 576.0 756.0 lo 576.0 0 lo cp clip np
0.0 0.0 0.0 RGB
0.24 sw
[] 0 setdash
0 sc
0 sj
gs np 141.84 181.44 t 141.84 181.44 lo 53.28 200.16 lo st gr
gs np 53.28 200.16 t 59.52 195.36 lo 60.96 202.08 lo 53.28 200.16 lo 53.28 200.16 lo eofill st gr
gr gs
0 0 t 0 756.0 lo 576.0 756.0 lo 576.0 0 lo cp clip np
 369.12 218.88 t 369.12 233.76 lo 402.96 233.76 lo 402.96 218.88 lo
cp clip np
0.0 0.0 0.0 RGB
/Times-Roman-MSenc ff [12.0 0 0 -12.0 0 0] mf sf
<66> 369.12 230.16 C
<65> 373.2 230.16 C
<74> 378.48 230.16 C
<63> 381.84 230.16 C
<68> 387.12 230.16 C
<65> 393.12 230.16 C
<72> 398.4 230.16 C
gr gs
0 0 t 0 756.0 lo 576.0 756.0 lo 576.0 0 lo cp clip np
 360.0 231.84 t 360.0 246.48 lo 412.56 246.48 lo 412.56 231.84 lo
cp clip np
0.0 0.0 0.0 RGB
/Times-Roman-MSenc ff [12.0 0 0 -12.0 0 0] mf sf
<74> 360.0 243.12 C
<72> 363.36 243.12 C
<61> 367.44 243.12 C
<6e> 372.72 243.12 C
<73> 378.72 243.12 C
<6d> 383.28 243.12 C
<69> 392.64 243.12 C
<74> 396.0 243.12 C
<74> 399.36 243.12 C
<65> 402.72 243.12 C
<72> 408.0 243.12 C
gr gs
0 0 t 0 756.0 lo 576.0 756.0 lo 576.0 0 lo cp clip np
 406.56 212.88 t 406.56 227.76 lo 449.04 227.76 lo 449.04 212.88 lo
cp clip np
0.0 0.0 0.0 RGB
/Times-Roman-MSenc ff [12.0 0 0 -12.0 0 0] mf sf
<63> 406.56 224.16 C
<6f> 411.84 224.16 C
<6c> 417.84 224.16 C
<6c> 421.2 224.16 C
<65> 424.56 224.16 C
<63> 429.84 224.16 C
<74> 435.12 224.16 C
<6f> 438.48 224.16 C
<72> 444.48 224.16 C
gr gs
0 0 t 0 756.0 lo 576.0 756.0 lo 576.0 0 lo cp clip np
 303.12 232.56 t 303.12 247.2 lo 354.24 247.2 lo 354.24 232.56 lo
cp clip np
0.0 0.0 0.0 RGB
/Times-Roman-MSenc ff [12.0 0 0 -12.0 0 0] mf sf
<6d> 303.12 243.84 C
<61> 312.48 243.84 C
<72> 317.76 243.84 C
<73> 321.84 243.84 C
<68> 326.4 243.84 C
<61> 332.4 243.84 C
<6c> 337.68 243.84 C
<6c> 341.04 243.84 C
<65> 344.4 243.84 C
<72> 349.68 243.84 C
gr gs
0 0 t 0 756.0 lo 576.0 756.0 lo 576.0 0 lo cp clip np
0.0 0.0 0.0 RGB
0.24 sw
[] 0 setdash
0 sc
0 sj
gs np 201.12 179.04 t 201.12 179.04 lo 321.84 233.28 lo st gr
gs np 321.84 233.28 t 313.92 233.76 lo 316.8 227.28 lo 321.84 233.28 lo 321.84 233.28 lo eofill st gr
gs np 204.72 170.16 t 204.72 170.16 lo 375.12 218.16 lo st gr
gs np 375.12 218.16 t 367.2 219.84 lo 369.12 212.88 lo 375.12 218.16 lo 375.12 218.16 lo eofill st gr
gs np 209.28 164.16 t 209.28 164.16 lo 430.56 213.84 lo st gr
gs np 430.56 213.84 t 422.88 215.52 lo 424.32 208.8 lo 430.56 213.84 lo 430.56 213.84 lo eofill st gr
gs np 209.28 176.88 t 209.28 176.88 lo 360.0 233.28 lo st gr
gs np 360.0 233.28 t 352.08 234.24 lo 354.48 227.52 lo 360.0 233.28 lo 360.0 233.28 lo eofill st gr
gr gs
0 0 t 0 756.0 lo 576.0 756.0 lo 576.0 0 lo cp clip np
 531.84 218.4 t 531.84 233.04 lo 570.96 233.04 lo 570.96 218.4 lo
cp clip np
0.0 0.0 0.0 RGB
/Times-Roman-MSenc ff [12.0 0 0 -12.0 0 0] mf sf
<72> 531.84 229.68 C
<65> 535.92 229.68 C
<63> 541.2 229.68 C
<65> 546.48 229.68 C
<69> 551.76 229.68 C
<76> 555.12 229.68 C
<65> 561.12 229.68 C
<72> 566.4 229.68 C
gr gs
0 0 t 0 756.0 lo 576.0 756.0 lo 576.0 0 lo cp clip np
 491.28 236.4 t 491.28 251.04 lo 545.04 251.04 lo 545.04 236.4 lo
cp clip np
0.0 0.0 0.0 RGB
/Times-Roman-MSenc ff [12.0 0 0 -12.0 0 0] mf sf
<63> 491.28 247.68 C
<61> 496.56 247.68 C
<74> 501.84 247.68 C
<65> 505.2 247.68 C
<67> 510.48 247.68 C
<6f> 516.48 247.68 C
<72> 522.48 247.68 C
<69> 526.56 247.68 C
<7a> 529.92 247.68 C
<65> 535.2 247.68 C
<72> 540.48 247.68 C
gr gs
0 0 t 0 756.0 lo 576.0 756.0 lo 576.0 0 lo cp clip np
 460.8 219.12 t 460.8 233.76 lo 518.64 233.76 lo 518.64 219.12 lo
cp clip np
0.0 0.0 0.0 RGB
/Times-Roman-MSenc ff [12.0 0 0 -12.0 0 0] mf sf
<70> 460.8 230.4 C
<72> 466.8 230.4 C
<6f> 470.88 230.4 C
<78> 476.88 230.4 C
<79> 482.88 230.4 C
<73> 488.88 230.4 C
<65> 493.44 230.4 C
<72> 498.72 230.4 C
<76> 502.8 230.4 C
<65> 508.8 230.4 C
<72> 514.08 230.4 C
gr gs
0 0 t 0 756.0 lo 576.0 756.0 lo 576.0 0 lo cp clip np
0.0 0.0 0.0 RGB
0.24 sw
[] 0 setdash
0 sc
0 sj
gs np 504.72 198.72 t 504.72 198.72 lo 487.44 216.0 lo st gr
gs np 487.44 216.0 t 490.08 208.56 lo 495.12 213.36 lo 487.44 216.0 lo 487.44 216.0 lo eofill st gr
gs np 530.16 196.56 t 530.16 196.56 lo 556.56 218.16 lo st gr
gs np 556.56 218.16 t 548.88 216.48 lo 553.2 210.96 lo 556.56 218.16 lo 556.56 218.16 lo eofill st gr
gs np 525.84 200.16 t 525.84 200.16 lo 522.0 236.4 lo st gr
gs np 522.0 236.4 t 519.12 228.96 lo 526.32 229.68 lo 522.0 236.4 lo 522.0 236.4 lo eofill st gr
gr gs
0 0 t 0 756.0 lo 576.0 756.0 lo 576.0 0 lo cp clip np
 9.84 8.4 t 9.84 37.44 lo 65.04 37.44 lo 65.04 8.4 lo
cp clip np
0.0 0.0 0.0 RGB
/Times-Roman-MSenc ff [12.0 0 0 -12.0 0 0] mf sf
<73> 9.84 19.68 C
<6f> 14.4 19.68 C
<75> 20.4 19.68 C
<72> 26.4 19.68 C
<63> 30.48 19.68 C
<65> 35.76 19.68 C
<20> 41.04 19.68 C
<74> 44.16 19.68 C
<72> 47.52 19.68 C
<65> 51.6 19.68 C
<65> 56.88 19.68 C
<30> 9.84 34.08 C
<36> 15.84 34.08 C
<2f> 21.84 34.08 C
<32> 25.2 34.08 C
<31> 31.2 34.08 C
<2f> 37.2 34.08 C
<32> 40.56 34.08 C
<30> 46.56 34.08 C
<30> 52.56 34.08 C
<30> 58.56 34.08 C
gr gs
0 0 t 0 756.0 lo 576.0 756.0 lo 576.0 0 lo cp clip np
 45.12 142.32 t 45.12 156.96 lo 61.68 156.96 lo 61.68 142.32 lo
cp clip np
0.0 0.0 0.0 RGB
/Times-Roman-MSenc ff [12.0 0 0 -12.0 0 0] mf sf
<75> 45.12 153.6 C
<74> 51.12 153.6 C
<69> 54.48 153.6 C
<6c> 57.84 153.6 C
gr gs
0 0 t 0 756.0 lo 576.0 756.0 lo 576.0 0 lo cp clip np
 232.56 33.84 t 232.56 48.72 lo 241.2 48.72 lo 241.2 33.84 lo
cp clip np
0.0 0.0 0.0 RGB
/Times-Roman-MSenc ff [12.0 0 0 -12.0 0 0] mf sf
<72> 232.56 45.12 C
<66> 236.64 45.12 C
gr gs
0 0 t 0 756.0 lo 576.0 756.0 lo 576.0 0 lo cp clip np
0.0 0.0 0.0 RGB
0.24 sw
[] 0 setdash
0 sc
0 sj
gs np 237.84 50.4 t 237.84 50.4 lo 237.84 78.24 lo st gr
gs np 237.84 78.24 t 234.24 71.28 lo 241.2 71.28 lo 237.84 78.24 lo 237.84 78.24 lo eofill st gr
gr gs
0 0 t 0 756.0 lo 576.0 756.0 lo 576.0 0 lo cp clip np
 167.28 54.96 t 167.28 69.6 lo 185.04 69.6 lo 185.04 54.96 lo
cp clip np
0.0 0.0 0.0 RGB
/Times-Roman-MSenc ff [12.0 0 0 -12.0 0 0] mf sf
<64> 167.28 66.24 C
<6f> 173.28 66.24 C
<63> 179.28 66.24 C
gr gs
0 0 t 0 756.0 lo 576.0 756.0 lo 576.0 0 lo cp clip np
0.0 0.0 0.0 RGB
0.24 sw
[] 0 setdash
0 sc
0 sj
gs np 231.84 46.8 t 231.84 46.8 lo 189.84 58.08 lo st gr
gs np 189.84 58.08 t 195.6 52.8 lo 197.52 59.52 lo 189.84 58.08 lo 189.84 58.08 lo eofill st gr
gr gs
0 0 t 0 756.0 lo 576.0 756.0 lo 576.0 0 lo cp clip np
 264.72 58.8 t 264.72 73.44 lo 288.48 73.44 lo 288.48 58.8 lo
cp clip np
0.0 0.0 0.0 RGB
/Times-Roman-MSenc ff [12.0 0 0 -12.0 0 0] mf sf
<74> 264.72 70.08 C
<6f> 268.08 70.08 C
<6f> 274.08 70.08 C
<6c> 280.08 70.08 C
<73> 283.44 70.08 C
gr gs
0 0 t 0 756.0 lo 576.0 756.0 lo 576.0 0 lo cp clip np
0.0 0.0 0.0 RGB
0.24 sw
[] 0 setdash
0 sc
0 sj
gs np 246.72 43.68 t 246.72 43.68 lo 272.16 58.8 lo st gr
gs np 272.16 58.8 t 264.24 58.08 lo 267.84 52.08 lo 272.16 58.8 lo 272.16 58.8 lo eofill st gr
gr gs
0 0 t 0 756.0 lo 576.0 756.0 lo 576.0 0 lo cp clip np
 303.12 47.52 t 303.12 62.16 lo 323.52 62.16 lo 323.52 47.52 lo
cp clip np
0.0 0.0 0.0 RGB
/Times-Roman-MSenc ff [12.0 0 0 -12.0 0 0] mf sf
<6a> 303.12 58.8 C
<61> 306.48 58.8 C
<76> 311.76 58.8 C
<61> 317.76 58.8 C
gr gs
0 0 t 0 756.0 lo 576.0 756.0 lo 576.0 0 lo cp clip np
0.0 0.0 0.0 RGB
0.24 sw
[] 0 setdash
0 sc
0 sj
gs np 249.84 37.68 t 249.84 37.68 lo 302.16 51.12 lo st gr
gs np 302.16 51.12 t 294.48 52.8 lo 296.16 46.08 lo 302.16 51.12 lo 302.16 51.12 lo eofill st gr
gr
%%PageTrailer
rs
%%BoundingBox: 18 500 588 774
showpage
%%Trailer
%%Pages: 1
end
%%DocumentSuppliedResources: 
%%EOF
