*PADS-PCB*
*PART*
BT1    3V BATTERY
C1     0805
C10    0805
C100   0805
C101   0805
C102   0805
C103   0805
C104   0805
C105   0805
C106   0805
C107   0805
C108   0805
C11    0805
C12    0805
C13    0805
C14    0805
C15    0805
C16    0805
C17    0805
C18    0805
C19    0805
C2     D-CASE
C20    0805
C21    0805
C22    0805
C23    D-Case
C24    0805
C25    0805
C26    D-Case
C27    0805
C28    0805
C29    0805
C3     0805
C30    0805
C31    0805
C32    B-Case
C33    B-Case
C34    0805
C35    0805
C36    0805
C37    0805
C38    0805
C39    0805
C4     0805
C40    0805
C41    0805
C42    0805
C43    0805
C44    0805
C45    0805
C46    0805
C47    0805
C48    0805
C49    0805
C5     0805
C50    0805
C51    B-Case
C52    0805
C53    0805
C54    0805
C55    0805
C56    0805
C57    0805
C58    D-CASE
C59    D-CASE
C6     0805
C60    D-CASE
C61    D-CASE
C62    D-CASE
C63    D-CASE
C66    0805
C67    0805
C68    0805
C69    0805
C7     0805
C70    0805
C71    0805
C72    0805
C73    0805
C74    0805
C75    0805
C76    D-CASE
C77    D-CASE
C78    D-CASE
C8     0805
C86    0805
C87    0805
C88    0805
C89    0805
C9     B-Case
C90    0805
C91    0805
C92    0805
C93    0805
C94    0805
C95    0805
C96    0805
C97    0805
C98    0805
C99    0805
D1     0805
D2     0805
D3     1206
D4     1206
D5     1206
D6     1206
D7     0805
F1     SMD100
J1     RA-Thru-hole
J2     PCI FINGERS
J3     IDE CON.
J4     IDE CON.
J5     PHONEJACK STEREO
J6     RCA JACK
J7     RCA JACK
J8     8P_PHJK_UNSHIELD
JP1    HEADER 3
JP2    HEADER 8X2
JP3    HEADER 6X2
JP4    HEADER 3X2
L1     0805
L2     0805
L3     0805
P1     Thru-hole
R1     0805
R10    0805
R100   0805
R101   0805
R102   0805
R103   0805
R104   0805
R105   0805
R106   0805
R107   0805
R108   0805
R109   0805
R11    0805
R110   0805
R111   0805
R112   0805
R113   0805
R114   0805
R115   0805
R116   0805
R117   0805
R118   0805
R119   0805
R12    0805
R120   0805
R121   0805
R122   0805
R123   0805
R124   0805
R125   0805
R126   0805
R127   0805
R128   0805
R129   0805
R13    0805
R130   0805
R14    0805
R15    0805
R16    0805
R17    0805
R18    0805
R19    0805
R2     0805
R20    0805
R21    0805
R22    0805
R23    0805
R24    0805
R25    0805
R26    0805
R27    0805
R28    0805
R29    0805
R3     0805
R30    0805
R31    0805
R32    0805
R33    0805
R34    0805
R35    0805
R36    0805
R37    0805
R38    0805
R39    0805
R4     0805
R40    0805
R41    0805
R42    0805
R43    0805
R44    0805
R45    0805
R46    0805
R47    SOE16
R48    0805
R49    0805
R5     0805
R50    0805
R51    0805
R52    0805
R53    0805
R54    0805
R55    SOE16
R56    0805
R57    0805
R58    0805
R59    0805
R6     0805
R60    0805
R61    0805
R62    0805
R63    0805
R64    0805
R65    0805
R66    0805
R67    0805
R68    0805
R69    SOE16
R7     0805
R70    SOE16
R71    0805
R72    0805
R73    0805
R74    0805
R75    0805
R76    0805
R77    0805
R78    0805
R79    0805
R8     0805
R80    0805
R81    0805
R82    0805
R83    0805
R84    0805
R85    0805
R86    0805
R87    0805
R88    0805
R89    0805
R9     0805
R90    0805
R91    0805
R92    0805
R93    0805
R94    0805
R95    0805
R96    0805
R97    0805
R98    0805
R99    0805
S1     plunger-SW SPDT
T1     16P DIP
U1     20P SOIC
U10    328P-BGA
U11    20P-SOIC
U13    8P DIP
U14    8P DIP
U15    132P-PQFP
U16    28P-SOIC
U17    28P-SOIC
U2     SMT
U3     20P SOIC
U4     14P-SOIC
U5     SO-8
U6     100P PQFP
U7     100L QFP
U8     TSSOP-8
U9     24P-SOP
Y1     SMD
Y2     SMD
Y3     SMD
Y4     SMD
Y5     SMD

*NET*
*SIGNAL* MSD5
U16.17 U15.92
*SIGNAL* SK
U16.13 U15.89 JP4.3 U8.2 U7.79
*SIGNAL* MSD6
U16.18 U15.93
*SIGNAL* MSD7
U16.19 U15.94
*SIGNAL* N233557
U15.44 R117.1
*SIGNAL* N234032
R123.2 R122.2 C106.1
*SIGNAL* TPOUTP
R120.2 R121.2 U7.45 T1.1
*SIGNAL* N233560
U15.45 R118.1
*SIGNAL* GDLNK_LED
U15.54 U7.62 D5.2
*SIGNAL* N233577
U15.47 R120.1
*SIGNAL* MSD13
U17.17 U15.82
*SIGNAL* MSD11
U17.15 U15.80
*SIGNAL* MSD14
U17.18 U15.85
*SIGNAL* MSD10
U17.13 U15.79
*SIGNAL* N225967
U15.59 Y5.2 R124.1 C108.1
*SIGNAL* DI
U16.12 U15.88 JP4.5 U8.3 U7.78
*SIGNAL* DO
U16.11 U15.87 U7.77 JP3.1 U8.4
*SIGNAL* MSD15
U17.19 U15.86
*SIGNAL* MSD3
U16.15 U15.90
*SIGNAL* EECS
U15.96 U7.76 U8.1
*SIGNAL* COL_LED
U15.56 U7.61 D4.2
*SIGNAL* N240718
U15.52 R119.2
*SIGNAL* ACT_LED
U15.55 U7.63 D6.2
*SIGNAL* TPINN
U15.43 R122.1 U7.58 T1.8 R29.1
*SIGNAL* N233580
U15.46 R121.1
*SIGNAL* TPOUTN
R117.2 R118.2 U7.46 T1.3
*SIGNAL* MSD4
U16.16 U15.91
*SIGNAL* MSD12
U17.16 U15.81
*SIGNAL* MSD8
U17.11 U15.77
*SIGNAL* N225970
U15.58 Y5.1 R124.2 C107.1
*SIGNAL* MSA11
U16.8 U17.8 U15.71
*SIGNAL* MSA13
U16.10 U17.10 U15.73
*SIGNAL* MSA5
U16.2 U17.2 U15.64
*SIGNAL* MSA1
U16.21 U17.21 U15.60
*SIGNAL* MSA10
U16.7 U17.7 U15.69
*SIGNAL* MSA12
U16.9 U17.9 U15.72
*SIGNAL* MSA4
U16.25 U17.25 U15.63
*SIGNAL* TPINP
U15.42 R123.1 U7.59 T1.6 R29.2
*SIGNAL* MSA7
U16.4 U17.4 U15.66
*SIGNAL* N232086
U15.74 U16.27 U17.27
*SIGNAL* N232059
U16.20 U15.95 U17.20
*SIGNAL* N232145
U15.76 U16.22 U17.22
*SIGNAL* MSA2
U16.23 U17.23 U15.61
*SIGNAL* MSA6
U16.3 U17.3 U15.65
*SIGNAL* MSA3
U16.24 U17.24 U15.62
*SIGNAL* MSA8
U16.5 U17.5 U15.67
*SIGNAL* MSA9
U16.6 U17.6 U15.68 R116.2
*SIGNAL* MSD9
U17.12 U15.78
*SIGNAL* N286403
U6.42 C27.1
*SIGNAL* N286456
U6.44 C28.1
*SIGNAL* N286553
C32.1 R12.2
*SIGNAL* N286559
C33.1 R13.2
*SIGNAL* N37302
C4.1 L3.1 J1.B4
*SIGNAL* N37586
L1.1 R1.1 F1.2
*SIGNAL* AD27
U10.D3 J2.B23
*SIGNAL* CBE3
U10.B1 J2.B26
*SIGNAL* CBE1
U10.C7 J2.B44
*SIGNAL* N37291
J1.A4 C3.1 L2.1
*SIGNAL* N39029
U2.10 C18.1
*SIGNAL* N38952
U2.5 C16.1
*SIGNAL* N38945
U2.8 C17.1
*SIGNAL* N38875
U2.7 R3.2 C11.1
*SIGNAL* N38795
R4.2 U2.1
*SIGNAL* N38804
C12.2 R5.2 U2.2
*SIGNAL* SBVO
J1.B1 C2.1 C1.1 L1.2 J1.A1
*SIGNAL* N38357
U1.3 P1.6L
*SIGNAL* N38351
U1.5 P1.7L
*SIGNAL* N38339
U1.9 P1.9L
*SIGNAL* N38602
U1.8 P1.4L
*SIGNAL* N133570
U3.8 P1.4U
*SIGNAL* AOUTR
C33.2 J5.4 R15.1 J7.1
*SIGNAL* AOUTL
C32.2 J5.2 R14.1 J6.1
*SIGNAL* N23930
U6.47 C29.2 C30.2
*SIGNAL* N32358
R10.1 J4.28
*SIGNAL* N32167
R11.2 J4.39
*SIGNAL* N32174
R8.2 J3.39
*SIGNAL* N32351
J3.28 R7.1
*SIGNAL* N32181
R8.1 D1.2
*SIGNAL* N38345
U1.7 P1.8L
*SIGNAL* N38354
U1.4 P1.2L
*SIGNAL* N38596
U1.6 P1.3L
*SIGNAL* N38584
U1.2 P1.1L
*SIGNAL* N133544
U3.9 P1.9U
*SIGNAL* N133548
U3.5 P1.7U
*SIGNAL* N156420
U4.9 R125.1
*SIGNAL* N27817
R32.2 D6.1
*SIGNAL* N24342
U6.39 C25.2 C26.1
*SIGNAL* N16676
U6.79 Y1.2 C34.1 R16.2
*SIGNAL* N16664
U6.78 Y1.1 R16.1 C35.1
*SIGNAL* N23927
U6.45 C29.1
*SIGNAL* N23946
U6.46 C31.2 C28.2
*SIGNAL* N24069
R12.1 U6.50
*SIGNAL* N24057
R13.1 U6.51
*SIGNAL* N85221
U6.55 JP1.1
*SIGNAL* N85224
U6.61 JP1.2
*SIGNAL* N85227
U6.62 JP1.3
*SIGNAL* N32073
U4.12 J3.1 J4.1
*SIGNAL* N32164
D2.2 R11.1
*SIGNAL* N32184
D1.1 D2.1 D3.2
*SIGNAL* N156427
U4.11 R126.1
*SIGNAL* N27859
R30.2 D4.1
*SIGNAL* N27811
R31.2 D5.1
*SIGNAL* N30410
C45.1 T1.7
*SIGNAL* N45474
T1.10 C46.1
*SIGNAL* N28971
JP4.6 R26.1
*SIGNAL* N28863
JP4.4 R25.1
*SIGNAL* N28860
JP4.2 R24.1
*SIGNAL* N28511
JP3.12 R23.1
*SIGNAL* N28508
JP3.10 R22.1
*SIGNAL* N28505
JP3.8 R21.1
*SIGNAL* N28502
JP3.6 R20.1
*SIGNAL* N28499
JP3.4 R19.1
*SIGNAL* N28496
JP3.2 R18.1
*SIGNAL* N30478
T1.14 J8.2
*SIGNAL* N30502
T1.9 J8.6
*SIGNAL* N30466
J8.1 T1.16
*SIGNAL* N27716
U7.50 Y2.2 R33.2 C49.1
*SIGNAL* N30384
T1.2 C44.1
*SIGNAL* N45481
T1.15 C47.1
*SIGNAL* JP
R17.1 U7.65
*SIGNAL* N30490
T1.11 J8.3
*SIGNAL* N80516
U7.99 JP2.12
*SIGNAL* BD3
JP3.11 U7.81
*SIGNAL* BD4
JP4.1 U7.80
*SIGNAL* N80540
U7.97 JP2.16
*SIGNAL* N80468
U7.3 JP2.4
*SIGNAL* N80456
U7.4 JP2.2
*SIGNAL* GNDA
U15.41 C104.2 C105.2 U7.44 U7.52 C41.2 C43.2 C42.2
C24.1 U6.41 J6.2 J7.2 J5.1 R14.2 R15.2 C25.1
C26.2 C31.1 U5.3 U5.7 U5.2 U5.6 C30.1 C27.2
C23.2
*SIGNAL* VCCA_5
U15.40 C104.1 C105.1 U7.47 U7.57 C41.1 C43.1 C42.1
U6.43 C24.2 U5.1 C23.1
*SIGNAL* N27731
Y2.1 U7.51 R33.1 C48.1
*SIGNAL* BD1
JP3.7 U7.84
*SIGNAL* N80480
U7.2 JP2.6
*SIGNAL* BA14
JP3.3 U7.74
*SIGNAL* N80492
U7.1 JP2.8
*SIGNAL* N80504
U7.100 JP2.10
*SIGNAL* BD0
JP3.5 U7.85
*SIGNAL* N80528
U7.98 JP2.14
*SIGNAL* N447803
J4.34 R128.1
*SIGNAL* SA6
U15.125 U10.T17 U7.12 U6.5
*SIGNAL* GPIO4
U10.W12 R127.2
*SIGNAL* GPIO5
U10.Y12 R128.2
*SIGNAL* N99138
U10.E17 R40.2
*SIGNAL* DTR2
R37.2 U10.V4 U3.13
*SIGNAL* N450977
R129.2 U10.L20
*SIGNAL* N452112
U10.D15 R130.2
*SIGNAL* N122188
U10.D17 R41.2
*SIGNAL* N107715
U9.20 U9.22 S1.1 C50.1
*SIGNAL* N13271
D7.1 BT1.1
*SIGNAL* N13274
C51.1 S1.3 D7.2
*SIGNAL* N12878
R34.2 R35.1 C53.1 Y3.1 U9.2
*SIGNAL* N12857
Y3.2 C52.1 R34.1 U9.3
*SIGNAL* N13162
U9.13 U4.6 R36.1
*SIGNAL* N107925
U4.4 U4.5
*SIGNAL* N28191
U7.64 R28.1
*SIGNAL* BD2
JP3.9 U7.82
*SIGNAL* N447791
J3.34 R127.1
*SIGNAL* RSTDRV
U15.30 U10.T10 U7.33 U6.81 U4.13
*SIGNAL* SA10
U10.V18 U7.18 U6.100
*SIGNAL* SMEMR
U15.10 U10.U14 U7.31
*SIGNAL* SA2
U15.121 U10.R20 U7.8 U6.8
*SIGNAL* SA14
U15.2 U10.W17 U7.22 U6.94
*SIGNAL* SA5
U15.124 U10.T20 U7.11 U6.4
*SIGNAL* RTS1
R39.2 U10.Y5 U1.16
*SIGNAL* RXD1
U10.Y6 U1.17
*SIGNAL* DTR1
U10.V6 U1.13
*SIGNAL* TXD1
U10.W6 U1.15
*SIGNAL* RI2
U10.Y1 U3.12
*SIGNAL* DACK1
U10.Y17 U6.66
*SIGNAL* DSR1
U10.U6 U1.18
*SIGNAL* DCD1
U10.T7 U1.19
*SIGNAL* RTCDS
U10.A14 U9.17
*SIGNAL* N11031
U10.K20 R43.2
*SIGNAL* SA18
U15.6 U10.W15 U7.26
*SIGNAL* SA9
U15.132 U10.V20 U7.16 U6.1
*SIGNAL* SMEMW
U15.11 U10.W14 U7.32
*SIGNAL* SA3
U15.122 U10.T18 U7.9 U6.9
*SIGNAL* AEN
U15.12 U10.V14 U7.34 U6.11
*SIGNAL* N44998
R45.2 U10.A15
*SIGNAL* RTS2
U10.W3 R38.1 U3.16
*SIGNAL* DACK0
U10.F20 U6.68
*SIGNAL* RTCAS
U10.C14 U9.14
*SIGNAL* IRRXH
U10.U13 U2.3
*SIGNAL* DSR2
U10.Y3 U3.18
*SIGNAL* RXD2
U10.Y4 U3.17
*SIGNAL* DACK2
U10.T16 U6.64
*SIGNAL* N11112
U10.R17 R42.2
*SIGNAL* CTS2
U10.Y2 U3.14
*SIGNAL* CTS1
U10.W5 U1.14
*SIGNAL* SA11
U10.W19 U7.19 U6.99
*SIGNAL* SA12
U10.Y20 U7.20 U6.96
*SIGNAL* SA1
U15.120 U10.R19 U9.23 U7.7 U6.97
*SIGNAL* SA17
U15.5 U10.U15 U7.25
*SIGNAL* SA19
U15.7 U10.T14 U7.27
*SIGNAL* SA16
U15.4 U10.Y16 U7.24
*SIGNAL* SA8
U15.127 U10.U18 U7.15 U6.2
*SIGNAL* SA4
U15.123 U10.T19 U7.10 U6.10
*SIGNAL* SA15
U15.3 U10.V16 U7.23 U6.93
*SIGNAL* SA7
U15.126 U10.U19 U7.13 U6.6
*SIGNAL* SIRQI
U10.D12 J3.31
*SIGNAL* SIRQII
U10.E13 J4.31
*SIGNAL* IRRXL
U10.W13 U2.4
*SIGNAL* PCIRST
U10.M20 U10.K18 U4.3 J2.A15
*SIGNAL* TXD2
U10.W4 U3.15
*SIGNAL* DCD2
U10.U5 U3.19
*SIGNAL* SD9
U15.99 U10.D18 U7.94
*SIGNAL* SA13
U15.1 U10.Y18 U7.21 U6.95
*SIGNAL* SD10
U15.101 U10.C19 U7.93
*SIGNAL* SD15
U15.108 U10.A18 U7.87
*SIGNAL* SD4
U15.21 U11.15 U7.40 U6.16
*SIGNAL* SA0
U15.119 U10.R18 U7.5 U6.98
*SIGNAL* IRTX
U10.T13 C12.1 R5.1
*SIGNAL* RTCRW
U10.B14 U9.15
*SIGNAL* XD6
U11.3 U10.B17 U9.10
*SIGNAL* XD3
U10.B16 U11.6 U9.7
*SIGNAL* XD7
U11.2 U10.C17 U9.11
*SIGNAL* N101385
R44.1 U10.M19
*SIGNAL* XD4
U11.5 U10.C16 U9.8
*SIGNAL* RI1
U10.V5 U1.12
*SIGNAL* XD5
U11.4 U10.A17 U9.9
*SIGNAL* XD1
U11.8 U10.C15 U9.5
*SIGNAL* SD6
U15.24 U11.17 U7.42 U6.18
*SIGNAL* SD0
U15.15 U11.11 U7.36 U6.12
*SIGNAL* SD7
U15.25 U11.18 U7.43 U6.19
*SIGNAL* SD11
U15.102 U10.B20 U7.92
*SIGNAL* SD5
U15.22 U11.16 U7.41 U6.17
*SIGNAL* SD1
U15.16 U11.12 U7.37 U6.13
*SIGNAL* SD12
U15.104 U10.B18 U7.91
*SIGNAL* SD13
U15.105 U10.A20 U7.90
*SIGNAL* SD14
U15.107 U10.A19 U7.88
*SIGNAL* SD8
U15.98 U10.D20 U7.95
*SIGNAL* SD3
U15.19 U11.14 U7.39 U6.15
*SIGNAL* SD2
U15.18 U11.13 U7.38 U6.14
*SIGNAL* PIDE_IOW
R68.2 J3.23
*SIGNAL* XD2
U11.7 U10.A16 U9.6
*SIGNAL* XD0
U10.B15 U11.9 U9.4
*SIGNAL* XDIR
U10.D14 U11.1
*SIGNAL* N01296
U10.E1 R62.1
*SIGNAL* N01130
U10.R3 R69.4
*SIGNAL* SIDE_A2
R77.2 J4.36
*SIGNAL* SIDE_A1
R78.2 J4.33
*SIGNAL* SIDE_A0
R79.2 J4.35
*SIGNAL* SIDE_CS3
R80.2 J4.38
*SIGNAL* SIDE_CS1
R81.2 J4.37
*SIGNAL* SIDE_DRQ
R82.2 J4.21 R9.1
*SIGNAL* SIDE_AK
R83.2 J4.29
*SIGNAL* SIDE_RDY
R84.2 J4.27
*SIGNAL* SIDE_IOW
R86.2 J4.23
*SIGNAL* SIDE_IOR
R85.2 J4.25
*SIGNAL* N01560
U10.H2 R55.5
*SIGNAL* N05174
U10.L1 R81.1
*SIGNAL* N05153
U10.L4 R78.1
*SIGNAL* N05195
U10.M1 R84.1
*SIGNAL* N01546
U10.G5 R55.7
*SIGNAL* AD9
U10.E9 J2.A49
*SIGNAL* N07632
U10.C13 C55.1 R49.2
*SIGNAL* PIDE_A2
R59.2 J3.36
*SIGNAL* PIDE_A1
R60.2 J3.33
*SIGNAL* PIDE_A0
R61.2 J3.35
*SIGNAL* PIDE_CS3
R62.2 J3.38
*SIGNAL* PIDE_CS1
R63.2 J3.37
*SIGNAL* PIDE_DRQ
R64.2 J3.21 R6.1
*SIGNAL* PIDE_AK
R65.2 J3.29
*SIGNAL* PIDE_RDY
R66.2 J3.27
*SIGNAL* PIDE_IOR
R67.2 J3.25
*SIGNAL* N17642
R58.2 U10.G15
*SIGNAL* AD26
U10.C1 J2.A23
*SIGNAL* N01142
U10.T1 R69.3
*SIGNAL* GNT_1543
U10.B11 R72.2 J2.A17
*SIGNAL* N05167
U10.K5 R80.1
*SIGNAL* N00970
U10.N2 R70.6
*SIGNAL* N01588
U10.J1 R55.1
*SIGNAL* N01581
U10.H5 R55.2
*SIGNAL* N01602
U10.J3 R47.7
*SIGNAL* N01567
U10.H3 R55.4
*SIGNAL* N00997
U10.N4 R70.4
*SIGNAL* N01616
U10.J5 R47.5
*SIGNAL* AD16
U10.A4 J2.A32
*SIGNAL* N07646
U10.A13 C57.1 R46.2
*SIGNAL* PCICLK
U10.E8 J2.B16
*SIGNAL* N01063
U10.P4 R69.7
*SIGNAL* AD6
U10.A9 J2.A54
*SIGNAL* FRAME
U10.B5 J2.A34
*SIGNAL* N00958
U10.N1 R70.7
*SIGNAL* STOP
U10.B6 J2.A38
*SIGNAL* AD4
U10.D10 J2.A55
*SIGNAL* AD5
U10.E10 J2.B55
*SIGNAL* N01048
U10.P2 R70.1
*SIGNAL* IRDY
U10.A5 J2.B35
*SIGNAL* N01248
U10.F5 R66.1
*SIGNAL* N05188
U10.L5 R83.1
*SIGNAL* USBOVC
U10.C12 R2.1 R1.2 C5.1
*SIGNAL* N05202
U10.M2 R85.1
*SIGNAL* AD17
U10.B4 J2.B32
*SIGNAL* AD8
U10.D9 J2.B52
*SIGNAL* AD7
U10.B9 J2.B53
*SIGNAL* N01553
U10.H1 R55.6
*SIGNAL* N01630
U10.K2 R47.3
*SIGNAL* REQ_1543
U10.A11 J2.B18
*SIGNAL* N05071
U10.E5 R75.2
*SIGNAL* N17652
R56.2 U10.P15
*SIGNAL* N01637
U10.K3 R47.2
*SIGNAL* DEVSEL
U10.C6 J2.B37
*SIGNAL* N01308
U10.F1 R61.1
*SIGNAL* N05078
U10.E6 R74.2
*SIGNAL* AD24
U10.C3 J2.A25
*SIGNAL* N01332
U10.E3 R59.1
*SIGNAL* N01574
U10.H4 R55.3
*SIGNAL* AD20
U10.A2 J2.A29
*SIGNAL* AD21
U10.A1 J2.B29
*SIGNAL* AD28
U10.D2 J2.A22
*SIGNAL* AD29
U10.D1 J2.B21
*SIGNAL* N01233
U10.G1 R67.1
*SIGNAL* AD0
U10.E11 J2.A58
*SIGNAL* N01051
U10.P3 R69.8
*SIGNAL* N00946
U10.M5 R70.8
*SIGNAL* AD23
U10.B2 J2.B27
*SIGNAL* AD18
U10.C4 J2.A31
*SIGNAL* N00982
U10.N3 R70.5
*SIGNAL* N01221
U10.G2 R68.1
*SIGNAL* AD15
U10.B7 J2.A44
*SIGNAL* AD14
U10.A7 J2.B45
*SIGNAL* AD19
U10.A3 J2.B30
*SIGNAL* N05160
U10.L3 R79.1
*SIGNAL* N01539
U10.G4 R55.8
*SIGNAL* TRDY
U10.D6 J2.A36
*SIGNAL* N01320
U10.F2 R60.1
*SIGNAL* N01595
U10.J2 R47.8
*SIGNAL* N01260
U10.F3 R65.1
*SIGNAL* N07639
U10.E12 C56.1 R48.2
*SIGNAL* N01106
U10.R2 R69.5
*SIGNAL* AD11
U10.B8 J2.A47
*SIGNAL* N01154
U10.T2 R69.2
*SIGNAL* N07625
U10.B13 C54.1 R50.2
*SIGNAL* N01036
U10.P1 R70.2
*SIGNAL* AD22
U10.B3 J2.A28
*SIGNAL* AD25
U10.C2 J2.B24
*SIGNAL* PAR
U10.D7 J2.A43
*SIGNAL* N01009
U10.N5 R70.3
*SIGNAL* N05181
U10.M4 R82.1
*SIGNAL* N01284
U10.E2 R63.1
*SIGNAL* AD2
U10.B10 J2.A57
*SIGNAL* N01103
U10.R1 R69.6
*SIGNAL* N05209
U10.M3 R86.1
*SIGNAL* AD3
U10.C10 J2.B56
*SIGNAL* N17695
R57.2 U10.N15
*SIGNAL* N01166
U10.U1 R69.1
*SIGNAL* N01272
U10.G3 R64.1
*SIGNAL* AD31
U10.D5 J2.B20
*SIGNAL* AD30
U10.D4 J2.A20
*SIGNAL* N05085
U10.F4 R73.2
*SIGNAL* N01623
U10.K1 R47.4
*SIGNAL* N05146
U10.L2 R77.1
*SIGNAL* N01609
U10.J4 R47.6
*SIGNAL* N01644
U10.K4 R47.1
*SIGNAL* SIDE_D15
R70.9 J4.18
*SIGNAL* SIDE_D1
R70.12 J4.15
*SIGNAL* USB1P
R52.1 R48.1 J1.B3
*SIGNAL* PIDE_D0
R55.10 J3.17
*SIGNAL* USB1N
R51.1 R46.1 J1.B2
*SIGNAL* USB0N
R53.1 R49.1 J1.A2
*SIGNAL* AD10
U10.A8 J2.B48
*SIGNAL* AD13
U10.D8 J2.A46
*SIGNAL* AD12
U10.C8 J2.B47
*SIGNAL* CBE0
U10.C9 J2.A52
*SIGNAL* N05064
U10.E4 R76.2
*SIGNAL* CBE2
U10.C5 J2.B33
*SIGNAL* AD1
U10.A10 J2.B58
*SIGNAL* SIDE_D2
R70.14 J4.13
*SIGNAL* SIDE_D12
R70.15 J4.12
*SIGNAL* SIDE_D13
R70.13 J4.14
*SIGNAL* PIDE_D14
R55.11 J3.16
*SIGNAL* PIDE_D1
R55.12 J3.15
*SIGNAL* PIDE_D8
R47.15 J3.4
*SIGNAL* PIDE_D10
R47.11 J3.8
*SIGNAL* SIDE_D9
R69.13 J4.6
*SIGNAL* USB0P
R50.1 R54.1 J1.A3
*SIGNAL* N05216
U10.H20 U4.1
*SIGNAL* INT_1543
U4.2 J2.B7
*SIGNAL* SIDE_D5
R69.12 J4.7
*SIGNAL* SIDE_D6
R69.14 J4.5
*SIGNAL* SIDE_D8
R69.15 J4.4
*SIGNAL* PIDE_D3
R55.16 J3.11
*SIGNAL* PIDE_D7
R47.16 J3.3
*SIGNAL* PIDE_D2
R55.14 J3.13
*SIGNAL* PIDE_D12
R55.15 J3.12
*SIGNAL* PIDE_D13
R55.13 J3.14
*SIGNAL* PIDE_D6
R47.14 J3.5
*SIGNAL* PIDE_D5
R47.12 J3.7
*SIGNAL* SIDE_D4
R69.10 J4.9
*SIGNAL* SIDE_D11
R69.9 J4.10
*SIGNAL* PIDE_D15
R55.9 J3.18
*SIGNAL* IRQ11
R98.2 U10.N16 U6.69
*SIGNAL* IRQ8
R97.2 U10.L19 U9.19
*SIGNAL* IRQ15
R96.2 U10.H17
*SIGNAL* IRQ14
R95.2 U10.G17
*SIGNAL* DREQ0
R87.1 U10.F18 U6.67
*SIGNAL* DREQ3
R90.1 U10.W16
*SIGNAL* DREQ6
R92.1 U10.C20
*SIGNAL* DREQ7
R93.1 U10.B19
*SIGNAL* SIDE_D3
R70.16 J4.11
*SIGNAL* SIDE_D7
R69.16 J4.3
*SIGNAL* SIDE_D14
R70.11 J4.16
*SIGNAL* SIDE_D0
R70.10 J4.17
*SIGNAL* PIDE_D9
R47.13 J3.6
*SIGNAL* SIDE_D10
R69.11 J4.8
*SIGNAL* PIDE_D4
R47.10 J3.9
*SIGNAL* PIDE_D11
R47.9 J3.10
*SIGNAL* VCC_5
R116.1 U15.26 U15.103 U15.70 U15.20 U15.48 U15.35 U15.109
U17.28 U16.28 U16.26 U17.26 C98.1 C103.1 C102.1 C101.1
C100.1 C99.1 C97.1 C96.1 R119.1 R114.1 R99.1 R108.1
C61.1 R97.1 C68.1 R111.1 C69.1 C73.1 R113.1 C71.1
R105.1 C60.1 C75.1 R109.1 R106.1 U13.8 C58.1 R112.1
C63.1 R101.1 U14.8 C72.1 C74.1 R104.1 C59.1 R103.1
R100.1 R107.1 C62.1 R96.1 R110.1 R95.1 R102.1 C70.1
C67.1 R98.1 C66.1 U4.14 U10.R7 U10.P6 R56.1 U10.F14
U10.R6 U10.G6 R57.1 U10.R15 U11.20 R30.1 R32.1 R31.1
U7.6 U7.89 U7.70 U7.17 U8.8 R17.2 R18.2 R19.2
R20.2 R21.2 R22.2 R23.2 R24.2 R25.2 R26.2 C40.1
C36.1 C37.1 C38.1 C39.1 U6.80 C22.1 C21.1 U6.57
U6.3 C19.1 C20.1 D3.1 J2.B62 J2.A62 J2.A8 J2.B5
J2.A5 J2.B6 J2.B61 J2.A61 F1.1 C10.1 C8.1 R3.1
C9.1 R4.1 C15.1 U1.20 U3.20
*SIGNAL* IOCHRDY
U15.13 R114.2 U10.Y14 U7.35
*SIGNAL* IOW
U15.9 R109.2 U10.Y15 U7.30 U6.76
*SIGNAL* IO16
U15.118 R113.2 U10.P17 U7.96 R27.1
*SIGNAL* VCC_3
C78.1 C88.1 C93.1 C89.1 C86.1 C92.1 C91.1 C87.1
C90.1 R71.1 R72.1 R73.1 R74.1 R75.1 R76.1 R58.1
U10.F15 U10.R14 U10.F6 R40.1 R45.1 R41.1 R42.1 R37.1
R39.1 R129.1 R130.1 J2.A21 J2.A27 J2.A33 J2.A39 J2.A45
J2.A53 J2.B25 J2.B31 J2.B36 J2.B41 J2.B43 J2.B54
*SIGNAL* DREQ1
R88.1 U10.V17 U6.65
*SIGNAL* DREQ2
R89.1 U10.V12 U6.63
*SIGNAL* DREQ5
R91.1 U10.E18
*SIGNAL* VCC_12
C76.1 U5.8 J2.A2 C14.1 C7.1 U1.1 U3.1
*SIGNAL* VCC_N12
C77.2 J2.B1 U3.10 C13.1 U1.10 C6.1
*SIGNAL* M16
R112.2 U10.P19
*SIGNAL* NOWS
R111.2 U10.V13
*SIGNAL* IOCHK
R108.2 U10.Y10
*SIGNAL* IRQ7
R107.2 U10.W20
*SIGNAL* IRQ6
R106.2 U10.V19
*SIGNAL* N05050
U10.A6 R71.2
*SIGNAL* IRQ3
U15.29 R101.2 U10.U16 JP2.1 JP2.3 JP2.5 JP2.7 JP2.9
JP2.11 JP2.13 JP2.15
*SIGNAL* GND_POWER
U15.27 U15.131 U15.116 U15.113 U15.106 U15.100 U15.75 U15.57
U15.28 U15.23 U15.17 U15.14 U15.49 U15.32 C107.2 U16.14
U17.14 C108.2 C106.2 C98.2 C103.2 C102.2 C101.2 C100.2
C99.2 C97.2 C96.2 C76.2 C77.1 C74.2 R88.2 R91.2
C86.2 C91.2 C90.2 U13.4 C75.2 C73.2 R90.2 R87.2
C67.2 R92.2 C72.2 C87.2 C92.2 U14.4 C95.2 C59.2
C68.2 C60.2 C78.2 C61.2 C66.2 C71.2 C62.2 R115.2
C89.2 C88.2 C70.2 C69.2 C63.2 R93.2 C94.2 R89.2
C58.2 C93.2 U4.7 U10.J10 U10.L12 U10.M9 U10.K9 U10.J11
U10.M11 U10.M12 U10.J12 R53.2 R51.2 U10.J9 U10.L11 U10.K12
U10.L10 U10.L9 U10.M10 R52.2 R54.2 C54.2 U10.K10 U10.K11
C56.2 C57.2 C55.2 R44.2 U11.10 U11.19 R43.1 R38.2
R36.2 C51.2 U9.12 C52.2 S1.2 R35.2 C53.2 U9.16
BT1.2 R126.2 R125.2 C50.2 U7.14 U7.86 U7.83 U7.28
C48.2 C49.2 R28.2 R27.2 U8.5 C44.2 C45.2 C46.2
C47.2 C36.2 C40.2 C39.2 C38.2 C37.2 C21.2 C34.2
U6.77 C20.2 C19.2 U6.24 C35.2 U6.52 U6.7 C22.2
R9.2 R6.2 J4.22 R7.2 J3.19 J3.30 J4.2 J4.24
R10.2 J4.30 J4.19 J3.24 J3.26 J3.40 J3.22 J3.2
J4.26 J4.40 J2.A35 J2.A42 J2.B34 J2.A24 J2.A18 J2.B3
J2.A48 J2.B15 J2.B49 J2.B12 J2.A30 J2.B46 J2.B38 J2.A37
J2.B28 J2.B22 J2.A13 J2.A56 J2.B57 J2.B17 C10.2 C17.2
C8.2 C4.2 L2.2 C3.2 C18.2 C15.2 C7.2 C1.2
C6.2 C2.2 U3.11 U2.6 R2.2 C5.2 U1.11 L3.2
P1.5L C11.2 C9.2 C16.2 U2.9 C13.2 C14.2 P1.5U
*SIGNAL* IOR
U15.8 R105.2 U10.V15 U7.29 U6.75
*SIGNAL* OSC32KI
Y4.2 R94.2 C95.1 R115.1 U10.N20
*SIGNAL* SBHE
R100.2 U10.P18
*SIGNAL* IRQ10
R99.2 U10.N18
*SIGNAL* OSC32KII
Y4.1 R94.1 C94.1 U10.N19
*SIGNAL* OSC14M
U13.5 U10.P20
*SIGNAL* USBCLK
U14.5 U10.B12
*SIGNAL* REFSH
R110.2 U10.Y19
*SIGNAL* IRQ9
R104.2 U10.V11
*SIGNAL* IRQ4
R103.2 U10.U20
*SIGNAL* IRQ5
R102.2 U10.U17
*SIGNAL* N206535
P1.2U U3.4
*SIGNAL* N206547
P1.6U U3.3
*SIGNAL* N206559
P1.1U U3.2
*SIGNAL* N206499
P1.8U U3.7
*SIGNAL* N206511
P1.3U U3.6
*END*
