Begin test testeml007.root
Making sure we have a good DHCP lease to the UUT.
DHCP lease successfully obtained.
Changing /etc/sendmail.cf for test. Old version saved in /etc/sendmail.cf.save
Restarting sendmail
Fetching mail from TESTUSERNAMELIST
#######################################
TEST ERROR -- TEST ERROR -- TEST ERROR 12
#######################################
Mail to TESTUSERNAMELIST was not delivered : Failed
Here is the mail output file
dummymailinglist001@avocet6.routefree.com... Connecting to b-gateway.home.broadon.net. via relay...
220 avocet6.routefree.com ESMTP Exim 3.32 #1 Tue, 09 Oct 2001 01:01:14 +0000
>>> EHLO lyle.home.broadon.net
250-avocet6.routefree.com Hello lyle.home.broadon.net [192.168.0.51]
250-SIZE 12582912
250-PIPELINING
250 HELP
>>> MAIL From:<root@lyle.home.broadon.net> SIZE=236
250 <root@lyle.home.broadon.net> is syntactically correct
>>> RCPT To:<dummymailinglist001@avocet6.routefree.com>
250 <dummymailinglist001@avocet6.routefree.com> is syntactically correct
>>> DATA
354 Enter message, ending with "." on a line by itself
>>> .
250 OK id=15qlGk-0000g4-00
dummymailinglist001@avocet6.routefree.com... Sent (OK id=15qlGk-0000g4-00)
Closing connection to b-gateway.home.broadon.net.
>>> QUIT
221 avocet6.routefree.com closing connection
-------------------
Here is the fetchmail output file
fetchmail: 5.3.1 querying 192.168.0.1 (protocol IMAP) at Mon, 08 Oct 2001 18:04:04 -0700 (PDT)
fetchmail: IMAP< * OK [CAPABILITY IMAP4 IMAP4REV1 X-NETSCAPE LOGIN-REFERRALS AUTH=LOGIN] b-gateway.home.broadon.net IMAP4rev1 2001.313 at Tue, 9 Oct 2001 01:02:37 +0000 (UTC)
fetchmail: IMAP> A0001 CAPABILITY
fetchmail: IMAP< * CAPABILITY IMAP4 IMAP4REV1 X-NETSCAPE NAMESPACE MAILBOX-REFERRALS SCAN SORT THREAD=REFERENCES THREAD=ORDEREDSUBJECT MULTIAPPEND LOGIN-REFERRALS AUTH=LOGIN
fetchmail: IMAP< A0001 OK CAPABILITY completed
fetchmail: IMAP> A0002 LOGIN "*" "TESTUSERNAMELIST"
fetchmail: IMAP< A0002 NO LOGIN failed
fetchmail: Authorization failure on TESTUSERNAMELIST@192.168.0.1
fetchmail: IMAP> A0003 LOGOUT
fetchmail: IMAP< * BYE avocet6.home.broadon.net IMAP4rev1 server terminating connection
fetchmail: IMAP< A0003 OK LOGOUT completed
fetchmail: authorization error while fetching from 192.168.0.1
fetchmail: Query status=AUTHFAIL
fetchmail: normal termination, status 3
Restoring sendmail.cf
Restarting sendmail
Test finished. 1 errors found.
