%
T1F095S3
X01919Y03125
X03446Y03889
X04983Y04224
X04348Y04875
X02265Y04812
X02264Y04631
X02262Y04786
X02262Y04836
X02222Y04834
X02219Y04766
X02192Y04646
X02191Y04835
X02191Y04866
X02191Y0471
X0219Y04616
X02164Y04705
X02162Y04801
X0216Y04614
X0216Y04772
X0216Y04551
X0216Y0474
X02159Y04865
X02132Y0458
X02128Y04615
X02128Y04866
X02127Y04739
X02125Y04678
X02112Y04776
X02103Y04806
X02098Y04648
X02095Y04714
X02095Y04554
X02094Y04832
X02082Y0474
X02073Y04683
X0207Y04839
X02066Y04584
X02061Y0461
X02061Y04862
X02047Y04653
X02034Y04583
X02019Y04676
X02017Y04735
X02013Y04798
X02002Y04648
X02001Y04836
X01995Y04704
X01991Y04676
X01988Y04796
X01975Y04651
X01975Y04738
X01972Y04834
X01972Y04614
X01971Y04711
X01971Y04583
X01941Y04616
X0194Y04834
X01939Y04646
X01939Y04804
X01939Y04741
X01909Y04802
X01908Y04583
X01908Y04646
X01908Y0474
X01906Y04707
X0197Y04897
X02033Y04897
X04147Y0505
X04187Y05074
X04206Y04977
X04296Y05022
X04348Y04926
X04673Y05431
X04898Y05276
X04924Y0538
X04955Y05331
X05339Y05321
X0534Y05273
X05271Y0585
X0195Y06114
T2F095S3
X00322Y00189
X0065Y00238
X00682Y00355
X0101Y00061
X01265Y00345
X01265Y00276
X01332Y00174
X0183Y00287
X02004Y00061
X02129Y00247
X02173Y00247
X02178Y0033
X0222Y00247
X02223Y0033
X02544Y00355
X02791Y00331
X0297Y00061
X02977Y00205
X03035Y00205
X03083Y00375
X0337Y00201
X03464Y0027
X0357Y00298
X03707Y00293
X03757Y00293
X03841Y00172
X03921Y0023
X03972Y00375
X03999Y00061
X04035Y00151
X0426Y00323
X04361Y00298
X04384Y00227
X04422Y00301
X04455Y00263
X04593Y00381
X04624Y00187
X04851Y00192
X04897Y00352
X0496Y0019
X04986Y00061
X05203Y00375
X05337Y00351
X05394Y00351
X05514Y00354
X05583Y00306
X05742Y00249
X05775Y00216
X05952Y00276
X06001Y00061
X06072Y00342
X06134Y00369
X06215Y00366
X06225Y00153
X06362Y00366
X06486Y00294
X06534Y00324
X06666Y00372
X06667Y00176
X0672Y00288
X06749Y00227
X06771Y00169
X06827Y00324
X07009Y00061
X07169Y00261
X07288Y0036
X07367Y00261
X07898Y00061
X07717Y00591
X07256Y00427
X07256Y00605
X06465Y00482
X06464Y00577
X06396Y00528
X06292Y0039
X0629Y00433
X05915Y00498
X05688Y00424
X05647Y00424
X05647Y00541
X05647Y00619
X05505Y00492
X05365Y00496
X05292Y00618
X05203Y00427
X05203Y00548
X05203Y00618
X04865Y00407
X04692Y0057
X04692Y00408
X04644Y00426
X04641Y0053
X04595Y00474
X04494Y00431
X04421Y00399
X04268Y00554
X03552Y00415
X03551Y00614
X03492Y00402
X03475Y00516
X03449Y00589
X03417Y00474
X03384Y00621
X03218Y00401
X03161Y00537
X0309Y00576
X0301Y00475
X02895Y00625
X02852Y00411
X02641Y0042
X02601Y00603
X02065Y00513
X02052Y00443
X01392Y00614
X01328Y00622
X01259Y00602
X01184Y00402
X01154Y00432
X00746Y00563
X00653Y00521
X00653Y00601
X00584Y00563
X00505Y00588
X00442Y00534
X0041Y00668
X00612Y00702
X01317Y00837
X01457Y00688
X01512Y00717
X01519Y00801
X01575Y00715
X01578Y008
X01603Y00692
X02096Y00798
X02173Y00799
X02222Y00795
X02346Y00822
X02382Y00792
X02431Y00808
X02462Y0085
X025Y00804
X02556Y00648
X0258Y0084
X02613Y00801
X02642Y00834
X02712Y0084
X02783Y00844
X02853Y00726
X02922Y00726
X03303Y00705
X03324Y00678
X03336Y00846
X03644Y00785
X03701Y00785
X03751Y00787
X0384Y0085
X0384Y0079
X04378Y0067
X04419Y0067
X04516Y0067
X04561Y0067
X04638Y00774
X04755Y0067
X04796Y0067
X05148Y00865
X05203Y00759
X05203Y00698
X05647Y00731
X05695Y00731
X06215Y00768
X06521Y00727
X06661Y0088
X07628Y0077
X07788Y007
X07898Y01005
X07722Y01112
X07687Y00895
X07687Y00926
X07668Y00957
X07664Y01025
X07631Y00957
X07615Y00885
X07505Y00971
X075Y01104
X07449Y01107
X074Y0111
X07096Y01104
X06925Y01107
X06799Y01126
X06638Y00993
X06558Y01014
X06503Y00996
X0648Y0093
X06451Y0099
X06414Y01122
X06288Y01131
X05532Y00975
X05383Y00911
X05061Y00975
X04774Y01113
X0473Y01113
X04713Y00886
X04638Y00978
X04554Y01113
X04516Y00971
X04516Y01113
X04516Y00886
X04433Y00923
X04433Y00886
X04281Y00955
X03897Y00973
X03842Y01082
X03375Y01086
X03275Y00958
X03225Y00966
X03105Y00943
X03027Y00978
X02892Y01047
X02806Y01006
X028Y00958
X02779Y01024
X02779Y01063
X02778Y00981
X02674Y01108
X02662Y00977
X02653Y01081
X02625Y00951
X02601Y00977
X02562Y00951
X02505Y01073
X02502Y00996
X02445Y00951
X0243Y0108
X02397Y01023
X02358Y01118
X02289Y01118
X02289Y00996
X02249Y00958
X02232Y01098
X0222Y0105
X02202Y01113
X02121Y00942
X02064Y00918
X02059Y01118
X02008Y01024
X01986Y00894
X01962Y0102
X01897Y00901
X01806Y0107
X01776Y00951
X01739Y01119
X01425Y00996
X01326Y01017
X0108Y00948
X00885Y01095
X00635Y00917
X00558Y01122
X00588Y01301
X0081Y0115
X01225Y0115
X01469Y01224
X01542Y01276
X01722Y01312
X0179Y0138
X01818Y012
X01872Y01332
X01987Y01156
X02058Y01289
X02065Y01356
X0218Y0116
X02208Y01289
X02211Y01204
X02218Y01164
X02289Y0127
X02289Y01195
X02289Y01346
X02358Y0127
X02358Y01206
X02358Y01351
X0243Y01209
X0243Y0129
X0243Y01139
X0243Y01351
X02505Y01274
X02505Y01199
X02505Y01132
X02505Y01351
X02566Y012
X02566Y01132
X02566Y01261
X02566Y01339
X02644Y01219
X02649Y01179
X02659Y01252
X02664Y01284
X02671Y01318
X02677Y01378
X02781Y01251
X02781Y01152
X02895Y01254
X02998Y01197
X03018Y01299
X03048Y01233
X03099Y01365
X03126Y01194
X03159Y01374
X03201Y01365
X03249Y01152
X03326Y01154
X03423Y01254
X03423Y01366
X03492Y01182
X0351Y01281
X03708Y01311
X03726Y01224
X03834Y01182
X03894Y01314
X04343Y01187
X04354Y01147
X04446Y01305
X04446Y01348
X04556Y01187
X04806Y01224
X04833Y01224
X04875Y01332
X04926Y01332
X04974Y01329
X05033Y01172
X05077Y01172
X05155Y01345
X05424Y01341
X05667Y01278
X05738Y0127
X06252Y01158
X0627Y01182
X06297Y01359
X06414Y01278
X0645Y01266
X06468Y01236
X06481Y01367
X06486Y01182
X0664Y01368
X06675Y01172
X07298Y01138
X07625Y01151
X07669Y01437
X07578Y0156
X07539Y014
X07476Y0156
X07374Y0156
X07278Y0156
X07218Y01507
X07176Y0156
X07074Y0156
X0705Y01464
X06975Y0156
X06765Y01429
X06022Y01419
X06007Y01585
X05815Y01486
X05785Y01486
X057Y01587
X05524Y01446
X05491Y01482
X05475Y01446
X05352Y01626
X05226Y01626
X05025Y0162
X04977Y01622
X04747Y01531
X04686Y01434
X04539Y01539
X04484Y01463
X04212Y01554
X04162Y01455
X03923Y01571
X0387Y01392
X03852Y01572
X03795Y01533
X03765Y01581
X0375Y0144
X03571Y01426
X03519Y01545
X0348Y01545
X03434Y01517
X03402Y01524
X03201Y01468
X03035Y01602
X02997Y014
X02952Y01452
X0294Y01516
X02931Y01575
X02781Y01434
X02671Y01429
X02659Y01585
X0265Y01399
X02634Y01602
X02616Y01566
X02589Y01428
X02536Y01572
X02523Y01431
X02482Y01425
X02447Y01596
X02445Y01446
X02424Y0156
X02376Y01589
X02334Y01452
X02306Y01581
X02304Y01422
X0228Y01446
X02209Y01415
X02161Y01485
X02094Y01587
X02047Y01417
X02018Y0155
X01828Y01539
X01572Y01558
X00423Y01399
X00384Y01593
X00372Y01473
X00582Y01797
X00978Y01737
X01344Y01656
X01566Y01878
X01729Y01784
X01992Y01752
X0208Y01664
X02148Y01728
X02205Y01674
X02307Y01695
X0238Y01742
X02426Y01738
X02544Y0174
X02565Y01794
X02865Y01753
X0288Y01705
X02915Y01784
X03072Y01848
X03072Y01788
X03148Y017
X03186Y01698
X03203Y01848
X03294Y01718
X03324Y01755
X03381Y01717
X03513Y01725
X03639Y01773
X03675Y0177
X03696Y0171
X03732Y01767
X0375Y0171
X03765Y01765
X03801Y01818
X03951Y0171
X03971Y01817
X04053Y01878
X04155Y01698
X04164Y01799
X04185Y01727
X04246Y01799
X04248Y01872
X04353Y01701
X04378Y0176
X04383Y017
X04395Y01846
X04413Y0168
X04539Y01737
X04557Y0183
X04685Y01711
X04729Y01638
X04824Y01722
X04851Y01819
X04922Y01771
X04974Y01821
X05124Y0177
X05334Y01824
X05364Y01824
X05427Y01842
X05448Y01866
X05469Y01842
X05478Y01663
X0549Y01866
X05526Y0177
X05557Y01837
X05571Y01671
X05595Y01809
X05652Y01821
X05721Y01741
X05751Y01716
X05916Y0187
X06039Y01869
X06387Y01663
X06682Y01663
X06924Y01704
X06963Y01635
X06978Y0174
X07026Y01704
X0705Y01878
X07068Y01641
X07099Y01866
X07125Y01707
X07149Y01854
X07167Y01641
X072Y01854
X07224Y0171
X07249Y01854
X07263Y01641
X073Y01854
X07326Y0171
X0735Y01854
X07371Y01641
X07401Y01854
X07425Y0171
X07449Y0186
X07473Y01641
X07524Y0171
X0757Y01633
X07626Y0171
X07637Y01792
X07668Y01638
X07898Y01996
X07695Y0201
X07599Y01923
X07552Y02062
X0705Y02082
X06766Y02128
X06606Y0207
X06603Y01905
X06478Y01882
X05978Y02122
X05854Y02007
X05556Y02079
X05535Y01911
X05511Y0189
X05424Y02028
X05319Y02079
X05214Y01887
X04965Y01971
X04953Y02127
X04804Y01949
X04605Y01884
X04533Y0201
X04438Y02089
X04305Y02091
X04121Y02046
X04056Y01923
X04002Y01938
X03991Y02033
X03973Y0208
X03973Y02122
X03966Y02004
X03954Y01896
X03949Y02101
X03949Y02059
X03806Y02019
X03762Y02023
X0376Y01975
X03737Y02053
X03114Y02088
X03096Y01956
X03055Y02088
X02907Y0195
X02746Y02086
X02729Y02131
X02673Y01956
X02649Y01983
X02604Y02031
X02535Y0204
X01944Y01908
X01942Y021
X01881Y02038
X01776Y01968
X01449Y02079
X01374Y0207
X01275Y0207
X01176Y02082
X00769Y0199
X00722Y02042
X00659Y01991
X00482Y02107
X00417Y02218
X00546Y02319
X00597Y0238
X00936Y0225
X01302Y02268
X0144Y02268
X0151Y02258
X01591Y0215
X01776Y02149
X02472Y02358
X026Y02346
X02676Y02283
X02679Y02241
X02691Y02154
X02697Y02196
X02719Y02218
X02955Y02161
X03092Y02237
X03144Y02247
X03171Y0237
X03246Y02352
X03251Y02246
X03318Y0225
X0334Y02352
X03372Y0225
X03382Y02359
X03415Y02356
X03474Y02352
X03498Y02373
X03519Y0235
X0354Y0225
X03552Y02353
X03573Y02377
X03597Y0235
X03618Y02377
X03639Y02352
X03657Y02244
X0366Y02377
X0369Y02379
X03711Y02247
X03744Y02352
X03777Y02365
X03799Y02242
X0382Y02362
X03834Y02148
X03949Y02224
X03949Y02143
X03949Y02182
X03973Y02203
X04002Y02298
X04104Y02199
X04104Y02151
X04104Y0235
X04105Y02248
X04152Y02163
X043Y02299
X04303Y02226
X04416Y02147
X0442Y02349
X04494Y02145
X04512Y02311
X04536Y02352
X04569Y02311
X04583Y02377
X04626Y02154
X04914Y02298
X04956Y02352
X04956Y02178
X04962Y02316
X04965Y02226
X04974Y02154
X04977Y02376
X05097Y02322
X05106Y02229
X05121Y02376
X05343Y02178
X0582Y02334
X05951Y02137
X06499Y02223
X06511Y02163
X06551Y02301
X06609Y02174
X06676Y02221
X06681Y02352
X06925Y02262
X0708Y0231
X07134Y02262
X07182Y0231
X07278Y0231
X07362Y02238
X07544Y02149
X07572Y02311
X07626Y02256
X07746Y02602
X07668Y02391
X07626Y02454
X07566Y02391
X07522Y02455
X07476Y02391
X07425Y02454
X07377Y02542
X07365Y02388
X07324Y02454
X07266Y02391
X07224Y02454
X0717Y02544
X07167Y02391
X07125Y02454
X07074Y02391
X07025Y02452
X06969Y02391
X06925Y02454
X06735Y02454
X06719Y02522
X06631Y02518
X06552Y0252
X06459Y024
X06366Y02514
X063Y02404
X06238Y02506
X06216Y024
X06205Y02541
X06174Y02525
X06Y024
X05892Y02386
X0589Y02504
X05661Y02403
X05595Y0243
X05583Y0246
X05565Y02487
X05565Y02523
X05373Y02574
X05307Y0258
X05124Y02427
X05124Y02598
X0507Y02577
X05046Y02604
X04938Y02478
X04929Y02427
X04812Y02508
X04626Y02496
X04321Y02424
X04302Y02451
X043Y02398
X0429Y02586
X04161Y02493
X04131Y02577
X04116Y02418
X04084Y02581
X03999Y02547
X0399Y0243
X03981Y02397
X03948Y02534
X03929Y02465
X03878Y02465
X03854Y02494
X03778Y02484
X03778Y02612
X03754Y02386
X037Y02483
X03666Y02574
X03631Y02509
X03528Y02592
X03475Y02497
X03403Y0258
X03373Y02495
X03361Y02386
X03324Y02592
X03319Y02397
X03244Y02383
X03228Y02592
X0321Y02382
X0318Y0258
X03117Y02388
X03078Y02482
X03066Y02409
X03021Y02601
X02489Y02552
X0241Y02588
X02409Y02462
X02376Y0253
X0235Y0251
X02348Y02476
X02319Y02541
X02295Y02559
X02252Y02555
X0224Y02496
X02218Y02556
X02218Y02466
X02158Y02492
X02132Y0257
X021Y02469
X02053Y02472
X02031Y02571
X02017Y02617
X01828Y02449
X01794Y02549
X01788Y02604
X01765Y02404
X016Y02544
X01597Y02443
X01473Y02599
X01127Y02388
X00937Y02385
X0081Y02455
X00903Y02684
X00952Y02714
X01008Y0268
X01597Y02743
X01602Y02643
X01619Y02844
X01794Y02844
X018Y02745
X01827Y02661
X01879Y02815
X02015Y02702
X02046Y02808
X02199Y02727
X02305Y02727
X02339Y02829
X02362Y02657
X02382Y02798
X02409Y02679
X02409Y02634
X02429Y0272
X0243Y02784
X02437Y02815
X02441Y02875
X02799Y02758
X02811Y02788
X02823Y02817
X02835Y02848
X02847Y02877
X0288Y0288
X02889Y02848
X02931Y02841
X02931Y02811
X02943Y02871
X02985Y02871
X03027Y02871
X03084Y02781
X03126Y02814
X03286Y02867
X03334Y02641
X03375Y02679
X03423Y02847
X0346Y02656
X03474Y02715
X03495Y02763
X03546Y02648
X03664Y02848
X03666Y02676
X03666Y02634
X03669Y02766
X0378Y02839
X03874Y02702
X03896Y02825
X03909Y02874
X0396Y02846
X04095Y028
X04186Y0281
X04199Y0275
X04225Y02823
X04296Y02724
X04538Y02694
X0481Y02675
X05148Y02659
X05156Y02754
X05194Y02846
X05202Y027
X05298Y02835
X05325Y02649
X05328Y02853
X05346Y02778
X05379Y02733
X054Y02757
X05418Y02703
X05424Y02778
X05442Y02679
X05448Y02736
X05457Y02652
X05526Y0264
X05723Y02814
X0573Y02691
X05922Y0282
X05988Y02748
X06099Y02784
X06299Y02845
X063Y02814
X06303Y02742
X06394Y02842
X06426Y02809
X06477Y02803
X06524Y02818
X06583Y02794
X0663Y0276
X06648Y02838
X06678Y02794
X06702Y02838
X07119Y02754
X0714Y02655
X07176Y0285
X07667Y02761
X07746Y0288
X07898Y02996
X078Y02958
X0717Y03049
X07107Y02953
X06802Y03121
X06739Y0312
X06718Y03032
X06585Y0297
X06564Y03121
X06468Y03121
X06456Y02958
X06411Y03121
X06363Y02947
X0636Y02991
X06354Y03069
X06267Y03033
X06267Y02949
X06264Y03127
X06231Y03003
X06204Y02947
X06166Y02991
X06141Y02947
X06111Y0297
X06079Y02947
X06057Y0298
X06018Y02947
X06012Y03042
X05985Y03
X05958Y02979
X05934Y02949
X05898Y03042
X05724Y03024
X057Y03078
X05556Y03079
X05532Y02983
X05526Y03081
X05517Y03124
X05502Y03045
X05478Y03009
X05466Y02967
X0531Y02928
X05295Y02991
X05295Y03054
X05283Y03024
X05235Y02932
X05211Y03126
X05205Y02983
X05194Y02884
X05191Y0294
X05181Y03093
X05175Y03001
X05139Y03093
X05044Y03056
X05022Y03114
X04818Y02979
X04791Y03006
X04779Y03105
X04737Y02958
X04725Y02928
X04695Y02937
X04664Y02954
X04656Y03054
X04619Y02948
X04548Y03055
X04539Y02946
X04452Y03078
X04377Y02942
X0435Y03087
X04302Y02932
X04299Y03108
X04104Y03096
X0399Y03036
X03987Y03087
X03958Y02918
X03957Y03072
X03858Y0294
X03821Y0303
X03789Y03035
X03788Y03074
X03699Y02951
X03648Y0312
X03647Y03031
X03552Y0312
X03523Y02976
X0345Y0312
X0345Y02889
X03432Y02985
X03348Y0312
X03333Y03009
X03282Y02916
X03279Y02958
X03252Y0312
X03118Y03118
X03075Y02976
X03006Y02893
X02966Y02981
X02964Y02893
X02933Y02981
X0291Y02883
X029Y02975
X02883Y03042
X02814Y03036
X02741Y0297
X0273Y03022
X02418Y02946
X02368Y02893
X02334Y02976
X02271Y03084
X02236Y02971
X02235Y03112
X02139Y03078
X02118Y02976
X0186Y02978
X01857Y03033
X01769Y02939
X01607Y03044
X01605Y03003
X01598Y02902
X01516Y0302
X01003Y03118
X00282Y03258
X00705Y03161
X0108Y0318
X01089Y03238
X01367Y03307
X01619Y03314
X01857Y03214
X02082Y03262
X02088Y03362
X023Y03224
X02302Y03265
X02443Y03223
X02486Y03161
X0249Y03228
X02494Y03265
X0261Y03133
X02624Y03301
X02745Y03285
X02805Y03156
X02805Y0319
X02815Y03226
X02923Y03226
X0303Y03378
X03055Y03204
X0306Y03286
X03065Y03235
X03075Y03345
X03081Y03183
X03252Y03354
X03351Y03354
X0345Y03354
X03491Y03236
X03548Y03232
X03549Y03354
X03651Y03354
X0375Y03354
X0387Y03141
X03924Y03336
X0393Y03252
X04062Y03339
X04068Y03198
X04074Y03291
X04104Y03366
X04112Y03217
X04116Y03171
X04278Y03282
X0429Y03357
X04293Y0324
X04473Y03369
X045Y03225
X04524Y03262
X04525Y03357
X04629Y03246
X04637Y03359
X0468Y03246
X04728Y03312
X04765Y03168
X04983Y03237
X05016Y03257
X05023Y03149
X05027Y03287
X05052Y03342
X0513Y03276
X05147Y03342
X05196Y03186
X052Y03327
X05205Y03156
X05593Y03191
X05712Y03243
X05712Y03168
X0573Y03141
X05882Y03295
X06006Y03228
X06145Y03179
X06216Y03258
X06222Y03207
X06222Y03294
X06286Y03289
X06366Y03226
X06492Y03228
X06495Y03284
X06549Y03194
X06639Y03204
X06648Y033
X06738Y03354
X06957Y03249
X07086Y03324
X07173Y0336
X07174Y03151
X07617Y03146
X07746Y0315
X07793Y0333
X07173Y03454
X07173Y03549
X06652Y03422
X06625Y03481
X06552Y0342
X06501Y03426
X0639Y0342
X06342Y03444
X06217Y03428
X06144Y03456
X05799Y03504
X05766Y03435
X05763Y03585
X05709Y03528
X05591Y03583
X05484Y03597
X05481Y0363
X05481Y03391
X05208Y03447
X05105Y03448
X04732Y03448
X04725Y03616
X04722Y03522
X04584Y0345
X04518Y03606
X04512Y03477
X04497Y03435
X04338Y035
X04335Y03552
X04308Y03528
X04275Y03435
X04177Y03468
X0409Y03606
X04083Y0351
X04074Y03444
X03924Y03402
X03916Y03564
X03906Y03465
X03883Y03595
X03588Y03567
X03548Y03465
X03465Y03474
X0345Y03588
X03405Y03579
X03351Y03444
X03297Y0351
X03252Y03573
X03051Y03417
X02826Y03552
X02525Y036
X02223Y03409
X0201Y03504
X02007Y03456
X01893Y03398
X01318Y0352
X00525Y03514
X00465Y0342
X00375Y03513
X00045Y03507
X00189Y03789
X00486Y0384
X0306Y03855
X03282Y03873
X03312Y0365
X03336Y03674
X03361Y03703
X03378Y03639
X03396Y03666
X03426Y03669
X03432Y03765
X03476Y03734
X0355Y03767
X03654Y03752
X03705Y03672
X03798Y0366
X0399Y03859
X03997Y03787
X04043Y03799
X04049Y03716
X04076Y03695
X04176Y03684
X04206Y03705
X04233Y03663
X04265Y03658
X04335Y03639
X04338Y03705
X04341Y03672
X0435Y03763
X04404Y03762
X04461Y03714
X04476Y03656
X04488Y03753
X0452Y03688
X04713Y0369
X04721Y03806
X04743Y03849
X04773Y03846
X04888Y03695
X04906Y03853
X04918Y03787
X04956Y0381
X04957Y03694
X05005Y03874
X0505Y03692
X05147Y03695
X05153Y03869
X05166Y03774
X05172Y03804
X0525Y03695
X05256Y03761
X05277Y03861
X05277Y03789
X05279Y03739
X05352Y03672
X05354Y03805
X05359Y0384
X05362Y03872
X0541Y03789
X05438Y03776
X05465Y03796
X05482Y03869
X05601Y0378
X05634Y03777
X05744Y03774
X05892Y03744
X05916Y03717
X05937Y03687
X05958Y03715
X06039Y03879
X06079Y03741
X06082Y03862
X06111Y03717
X06142Y03741
X06144Y03651
X06174Y03852
X06187Y0388
X06216Y03687
X06219Y03655
X0624Y03846
X06258Y03879
X06298Y03658
X063Y03745
X06375Y03849
X06396Y03657
X06454Y03749
X06455Y03857
X0652Y03702
X06564Y03873
X06595Y03727
X06618Y03682
X06633Y03847
X06738Y0384
X06745Y0371
X07173Y03651
X07228Y03811
X07668Y03877
X07722Y03654
X07898Y04004
X07722Y03901
X07669Y0396
X07668Y04002
X07662Y04095
X07617Y03984
X07179Y04074
X07179Y03975
X06948Y04029
X06771Y03924
X06738Y039
X06658Y04116
X06655Y03975
X06609Y04113
X066Y0393
X06544Y03987
X06521Y04113
X06448Y04114
X06444Y03993
X06375Y03891
X06351Y0396
X06261Y04121
X06156Y04108
X06153Y03972
X06051Y04035
X06047Y0409
X06039Y0395
X05892Y03936
X05743Y03955
X05655Y04047
X0555Y03984
X05527Y03963
X05497Y03942
X05467Y0392
X05463Y0402
X0543Y04032
X05397Y04129
X05367Y03903
X05295Y04026
X05277Y04118
X05266Y0406
X05257Y04094
X05247Y04126
X05229Y03939
X05176Y04117
X05169Y04053
X05139Y0409
X05136Y0406
X05101Y0402
X05084Y04047
X05068Y04111
X05062Y04069
X05053Y03955
X05018Y04111
X04996Y0394
X04984Y0402
X04971Y0396
X04971Y03991
X04923Y04117
X04915Y04087
X04881Y0393
X04881Y039
X0486Y04115
X04827Y04087
X04821Y03936
X04821Y03894
X04812Y03982
X04726Y03919
X04722Y0389
X0467Y04115
X04627Y04087
X04627Y03906
X04624Y04117
X04618Y03945
X04572Y04117
X04572Y04086
X04525Y04117
X0452Y03948
X04428Y04116
X04423Y04086
X04419Y03945
X04388Y04087
X04378Y04116
X04375Y03946
X04323Y04117
X04323Y04087
X04147Y03922
X0402Y04026
X03972Y04074
X01765Y04081
X01687Y04078
X01671Y04114
X01651Y03979
X00546Y04003
X00396Y04288
X01485Y04338
X01609Y04282
X01705Y043
X01729Y04258
X01731Y04135
X01735Y04222
X01842Y0426
X01848Y0429
X01853Y04349
X01884Y04356
X01941Y04152
X01969Y04283
X01998Y04357
X02064Y0435
X02124Y04157
X02125Y04348
X02226Y04158
X02325Y04157
X02326Y04331
X0238Y04348
X02473Y04147
X04077Y04367
X04119Y04328
X04124Y04246
X0414Y04164
X04143Y04191
X042Y04176
X04244Y04173
X04249Y04324
X04254Y0423
X04297Y04324
X0434Y0432
X04348Y04379
X04395Y04371
X04402Y04276
X04407Y04325
X04441Y04369
X04447Y04276
X04449Y0432
X0445Y04219
X04497Y0422
X04498Y04276
X045Y04371
X04555Y04275
X0459Y04368
X046Y04219
X04602Y04276
X04648Y04276
X04648Y04219
X0465Y0432
X04699Y04276
X04751Y0432
X04792Y04366
X04798Y04318
X048Y04276
X04848Y0432
X04849Y04275
X04857Y04377
X04905Y0432
X0495Y0432
X04996Y0427
X05049Y04275
X05089Y04273
X05125Y0438
X05208Y0438
X05247Y04327
X05298Y04276
X05349Y04225
X054Y04175
X05457Y04351
X05457Y04227
X05457Y04275
X05502Y04166
X05517Y04351
X05751Y04371
X0576Y0414
X05773Y042
X05949Y0435
X06135Y04161
X06141Y042
X06146Y04378
X06174Y04303
X06216Y04201
X06301Y04203
X06325Y04305
X06345Y0438
X06355Y0431
X06445Y04184
X0645Y04302
X06528Y04308
X06549Y04188
X06645Y04188
X06675Y04331
X06778Y04239
X07176Y04201
X07177Y04319
X07662Y04278
X07662Y04362
X07662Y0423
X07677Y04539
X07178Y04503
X07174Y04434
X06753Y04425
X06678Y0462
X06652Y0441
X06608Y04566
X06555Y04431
X06491Y04585
X06456Y04425
X06399Y04583
X06345Y04419
X063Y04611
X06176Y04609
X06147Y0441
X06144Y04611
X06094Y04618
X06088Y04582
X05958Y04624
X05946Y04594
X05913Y04625
X05751Y0441
X05673Y04545
X05538Y04506
X05531Y04446
X05523Y046
X05455Y04402
X054Y04524
X05398Y04624
X0535Y04624
X05349Y04574
X05247Y04476
X05247Y04527
X05197Y04521
X05118Y0462
X05111Y04483
X05109Y0458
X05064Y04476
X0505Y04385
X05018Y04517
X04999Y04438
X04998Y04401
X04893Y04442
X04893Y04603
X04814Y04604
X04806Y04524
X04782Y04501
X04763Y04604
X04757Y04481
X04752Y04528
X0474Y04442
X04596Y0444
X04435Y04623
X04405Y04534
X04401Y04623
X044Y0445
X0435Y04427
X04347Y04572
X04347Y04476
X04306Y04574
X043Y04432
X043Y04385
X04299Y04629
X04299Y04476
X04252Y04478
X04248Y04575
X04245Y04527
X04143Y044
X04142Y04452
X04141Y04597
X04137Y04506
X04113Y04398
X04101Y04452
X04083Y04398
X03921Y0459
X03428Y04604
X02815Y04497
X0268Y04629
X02658Y04464
X02573Y04566
X02556Y04536
X02505Y04506
X02473Y04507
X02421Y04506
X02394Y04492
X02377Y04587
X02371Y0447
X02355Y04608
X02346Y04515
X02322Y04446
X02301Y04504
X0228Y04434
X02259Y04507
X02145Y045
X02112Y04506
X02043Y0444
X02017Y04459
X01993Y0444
X01972Y04465
X01848Y04488
X01842Y04458
X01692Y04543
X01672Y04567
X01667Y04521
X01633Y04389
X01624Y04591
X01611Y04419
X01582Y04631
X01503Y046
X01482Y0455
X01447Y04619
X01392Y04524
X01299Y04497
X01284Y04398
X01267Y04564
X00876Y04536
X00054Y04728
X00183Y04866
X00845Y04767
X00935Y04636
X01041Y04765
X0106Y04789
X01062Y04644
X01209Y04712
X01212Y04841
X01287Y04839
X01467Y04826
X0147Y04656
X01479Y04718
X01638Y04734
X01663Y04818
X01675Y04654
X01689Y0471
X01701Y0474
X01762Y04752
X01789Y04808
X01792Y04752
X01816Y04825
X01818Y04659
X0183Y04725
X02379Y04788
X02379Y04674
X02572Y04675
X02574Y04875
X02574Y0477
X02595Y04651
X02616Y0468
X02628Y0471
X02691Y04749
X02705Y04675
X02725Y04818
X02737Y0472
X0275Y0479
X02782Y04789
X02788Y04873
X02796Y04819
X02869Y04875
X04077Y04812
X0408Y0465
X0408Y04698
X0408Y04752
X04083Y04851
X0411Y04752
X0411Y04698
X04113Y04854
X0414Y04699
X04143Y04854
X04143Y04752
X04143Y04797
X04299Y04725
X04344Y04674
X04348Y04726
X0435Y04779
X0435Y04827
X04398Y04729
X04404Y04872
X04404Y04779
X04595Y04825
X04595Y047
X04695Y0473
X04695Y0468
X04695Y0483
X04695Y0488
X04695Y0478
X04745Y0473
X04745Y0478
X04745Y0483
X04745Y0488
X04745Y0468
X04795Y0473
X04795Y0483
X04795Y0468
X04795Y0488
X04795Y0478
X04845Y0468
X04845Y0488
X04845Y0478
X04845Y0483
X04845Y0473
X04895Y0488
X04895Y0478
X04895Y0483
X04895Y0468
X04895Y0473
X04945Y0483
X04945Y0488
X04945Y0473
X04945Y0468
X04945Y0478
X05013Y04776
X05017Y04862
X05022Y04674
X05104Y04743
X05199Y04731
X05204Y04867
X05205Y04779
X05244Y0483
X05249Y04776
X053Y0472
X05301Y04777
X0546Y04847
X05466Y0474
X05466Y04686
X05466Y04794
X0549Y04848
X05496Y0474
X05496Y04794
X05496Y04686
X0552Y04848
X05526Y04794
X05526Y04686
X05526Y0474
X0553Y04641
X05571Y04848
X0575Y04805
X05864Y04695
X05892Y04755
X05952Y04818
X05958Y04764
X0609Y04788
X06096Y04836
X06105Y04647
X06138Y04647
X06237Y04642
X063Y04642
X06342Y04821
X06346Y0475
X06399Y04746
X06399Y04641
X06457Y04743
X0652Y04642
X06552Y04746
X06615Y04641
X06628Y04752
X06738Y04693
X07457Y04688
X07783Y04873
X07898Y05002
X07784Y04982
X07718Y04895
X07576Y0499
X07179Y04993
X0717Y049
X06808Y05118
X06792Y05022
X06631Y05029
X06517Y05023
X06452Y04966
X06446Y05023
X06372Y05034
X06196Y05019
X05853Y04992
X0583Y05129
X05796Y0495
X05787Y05015
X0573Y051
X05606Y05101
X05587Y04902
X05559Y05058
X05556Y04914
X05525Y04928
X05515Y05043
X05485Y05043
X05462Y04902
X05455Y05043
X05346Y04977
X05301Y05124
X05301Y05025
X05298Y04977
X05298Y05076
X05253Y04923
X0525Y05073
X05247Y05022
X05246Y05127
X0519Y05074
X0517Y05115
X05165Y0503
X05082Y05049
X05042Y0504
X05005Y0491
X04923Y04992
X04875Y0501
X04869Y04962
X04816Y05098
X0475Y05
X04692Y04995
X04611Y05097
X04595Y04925
X04497Y04964
X04492Y05059
X04404Y05049
X04401Y04974
X04395Y0512
X0435Y04974
X0435Y05021
X04299Y05117
X04296Y04977
X04247Y0507
X04211Y0502
X04146Y05118
X04143Y04909
X04113Y04992
X04113Y04905
X04086Y0495
X04083Y04993
X04083Y04905
X03846Y05043
X03178Y05119
X02932Y05021
X02856Y0504
X02827Y05005
X02826Y05046
X02592Y05015
X02592Y04983
X0253Y05019
X02379Y0492
X02044Y04948
X01996Y05122
X01978Y04948
X01967Y05114
X01912Y0511
X01846Y05113
X01822Y04986
X01816Y05101
X01798Y04939
X01792Y04986
X01786Y05092
X01771Y04897
X01768Y04939
X01762Y04986
X01756Y0508
X0172Y05053
X01717Y05023
X01664Y04924
X01467Y04926
X01371Y05112
X01332Y0499
X01168Y04938
X00432Y05007
X00396Y05106
X00045Y0512
X00411Y05319
X00811Y05363
X01362Y05187
X01383Y05364
X01749Y05199
X01764Y05316
X01848Y0526
X01954Y05332
X02016Y05148
X02044Y05239
X02053Y05269
X02056Y05299
X02059Y05176
X02059Y05146
X02059Y05206
X02089Y05206
X02149Y05269
X02149Y05239
X02155Y05299
X02239Y05325
X02257Y05301
X0226Y05218
X02379Y05157
X02506Y05162
X02542Y05272
X02544Y0537
X02563Y05341
X02577Y05299
X02578Y0537
X02791Y05149
X02791Y05323
X02848Y05131
X04143Y0525
X04143Y05151
X04143Y05219
X042Y05275
X04203Y05371
X04293Y05322
X04294Y0519
X04296Y05224
X04296Y05273
X0435Y05177
X0435Y05277
X0436Y05215
X04398Y0517
X04398Y05277
X04443Y05274
X04444Y05224
X04449Y05322
X04493Y0517
X04503Y05224
X04593Y05153
X04698Y05142
X04699Y05282
X04798Y05176
X04799Y0523
X0483Y05132
X0485Y05225
X04851Y05376
X04851Y05326
X04899Y05325
X04901Y05232
X04947Y05229
X05036Y0518
X0504Y0523
X05076Y05169
X051Y05275
X05149Y05223
X05151Y05274
X0516Y0515
X05193Y05274
X052Y05175
X052Y05225
X05206Y05134
X05244Y05178
X05247Y05275
X05247Y05226
X05297Y05323
X05298Y05274
X05299Y05224
X05301Y05172
X05397Y05373
X05446Y05373
X05448Y05153
X05483Y05161
X05525Y05195
X05535Y0514
X05541Y05277
X05555Y05207
X0557Y05137
X05628Y05319
X05632Y05365
X0571Y05292
X0579Y05167
X05796Y05251
X05821Y0522
X0589Y05149
X06052Y05356
X0609Y05262
X06194Y05258
X06209Y0515
X06306Y05261
X06308Y05144
X0638Y05152
X06444Y05148
X06494Y05143
X0655Y0526
X06645Y05163
X06723Y05163
X06796Y05224
X06828Y05316
X06831Y05274
X06832Y05224
X06847Y05373
X06852Y05251
X06853Y05339
X06855Y05295
X07191Y05157
X07203Y05235
X07203Y05262
X07203Y05319
X07503Y05292
X07632Y05151
X07644Y05349
X0765Y0525
X07485Y05427
X07449Y054
X07446Y05557
X07077Y05433
X06745Y05463
X06729Y05587
X06658Y05584
X06636Y05432
X06615Y05584
X06551Y05576
X06533Y05426
X06491Y05581
X06445Y05591
X06399Y05579
X06363Y05421
X06329Y05581
X06307Y05603
X06244Y05439
X06225Y05583
X06195Y0559
X06164Y056
X0614Y05581
X0611Y05575
X06087Y05598
X06042Y05385
X06029Y05414
X06004Y05451
X05999Y05408
X05973Y05479
X05971Y05448
X05938Y0559
X05926Y05481
X05893Y05595
X05872Y05476
X05848Y05542
X05587Y05432
X0545Y05458
X0529Y05418
X05273Y05618
X05201Y0562
X05176Y05434
X05074Y05431
X05039Y0561
X04968Y05484
X04929Y05603
X04899Y0555
X04887Y05606
X04873Y0543
X04854Y05548
X04851Y05458
X04825Y05534
X04776Y05508
X04722Y05628
X04722Y0552
X04655Y05607
X04632Y0558
X04629Y05526
X04625Y05472
X04522Y05492
X04478Y05624
X0447Y05436
X04425Y05429
X04425Y05541
X04423Y05583
X04423Y05511
X04366Y05476
X04365Y05535
X04355Y05585
X04323Y05436
X04322Y05535
X04321Y05467
X04213Y05614
X04204Y05425
X04203Y05577
X03859Y05458
X03856Y05488
X03702Y05562
X03234Y05562
X03091Y0556
X03067Y05581
X03047Y05439
X03043Y05602
X02816Y05398
X02379Y05418
X02198Y05417
X02164Y05431
X0213Y05433
X02077Y05437
X01998Y05412
X0199Y05614
X0198Y0555
X01899Y0541
X01192Y05599
X00728Y05482
X00045Y05553
X00447Y05854
X0062Y05746
X03069Y0575
X03108Y05787
X03159Y05712
X03454Y05872
X03499Y05701
X03621Y05867
X03748Y05806
X03748Y05773
X03759Y05673
X03775Y05851
X03778Y05797
X0405Y05798
X04152Y0582
X04289Y05725
X0435Y05825
X04362Y05635
X04425Y05641
X0445Y05821
X04496Y05661
X04555Y05845
X0463Y05825
X04657Y05864
X04658Y05767
X04725Y05859
X04819Y05793
X04927Y05647
X04986Y0582
X05015Y05644
X05016Y05784
X05017Y05687
X05032Y05845
X0505Y05673
X05082Y05672
X05082Y05636
X05138Y05676
X05144Y05634
X05146Y05752
X05148Y0585
X05199Y0565
X05257Y05646
X05325Y0585
X05382Y05846
X05555Y05635
X05565Y05847
X05602Y05805
X05695Y05837
X05815Y05815
X05847Y05814
X05919Y05706
X05955Y05706
X06137Y05683
X06147Y05757
X06205Y05796
X0625Y05755
X06261Y05707
X06346Y05749
X06357Y05707
X06399Y05694
X06428Y05776
X06499Y05689
X065Y05781
X06557Y05763
X06564Y05683
X06652Y05662
X06661Y05765
X06742Y05752
X06766Y05682
X06861Y05649
X06902Y05818
X06982Y05832
X07078Y05633
X0708Y05775
X0708Y05874
X07479Y05832
X07479Y05733
X07898Y05999
X07479Y06033
X07479Y05934
X0708Y06075
X0708Y05976
X06987Y06024
X06984Y06115
X06982Y05922
X0671Y05891
X06691Y05973
X06648Y05883
X06554Y0589
X06511Y06069
X06507Y06004
X0646Y06053
X06456Y05886
X06398Y05931
X06396Y06024
X06363Y0607
X063Y05893
X06294Y06096
X0629Y05971
X06246Y05931
X06217Y05997
X0621Y06069
X06173Y05922
X06111Y05919
X06106Y05958
X06084Y06081
X06078Y05943
X06061Y06051
X06049Y05968
X06017Y0605
X05989Y06083
X05914Y0601
X05884Y06007
X05865Y05969
X05841Y06
X05819Y05971
X05797Y05995
X05775Y05971
X05754Y05998
X05733Y05971
X05712Y05998
X05691Y05971
X0567Y05998
X055Y0611
X05478Y06087
X05383Y06063
X05337Y06093
X05277Y06066
X05214Y06084
X05031Y06093
X04881Y05913
X0479Y0592
X04764Y06114
X04705Y05912
X0465Y05965
X04524Y06018
X04401Y06087
X0426Y05975
X04047Y05892
X03736Y05893
X03577Y06068
X03528Y06092
X03435Y06
X02949Y05949
X02775Y05946
X02766Y06015
X02733Y05994
X02712Y06039
X02676Y06018
X02646Y06051
X02611Y06063
X02557Y06087
X02536Y06064
X02515Y06
X02491Y06055
X02469Y06099
X02442Y06075
X0241Y06089
X02127Y06099
X0204Y06105
X02019Y06126
X0198Y05949
X01875Y06117
X01843Y06103
X01812Y06105
X01661Y06055
X01638Y06108
X01557Y06087
X01512Y06087
X01424Y06039
X01374Y06087
X01292Y0602
X01001Y0602
X00381Y05948
X01468Y06378
X01525Y06375
X01722Y06213
X02032Y06301
X02223Y06225
X0232Y06304
X03613Y06343
X03847Y06165
X04006Y062
X0401Y06376
X04204Y06275
X04261Y062
X0438Y06147
X0439Y06275
X04391Y06317
X04513Y06202
X04543Y06173
X04576Y06215
X04632Y06303
X04657Y06333
X04665Y06142
X04797Y06297
X04809Y0633
X04953Y06204
X05043Y06334
X05148Y06222
X05229Y0624
X0526Y06315
X0528Y06255
X05316Y0615
X0533Y06275
X05436Y06318
X05625Y06213
X05634Y06318
X05688Y0615
X05718Y06162
X0589Y06353
X06249Y0616
X06348Y06183
X06352Y0622
X06448Y06211
X06457Y06371
X0652Y06362
X06546Y06225
X06583Y06352
X06646Y0634
X06751Y06332
X06796Y06352
X06893Y06356
X0695Y06205
X06958Y06136
X0708Y06375
X0708Y06276
X0708Y06174
X07083Y06327
X07083Y06231
X07476Y06135
X07482Y06234
X07482Y06333
X07476Y06434
X07431Y06477
X07083Y06426
X07078Y06475
X0695Y06575
X06897Y06494
X06714Y06597
X06697Y06392
X06531Y06603
X06488Y06421
X05704Y06466
X05704Y06598
X05605Y0648
X05562Y06388
X05436Y06501
X05399Y0657
X05348Y06415
X05043Y06587
X04932Y06579
X04753Y06429
X04747Y06529
X04716Y06391
X04716Y06528
X04648Y06612
X04575Y0655
X04573Y064
X04524Y06627
X04385Y06552
X04376Y06395
X04231Y06395
X04204Y06597
X04012Y066
X04009Y06529
X03807Y06387
X03738Y06396
X03554Y06464
X0348Y06451
X03438Y06618
X03436Y06573
X03385Y06468
X03378Y0663
X03308Y06523
X03219Y06615
X02766Y06589
X02632Y06472
X02569Y06544
X02491Y06583
X02422Y06514
X01912Y06484
X01874Y06486
X01762Y06472
X01696Y06472
X01612Y06426
X01452Y06442
X01431Y06589
X01391Y06479
X01284Y06624
X01278Y06521
X01225Y06568
X01123Y06568
X01086Y06423
X01026Y0657
X00949Y06476
X00903Y06421
X00886Y06621
X00772Y06519
X00762Y06589
X00664Y06553
X00654Y06474
X00264Y06861
X00297Y0675
X00517Y06801
X00623Y06814
X00654Y06687
X0075Y06822
X00848Y06752
X00889Y0672
X00904Y06798
X01054Y06724
X01123Y06766
X0115Y06673
X01284Y06726
X01486Y0674
X01541Y06672
X01758Y0681
X02556Y06741
X03851Y0667
X03975Y06795
X03993Y06768
X04041Y06822
X04053Y06853
X042Y0673
X04215Y06666
X043Y0673
X04383Y06684
X044Y0673
X045Y0673
X04563Y06723
X04622Y06669
X05002Y0673
X051Y06729
X05429Y06853
X05499Y0681
X055Y06852
X05503Y06765
X05527Y06831
X05527Y06789
X05527Y06873
X05901Y06699
X06693Y06839
X06751Y06803
X06804Y06774
X0685Y06796
X072Y06822
X07434Y06738
X07898Y07004
X07026Y07005
X068Y07129
X06012Y07056
X05994Y0708
X05958Y0708
X05935Y07059
X05904Y07068
X0588Y07086
X0588Y07116
X05694Y07086
X05637Y07001
X05598Y07002
X05562Y07062
X0555Y07002
X05527Y06957
X05527Y06915
X05508Y07002
X055Y06894
X055Y06936
X05448Y06921
X05439Y07051
X05343Y06955
X05235Y07006
X04572Y0705
X04524Y07104
X04474Y07099
X04425Y07101
X04324Y07099
X04315Y06915
X04239Y06963
X04237Y06993
X04088Y06947
X04063Y06907
X04012Y07007
X03332Y06973
X03264Y06951
X03261Y07125
X03187Y06955
X03135Y06939
X0312Y06969
X03072Y06969
X0303Y06942
X03001Y06967
X02965Y06943
X02964Y07113
X0292Y07108
X02874Y0711
X02859Y0696
X02829Y0711
X02777Y06903
X02744Y07109
X0273Y06948
X02647Y06975
X02631Y07104
X02599Y07102
X0256Y06925
X02532Y07108
X02518Y06925
X02506Y06967
X02458Y06931
X02434Y06967
X0241Y07102
X02389Y06967
X02356Y06937
X0234Y06972
X0231Y06942
X02293Y06967
X02264Y06942
X02238Y0696
X02185Y07099
X02174Y0697
X01908Y06991
X0181Y06896
X01743Y07107
X01593Y06954
X01275Y06882
X00973Y07087
X00834Y0708
X00807Y06996
X00699Y06888
X00477Y06978
X00403Y06895
X00474Y07242
X00786Y07191
X00822Y0714
X00937Y0715
X0115Y07231
X01207Y07363
X01545Y07311
X01677Y0738
X01725Y0738
X01733Y07309
X01785Y07143
X018Y07374
X01845Y07206
X0186Y07338
X0186Y07374
X01917Y07359
X01959Y0724
X01998Y0738
X02028Y07317
X02124Y07311
X02157Y07308
X02175Y07377
X02193Y07311
X02241Y0738
X02245Y0727
X02269Y07291
X02274Y07377
X02293Y0727
X02298Y07347
X02317Y0729
X02331Y07377
X02343Y07269
X02358Y07329
X02361Y0738
X02391Y0738
X02412Y07296
X02436Y07275
X02436Y0738
X0246Y07296
X02463Y07134
X02506Y07291
X02529Y07272
X02551Y07296
X02577Y07268
X02598Y07314
X02628Y07347
X0264Y07294
X02647Y07263
X02683Y07305
X02694Y07353
X02718Y07305
X02744Y07261
X02764Y07322
X02768Y07279
X02803Y07323
X02829Y07269
X02845Y07297
X0287Y07338
X02883Y07269
X02913Y0735
X02925Y07266
X02925Y07305
X02971Y07357
X02995Y07336
X03003Y07281
X03013Y0731
X03031Y0727
X03073Y07339
X03121Y0727
X03145Y07336
X03166Y07282
X03307Y07282
X03331Y07132
X03429Y07203
X03429Y07308
X03504Y07152
X03725Y0735
X03867Y07197
X03897Y07197
X03921Y07142
X03927Y07197
X03937Y07333
X03939Y07363
X03952Y07137
X03954Y07275
X03957Y07197
X03967Y07379
X03967Y07335
X03987Y07209
X03987Y07275
X03999Y07365
X04079Y0723
X0408Y07281
X04103Y07158
X04115Y07231
X04226Y07149
X04228Y07198
X04228Y07354
X04229Y07303
X04231Y07255
X04275Y072
X04275Y07149
X04276Y07252
X04276Y0735
X04276Y07294
X04326Y07251
X04326Y072
X04329Y07152
X04372Y07351
X04422Y07296
X04422Y07203
X04425Y07149
X04474Y07152
X04476Y072
X04519Y07298
X04524Y072
X04527Y07149
X04572Y072
X04572Y07146
X04572Y0735
X04614Y07284
X04626Y072
X04651Y07313
X04716Y0732
X04854Y07374
X05025Y07149
X0513Y07224
X05141Y07149
X05331Y07303
X05331Y07261
X05355Y07282
X05398Y07362
X0545Y07195
X0549Y0734
X05496Y07166
X05618Y07166
X05622Y0723
X05656Y07296
X0567Y07206
X05688Y07272
X05815Y07208
X05819Y07273
X05826Y07356
X05834Y07148
X0588Y07212
X05887Y07351
X05889Y07286
X06256Y07249
X06346Y07338
X06353Y07258
X06564Y07335
X06612Y07347
X06652Y07222
X06701Y07174
X06717Y07341
X06798Y07335
X06954Y07174
X07152Y07287
X07206Y07221
X077Y07533
X07682Y0746
X07173Y07395
X06976Y07453
X06675Y07614
X06575Y07625
X05884Y07422
X05853Y07415
X05802Y0762
X05676Y07418
X05606Y07491
X05532Y07409
X05451Y07431
X05362Y07605
X05232Y075
X05211Y07527
X0519Y07497
X05169Y07527
X05139Y07476
X05025Y07599
X05025Y07548
X04866Y07475
X0474Y07575
X0474Y07425
X0474Y07476
X0474Y07525
X0465Y07605
X04625Y0745
X04625Y0755
X04625Y075
X0458Y07545
X04575Y075
X04575Y0745
X04462Y0744
X04425Y07619
X04384Y07525
X0438Y07476
X04326Y075
X04325Y07451
X04324Y076
X04274Y07399
X04274Y07598
X04274Y07452
X04228Y07402
X04228Y076
X04228Y0745
X04224Y07551
X04113Y07525
X04083Y07533
X04059Y07423
X04054Y07519
X04029Y07423
X04024Y07486
X03987Y07507
X03986Y07435
X03968Y0746
X03937Y07465
X03934Y07543
X03828Y07477
X03725Y0755
X03725Y0745
X03429Y07488
X03429Y07584
X03429Y0741
X03324Y07488
X0319Y0748
X0319Y07561
X0319Y07591
X0319Y0763
X03124Y07426
X03051Y07428
X03031Y07402
X02622Y07515
X02594Y07583
X02472Y07611
X02448Y07584
X02433Y07539
X02406Y07596
X02355Y075
X02229Y07539
X02218Y07596
X02205Y07383
X02199Y07536
X02163Y0754
X02146Y07588
X02137Y07484
X02097Y07538
X02085Y07488
X02046Y07491
X0198Y07539
X01946Y07489
X01909Y07521
X01881Y07485
X01863Y07614
X01839Y07482
X01818Y07617
X018Y07485
X01791Y07578
X01764Y07485
X01752Y07602
X01725Y0762
X0159Y07578
X01493Y07526
X01359Y07569
X01344Y07533
X01002Y07392
X01Y07552
X00771Y07542
X00571Y07575
X00477Y07389
X00378Y07799
X0048Y07866
X0051Y0771
X00679Y07832
X00811Y07688
X00921Y07862
X01244Y07694
X0128Y07872
X01282Y07798
X01369Y07846
X01372Y07753
X01383Y07686
X0146Y07672
X01584Y07767
X01589Y07648
X01704Y07759
X01728Y07707
X01773Y07632
X01803Y07785
X01823Y07652
X01836Y07845
X01947Y07709
X02025Y07878
X0205Y07714
X0216Y0771
X02202Y07877
X02265Y07801
X02367Y07707
X02448Y07812
X02469Y07698
X02469Y0765
X02469Y07728
X02478Y07848
X02478Y07809
X02478Y07879
X02641Y07825
X02642Y07749
X02655Y07878
X02673Y07762
X02675Y07806
X02688Y07701
X02703Y07729
X02802Y07833
X02887Y07744
X02894Y07653
X02895Y07836
X02898Y07881
X0296Y07652
X0309Y0765
X03184Y07678
X03184Y07729
X03184Y0778
X03184Y07828
X03429Y07671
X03429Y07791
X0354Y07656
X0354Y07758
X03552Y0786
X03688Y0785
X03727Y07645
X03727Y07749
X03746Y0785
X03828Y07692
X03915Y07866
X03916Y07658
X03925Y0775
X03946Y0766
X03957Y07752
X0397Y07852
X03976Y0766
X04006Y0766
X04039Y07771
X04072Y07711
X04126Y07795
X04177Y07798
X04177Y07849
X04225Y07852
X04227Y07797
X04228Y07702
X0427Y07654
X04278Y07848
X04326Y07851
X04426Y07749
X04473Y07663
X04476Y07851
X04524Y07851
X04533Y07701
X04575Y07851
X04701Y07638
X04713Y07713
X04725Y07851
X04775Y07849
X048Y07635
X04824Y07851
X04869Y07743
X04875Y07851
X04975Y078
X05025Y078
X05223Y078
X05232Y07725
X05284Y0765
X05292Y07749
X0536Y07694
X05433Y07799
X0549Y07647
X06677Y07767
X07898Y08005
X06006Y08001
X05708Y08047
X05597Y08098
X05521Y07896
X05431Y08003
X05256Y07923
X0511Y08071
X05004Y08088
X04902Y08082
X04875Y0795
X04875Y07899
X04817Y08093
X04789Y08071
X04774Y07949
X04749Y08025
X04725Y079
X04692Y08022
X04626Y07948
X04458Y081
X04456Y08022
X04326Y08115
X04176Y08106
X04072Y079
X03928Y08049
X0391Y08126
X03822Y07989
X0376Y07936
X03559Y07972
X03504Y07951
X03429Y0789
X03336Y08107
X03334Y07966
X03327Y07884
X03303Y07914
X033Y07965
X03186Y07888
X03184Y0793
X03183Y0798
X03054Y0792
X03048Y08028
X03046Y08131
X03018Y07938
X03016Y08028
X02974Y08126
X02906Y08094
X02905Y07914
X02808Y08124
X02748Y08131
X02712Y07981
X02712Y08076
X02652Y08029
X02649Y0798
X02637Y07929
X02587Y0807
X02477Y07958
X02472Y07996
X02471Y0791
X02361Y07929
X0236Y08006
X0225Y07902
X0224Y08008
X02197Y08029
X02154Y08022
X02117Y08029
X02053Y08027
X0201Y07978
X01841Y08032
X018Y07904
X01762Y08033
X01594Y08004
X01591Y07918
X01569Y07918
X0156Y07966
X0153Y07944
X01453Y08102
X01385Y07952
X0138Y0807
X01318Y08005
X01194Y07968
X01148Y08027
X00816Y07962
X00702Y08238
X0129Y08193
X01321Y08381
X01368Y08325
X01598Y08319
X01644Y0818
X0174Y08189
X01769Y08137
X01833Y08352
X01835Y08271
X01927Y08208
X01944Y0837
X01968Y08272
X0203Y08145
X02051Y08344
X02076Y08139
X02092Y08376
X02174Y08172
X02205Y08344
X02235Y08141
X0225Y08172
X02283Y08318
X02299Y08226
X02303Y08287
X02341Y08153
X0235Y08379
X02367Y08183
X0276Y08232
X0285Y08238
X02959Y08329
X03022Y08257
X03198Y08238
X03285Y08238
X03465Y08235
X04017Y08136
X0412Y08215
X04216Y0825
X04318Y08275
X04404Y08231
X04434Y08361
X0447Y08269
X04574Y083
X04662Y08277
X04746Y0828
X04842Y08316
X051Y08275
X05249Y08282
X05271Y08377
X05441Y08206
X05577Y08361
X056Y08202
X06075Y08367
X07898Y08603
X07316Y08476
X07002Y08603
X06125Y0845
X06001Y08603
X05985Y08397
X05616Y08412
X05173Y08441
X05Y08603
X04974Y08499
X04878Y08403
X04821Y08409
X04776Y08499
X04674Y08499
X04575Y08505
X04482Y08499
X04416Y08439
X04374Y08508
X04323Y08502
X04275Y08508
X04218Y08439
X04176Y08509
X04116Y08442
X04077Y08509
X04003Y08603
X03002Y08603
X02232Y08409
X02181Y0852
X02118Y084
X02031Y0852
X02001Y08603
X01698Y0846
X01597Y08482
X01541Y08415
X01539Y08475
X01407Y0846
X0136Y08479
X0119Y08384
X01007Y08603
X00093Y08603
T3F197S55
X002Y00264
X002Y00249
X002Y00239
X002Y00294
X002Y00309
X002Y00319
X002Y00279
X00282Y00082
X00292Y00082
X00307Y00082
X00322Y00082
X00337Y00082
X00352Y00082
X00362Y00082
X00444Y00309
X00444Y00279
X00444Y00324
X00444Y00249
X00444Y00264
X00444Y00234
X00444Y00294
X00444Y00219
X00444Y00339
T4F197S55
X00214Y00807
X00214Y00888
X00214Y00968
X00214Y01048
X00285Y00848
X00285Y00928
X00285Y01008
X00285Y01088
X00474Y00677
X00474Y01128
X00476Y00768
X00474Y01218
X00466Y01486
X00466Y01576
X00466Y01936
X00466Y02026
X00276Y01736
X00276Y01816
X00276Y01655
X00276Y01896
X00206Y01856
X00206Y01776
X00206Y01615
X00206Y01696
X00214Y02502
X00214Y02582
X00214Y02422
X00214Y02662
X00285Y02462
X00285Y02622
X00285Y02542
X00285Y02703
X00474Y02292
X00474Y02833
X00474Y02742
X00476Y02382
X00476Y07138
X00474Y07048
X00285Y07379
X00285Y07298
X00285Y07218
X00214Y07178
X00214Y07258
X00214Y07338
X00214Y07419
X00285Y07459
X00474Y07499
X00474Y07589
T5F197S55
X03395Y07119
T6F197S55
X00381Y08129
X00459Y08129
X00459Y08227
X00381Y08227
T7F197S55
X02371Y03364
X02471Y03364
X06166Y0163
X06166Y0173
X03749Y04053
X03749Y03953
X03674Y04003
X03674Y04103
X03674Y03903
X03599Y04053
X03599Y03953
X03524Y04003
X03524Y04103
X03524Y03903
X03449Y04053
X03449Y03953
X03374Y04003
X03374Y04103
X03374Y03903
X03299Y04053
X03299Y03953
X03224Y04003
X03224Y04103
X03224Y03903
X03224Y04303
X03224Y04203
X03224Y04603
X03224Y04503
X03224Y04403
X03299Y04353
X03299Y04253
X03299Y04153
X03299Y04553
X03299Y04453
X03374Y04303
X03374Y04203
X03374Y04603
X03374Y04503
X03374Y04403
X03449Y04253
X03449Y04553
X03449Y04353
X03449Y04453
X03449Y04153
X03524Y04603
X03524Y04503
X03524Y04403
X03524Y04303
X03524Y04203
X03599Y04553
X03599Y04453
X03599Y04353
X03599Y04253
X03599Y04153
X03674Y04303
X03674Y04603
X03674Y04403
X03674Y04203
X03674Y04503
X03749Y04253
X03749Y04453
X03749Y04553
X03749Y04353
X03749Y04153
X07Y05075
X03749Y04753
X03749Y04653
X03749Y05053
X03749Y04953
X03749Y04853
X03674Y05103
X03674Y04703
X03674Y05003
X03674Y04803
X03674Y04903
X03599Y04753
X03599Y04653
X03599Y05053
X03599Y04953
X03599Y04853
X03524Y04803
X03524Y04703
X03524Y05103
X03524Y05003
X03524Y04903
X03449Y04753
X03449Y04853
X03449Y04653
X03449Y05053
X03449Y04953
X03374Y04703
X03374Y04803
X03374Y05103
X03374Y05003
X03374Y04903
X03299Y04753
X03299Y04653
X03299Y05053
X03299Y04953
X03299Y04853
X03224Y04703
X03224Y05003
X03224Y04803
X03224Y04903
X03224Y05103
X03224Y05303
X03224Y05203
X03224Y05503
X03224Y05403
X03299Y05353
X03299Y05253
X03299Y05153
X03299Y05553
X03299Y05453
X03374Y05303
X03374Y05203
X03374Y05503
X03374Y05403
X03449Y05153
X03449Y05553
X03449Y05253
X03449Y05453
X03449Y05353
X03524Y05303
X03524Y05503
X03524Y05403
X03524Y05203
X03599Y05153
X03599Y05353
X03599Y05453
X03599Y05253
X03599Y05553
X03674Y05203
X03674Y05303
X03674Y05503
X03674Y05403
X03749Y05553
X03749Y05153
X03749Y05453
X03749Y05253
X03749Y05353
X07Y05175
X07Y05275
X03575Y06167
X03575Y06267
X03475Y06167
X03475Y06267
X03375Y06167
X03375Y06267
X03275Y06167
X03275Y06267
X03175Y06167
X03175Y06267
X03075Y06267
X03075Y06167
X02975Y06167
X02975Y06267
X02875Y06267
X02875Y06167
X02775Y06167
X02775Y06267
X02675Y06167
X02675Y06267
X02575Y06167
X02575Y06267
X02475Y06167
X02475Y06267
X02375Y06167
X02375Y06267
X02275Y06167
X02275Y06267
X02175Y06167
X02175Y06267
X02075Y06167
X02075Y06267
X01975Y06267
X01975Y06167
X01875Y06167
X01875Y06267
X01775Y06167
X01775Y06267
X01675Y06167
X01675Y06267
X01575Y06167
X01575Y06267
X01475Y06167
X01475Y06267
X01375Y06167
X01375Y06267
X01275Y06267
X01275Y06167
X01175Y06267
X01175Y06167
X01075Y06167
X01075Y06267
X00975Y06167
X00975Y06267
X00875Y06267
X00875Y06167
X00775Y06167
X00775Y06267
X00675Y06167
X00675Y06267
X00484Y06358
X00484Y06259
X00367Y06358
X00367Y06259
X00367Y06535
X00367Y06437
X00484Y06535
X00484Y06437
X02803Y07466
X02903Y07466
X03507Y0833
X03507Y0843
X03407Y0833
X03407Y0843
X03307Y0843
X03307Y0833
X03207Y0843
X03207Y0833
X03107Y0833
X03107Y0843
X0286Y0843
X0286Y0833
X0276Y0833
X0276Y0843
X0266Y0843
X0266Y0833
X0256Y0833
X0256Y0843
X0246Y0833
X0246Y0843
T8F139S55
X05642Y01038
X05642Y00938
X05742Y01038
X05742Y00938
X05842Y01038
X05842Y00938
X05942Y01038
X05942Y00938
X06042Y01038
X06042Y00938
X06142Y01038
X06142Y00938
X06242Y01038
X06242Y00938
X06342Y01038
X06342Y00938
X07548Y02862
X07548Y02762
X07548Y02662
X07448Y02862
X07448Y02662
X07448Y02762
X07448Y03062
X07448Y02962
X07448Y03262
X07448Y03162
X07448Y03362
X07448Y03462
X07448Y03562
X07548Y03162
X07548Y03062
X07548Y03362
X07548Y03262
X07548Y03462
X07548Y02962
X07548Y03562
X07548Y03662
X07548Y03762
X07548Y03862
X07548Y04062
X07548Y03962
X07548Y04262
X07548Y04162
X07548Y04362
X07448Y03962
X07448Y03862
X07448Y04262
X07448Y03762
X07448Y04162
X07448Y04062
X07448Y04362
X07448Y03662
X07448Y04462
X07448Y04562
X07548Y04462
X07548Y04562
T9F089S55
X06504Y08103
X07297Y08103
T10F089S55
X00241Y01435
X00241Y02076
X00249Y00627
X00249Y01268
X0025Y02242
X0025Y02883
X0025Y06998
X0025Y07639
T11F089S55
X02112Y07119
T12F081S55
X07646Y06853
X07646Y06653
X07646Y07053
X07646Y07253
T13F066S55
X00274Y07941
X00274Y08415
T14F066S55
X03251Y03703
X03551Y03703
X03551Y05753
X03251Y05753
T15F066S55
X00712Y03566
X01012Y03566
X01012Y05889
X00712Y05889
X00484Y06138
X0026Y06138
X0026Y06656
X00484Y06656
T16F069S658
X03799Y06964
X03799Y08362
T17F035S794
X00106Y01506
X00106Y02006
X00114Y00698
X00114Y01198
X00114Y02312
X00114Y02812
X00114Y07068
X00114Y07569
T18F035S794
X00196Y-00118
X07763Y-00118
X07763Y08779
X00196Y08779
T19F035S1033
X00905Y00314
X02208Y02086
X06208Y02086
X07645Y00314
X06208Y06574
X02208Y06574
X00905Y08346
X07645Y08346
M30
