echo "#define DPKG_VERSION \"1.6.15\" /* This line modified by Makefile */" > version.h
set -e ; target=`echo all-recursive | sed s/-recursive//`; \
    for d in include lib optlib intl dpkg-deb split scripts utils main utils dselect po methods doc ; do \
    make  -C $d $target ; \
done;
make[1]: Entering directory `/var/trees/rf/src/hr/cmd/dpkg/include'
sed 's,#ADMINDIR#,/usr/lib/db,; s,#LIBDIR#,/usr/lib/dpkg,;' dpkg.h.in > dpkg.h
make[1]: Leaving directory `/var/trees/rf/src/hr/cmd/dpkg/include'
make[1]: Entering directory `/var/trees/rf/src/hr/cmd/dpkg/lib'
ppc_8xx-gcc -D_REENTRANT -D_GNU_SOURCE -O2 -DHAVE_CONFIG_H -DLOCALEDIR=\"/usr/share/locale\" -I../intl -I../intl -I../include -I.. -I. -I../include -I.. -I. -DCOPYINGFILE=\"/usr/share/doc/dpkg/copyright\" -c compat.c
ppc_8xx-gcc -D_REENTRANT -D_GNU_SOURCE -O2 -DHAVE_CONFIG_H -DLOCALEDIR=\"/usr/share/locale\" -I../intl -I../intl -I../include -I.. -I. -I../include -I.. -I. -DCOPYINGFILE=\"/usr/share/doc/dpkg/copyright\" -c database.c
In file included from ../config.h:257,
                 from database.c:25:
/opt/hardhat/devkit/ppc/8xx/lib/gcc-lib/powerpc-hardhat-linux/2.95.2/include/stddef.h:118: warning: empty declaration
ppc_8xx-gcc -D_REENTRANT -D_GNU_SOURCE -O2 -DHAVE_CONFIG_H -DLOCALEDIR=\"/usr/share/locale\" -I../intl -I../intl -I../include -I.. -I. -I../include -I.. -I. -DCOPYINGFILE=\"/usr/share/doc/dpkg/copyright\" -c dbmodify.c
ppc_8xx-gcc -D_REENTRANT -D_GNU_SOURCE -O2 -DHAVE_CONFIG_H -DLOCALEDIR=\"/usr/share/locale\" -I../intl -I../intl -I../include -I.. -I. -I../include -I.. -I. -DCOPYINGFILE=\"/usr/share/doc/dpkg/copyright\" -c dump.c
ppc_8xx-gcc -D_REENTRANT -D_GNU_SOURCE -O2 -DHAVE_CONFIG_H -DLOCALEDIR=\"/usr/share/locale\" -I../intl -I../intl -I../include -I.. -I. -I../include -I.. -I. -DCOPYINGFILE=\"/usr/share/doc/dpkg/copyright\" -c ehandle.c
ppc_8xx-gcc -D_REENTRANT -D_GNU_SOURCE -O2 -DHAVE_CONFIG_H -DLOCALEDIR=\"/usr/share/locale\" -I../intl -I../intl -I../include -I.. -I. -I../include -I.. -I. -DCOPYINGFILE=\"/usr/share/doc/dpkg/copyright\" -c fields.c
In file included from ../config.h:257,
                 from fields.c:26:
/opt/hardhat/devkit/ppc/8xx/lib/gcc-lib/powerpc-hardhat-linux/2.95.2/include/stddef.h:118: warning: empty declaration
ppc_8xx-gcc -D_REENTRANT -D_GNU_SOURCE -O2 -DHAVE_CONFIG_H -DLOCALEDIR=\"/usr/share/locale\" -I../intl -I../intl -I../include -I.. -I. -I../include -I.. -I. -DCOPYINGFILE=\"/usr/share/doc/dpkg/copyright\" -c lock.c
ppc_8xx-gcc -D_REENTRANT -D_GNU_SOURCE -O2 -DHAVE_CONFIG_H -DLOCALEDIR=\"/usr/share/locale\" -I../intl -I../intl -I../include -I.. -I. -I../include -I.. -I. -DCOPYINGFILE=\"/usr/share/doc/dpkg/copyright\" -c mlib.c
ppc_8xx-gcc -D_REENTRANT -D_GNU_SOURCE -O2 -DHAVE_CONFIG_H -DLOCALEDIR=\"/usr/share/locale\" -I../intl -I../intl -I../include -I.. -I. -I../include -I.. -I. -DCOPYINGFILE=\"/usr/share/doc/dpkg/copyright\" -c myopt.c
In file included from ../config.h:257,
                 from myopt.c:24:
/opt/hardhat/devkit/ppc/8xx/lib/gcc-lib/powerpc-hardhat-linux/2.95.2/include/stddef.h:118: warning: empty declaration
ppc_8xx-gcc -D_REENTRANT -D_GNU_SOURCE -O2 -DHAVE_CONFIG_H -DLOCALEDIR=\"/usr/share/locale\" -I../intl -I../intl -I../include -I.. -I. -I../include -I.. -I. -DCOPYINGFILE=\"/usr/share/doc/dpkg/copyright\" -c nfmalloc.c
In file included from ../config.h:257,
                 from nfmalloc.c:25:
/opt/hardhat/devkit/ppc/8xx/lib/gcc-lib/powerpc-hardhat-linux/2.95.2/include/stddef.h:118: warning: empty declaration
ppc_8xx-gcc -D_REENTRANT -D_GNU_SOURCE -O2 -DHAVE_CONFIG_H -DLOCALEDIR=\"/usr/share/locale\" -I../intl -I../intl -I../include -I.. -I. -I../include -I.. -I. -DCOPYINGFILE=\"/usr/share/doc/dpkg/copyright\" -c parse.c
In file included from ../config.h:257,
                 from parse.c:27:
/opt/hardhat/devkit/ppc/8xx/lib/gcc-lib/powerpc-hardhat-linux/2.95.2/include/stddef.h:118: warning: empty declaration
ppc_8xx-gcc -D_REENTRANT -D_GNU_SOURCE -O2 -DHAVE_CONFIG_H -DLOCALEDIR=\"/usr/share/locale\" -I../intl -I../intl -I../include -I.. -I. -I../include -I.. -I. -DCOPYINGFILE=\"/usr/share/doc/dpkg/copyright\" -c parsehelp.c
In file included from ../config.h:257,
                 from parsehelp.c:26:
/opt/hardhat/devkit/ppc/8xx/lib/gcc-lib/powerpc-hardhat-linux/2.95.2/include/stddef.h:118: warning: empty declaration
ppc_8xx-gcc -D_REENTRANT -D_GNU_SOURCE -O2 -DHAVE_CONFIG_H -DLOCALEDIR=\"/usr/share/locale\" -I../intl -I../intl -I../include -I.. -I. -I../include -I.. -I. -DCOPYINGFILE=\"/usr/share/doc/dpkg/copyright\" -c showcright.c
ppc_8xx-gcc -D_REENTRANT -D_GNU_SOURCE -O2 -DHAVE_CONFIG_H -DLOCALEDIR=\"/usr/share/locale\" -I../intl -I../intl -I../include -I.. -I. -I../include -I.. -I. -DCOPYINGFILE=\"/usr/share/doc/dpkg/copyright\" -c tarfn.c
ppc_8xx-gcc -D_REENTRANT -D_GNU_SOURCE -O2 -DHAVE_CONFIG_H -DLOCALEDIR=\"/usr/share/locale\" -I../intl -I../intl -I../include -I.. -I. -I../include -I.. -I. -DCOPYINGFILE=\"/usr/share/doc/dpkg/copyright\" -c varbuf.c
In file included from ../config.h:257,
                 from varbuf.c:26:
/opt/hardhat/devkit/ppc/8xx/lib/gcc-lib/powerpc-hardhat-linux/2.95.2/include/stddef.h:118: warning: empty declaration
ppc_8xx-gcc -D_REENTRANT -D_GNU_SOURCE -O2 -DHAVE_CONFIG_H -DLOCALEDIR=\"/usr/share/locale\" -I../intl -I../intl -I../include -I.. -I. -I../include -I.. -I. -DCOPYINGFILE=\"/usr/share/doc/dpkg/copyright\" -c vercmp.c
In file included from ../config.h:257,
                 from vercmp.c:25:
/opt/hardhat/devkit/ppc/8xx/lib/gcc-lib/powerpc-hardhat-linux/2.95.2/include/stddef.h:118: warning: empty declaration
ar r libdpkg.a compat.o database.o dbmodify.o dump.o ehandle.o fields.o lock.o mlib.o myopt.o nfmalloc.o parse.o parsehelp.o showcright.o tarfn.o varbuf.o vercmp.o
make[1]: Leaving directory `/var/trees/rf/src/hr/cmd/dpkg/lib'
make[1]: Entering directory `/var/trees/rf/src/hr/cmd/dpkg/optlib'
ppc_8xx-gcc -D_REENTRANT -D_GNU_SOURCE -O2 -DHAVE_CONFIG_H -DLOCALEDIR=\"/usr/share/locale\" -I../intl -I../intl -I../include -I.. -I. -I../include -I.. -I. -c getopt.c
In file included from ../config.h:257,
                 from getopt.c:36:
/opt/hardhat/devkit/ppc/8xx/lib/gcc-lib/powerpc-hardhat-linux/2.95.2/include/stddef.h:118: warning: empty declaration
ppc_8xx-gcc -D_REENTRANT -D_GNU_SOURCE -O2 -DHAVE_CONFIG_H -DLOCALEDIR=\"/usr/share/locale\" -I../intl -I../intl -I../include -I.. -I. -I../include -I.. -I. -c getopt1.c
In file included from ../config.h:257,
                 from getopt1.c:25:
/opt/hardhat/devkit/ppc/8xx/lib/gcc-lib/powerpc-hardhat-linux/2.95.2/include/stddef.h:118: warning: empty declaration
ppc_8xx-gcc -D_REENTRANT -D_GNU_SOURCE -O2 -DHAVE_CONFIG_H -DLOCALEDIR=\"/usr/share/locale\" -I../intl -I../intl -I../include -I.. -I. -I../include -I.. -I. -c long-options.c
In file included from ../config.h:257,
                 from long-options.c:21:
/opt/hardhat/devkit/ppc/8xx/lib/gcc-lib/powerpc-hardhat-linux/2.95.2/include/stddef.h:118: warning: empty declaration
ppc_8xx-gcc -D_REENTRANT -D_GNU_SOURCE -O2 -DHAVE_CONFIG_H -DLOCALEDIR=\"/usr/share/locale\" -I../intl -I../intl -I../include -I.. -I. -I../include -I.. -I. -c closeout.c
In file included from ../config.h:257,
                 from closeout.c:19:
/opt/hardhat/devkit/ppc/8xx/lib/gcc-lib/powerpc-hardhat-linux/2.95.2/include/stddef.h:118: warning: empty declaration
ar r libopt.a getopt.o getopt1.o long-options.o closeout.o
make[1]: Leaving directory `/var/trees/rf/src/hr/cmd/dpkg/optlib'
make[1]: Entering directory `/var/trees/rf/src/hr/cmd/dpkg/intl'
make[1]: Nothing to be done for `all'.
make[1]: Leaving directory `/var/trees/rf/src/hr/cmd/dpkg/intl'
make[1]: Entering directory `/var/trees/rf/src/hr/cmd/dpkg/dpkg-deb'
ppc_8xx-gcc -D_REENTRANT -D_GNU_SOURCE -O2 -DHAVE_CONFIG_H -DLOCALEDIR=\"/usr/share/locale\" -I../intl -I../intl -I../include -I.. -I. -I../include -I.. -I. -c build.c
