Drill Listing
=============
Drill: 10  Tool: 1  Feed: 95  Speed: 300
X 1919  Y 3125
X 3446  Y 3889
X 4819  Y 3936
X 4983  Y 4224
X 2265  Y 4812
X 2264  Y 4631
X 2262  Y 4786
X 2219  Y 4766
X 2192  Y 4646
X 2191  Y 4710
X 2190  Y 4616
X 2164  Y 4705
X 2162  Y 4801
X 2160  Y 4614
X 2160  Y 4772
X 2160  Y 4740
X 2160  Y 4551
X 2132  Y 4580
X 2128  Y 4615
X 2127  Y 4739
X 2125  Y 4678
X 2112  Y 4776
X 2103  Y 4806
X 2098  Y 4648
X 2095  Y 4714
X 2095  Y 4554
X 2094  Y 4832
X 2082  Y 4740
X 2073  Y 4683
X 2066  Y 4584
X 2061  Y 4610
X 2055  Y 4502
X 2047  Y 4653
X 2034  Y 4583
X 2019  Y 4676
X 2017  Y 4735
X 2013  Y 4798
X 2002  Y 4648
X 1995  Y 4704
X 1991  Y 4676
X 1988  Y 4796
X 1975  Y 4651
X 1975  Y 4738
X 1972  Y 4614
X 1971  Y 4711
X 1971  Y 4583
X 1941  Y 4616
X 1939  Y 4646
X 1939  Y 4804
X 1939  Y 4741
X 1909  Y 4802
X 1908  Y 4583
X 1908  Y 4646
X 1908  Y 4740
X 1906  Y 4707
X 1672  Y 4924
X 1940  Y 4834
X 1970  Y 4897
X 1972  Y 4834
X 2001  Y 4836
X 2033  Y 4897
X 2061  Y 4862
X 2070  Y 4839
X 2128  Y 4866
X 2159  Y 4865
X 2191  Y 4866
X 2191  Y 4835
X 2222  Y 4834
X 2262  Y 4836
X 4147  Y 5050
X 4187  Y 5074
X 4206  Y 4977
X 4296  Y 5022
X 4348  Y 4875
X 4348  Y 4926
X 4898  Y 5276
X 4955  Y 5331
X 5339  Y 5321
X 5340  Y 5273
X 5271  Y 5850
X 4924  Y 5380
X 4673  Y 5431
X 1950  Y 6114

Drill: 12  Tool: 2  Feed: 95  Speed: 300
X 322  Y 189
X 1541  Y 263
X 1830  Y 287
X 2129  Y 247
X 2173  Y 247
X 2178  Y 330
X 2220  Y 247
X 2223  Y 330
X 2791  Y 331
X 2977  Y 205
X 3035  Y 205
X 3412  Y 316
X 3412  Y 176
X 3486  Y 264
X 3573  Y 314
X 3707  Y 293
X 3757  Y 293
X 3837  Y 152
X 3901  Y 216
X 4035  Y 151
X 4302  Y 299
X 4384  Y 225
X 4422  Y 301
X 4455  Y 263
X 4624  Y 187
X 4851  Y 192
X 4960  Y 190
X 5586  Y 306
X 5742  Y 249
X 5775  Y 216
X 5952  Y 276
X 6225  Y 153
X 6486  Y 294
X 6534  Y 324
X 6663  Y 153
X 6720  Y 288
X 6749  Y 227
X 6827  Y 324
X 7169  Y 261
X 7367  Y 261
X 7423  Y 442
X 7362  Y 437
X 7288  Y 360
X 6666  Y 372
X 6465  Y 482
X 6464  Y 577
X 6396  Y 528
X 6362  Y 366
X 6292  Y 390
X 6290  Y 433
X 6215  Y 366
X 6134  Y 369
X 6072  Y 342
X 5915  Y 498
X 5670  Y 390
X 5670  Y 441
X 5670  Y 489
X 5670  Y 555
X 5604  Y 543
X 5601  Y 486
X 5601  Y 441
X 5601  Y 390
X 5514  Y 354
X 5511  Y 486
X 5421  Y 486
X 5394  Y 351
X 5340  Y 486
X 5337  Y 351
X 5235  Y 384
X 5235  Y 447
X 5235  Y 522
X 5160  Y 384
X 5160  Y 522
X 5160  Y 444
X 4897  Y 352
X 4865  Y 407
X 4692  Y 408
X 4692  Y 570
X 4644  Y 426
X 4641  Y 530
X 4595  Y 474
X 4593  Y 381
X 4494  Y 431
X 4421  Y 399
X 4268  Y 554
X 3918  Y 408
X 3552  Y 415
X 3475  Y 516
X 3468  Y 402
X 3417  Y 474
X 3218  Y 401
X 3161  Y 537
X 3090  Y 358
X 3090  Y 576
X 3010  Y 475
X 2855  Y 415
X 2716  Y 415
X 2660  Y 441
X 2586  Y 357
X 2586  Y 499
X 2065  Y 513
X 2055  Y 443
X 1619  Y 370
X 1541  Y 464
X 442  Y 534
X 505  Y 588
X 1260  Y 654
X 1512  Y 801
X 1575  Y 801
X 2096  Y 798
X 2173  Y 799
X 2222  Y 795
X 2346  Y 822
X 2382  Y 792
X 2431  Y 808
X 2500  Y 804
X 2556  Y 648
X 2601  Y 603
X 2613  Y 801
X 2850  Y 801
X 2853  Y 726
X 2895  Y 625
X 2922  Y 726
X 3303  Y 705
X 3324  Y 678
X 3384  Y 621
X 3449  Y 589
X 3551  Y 614
X 3645  Y 765
X 3702  Y 768
X 3750  Y 768
X 3840  Y 790
X 4413  Y 666
X 4434  Y 780
X 4506  Y 777
X 4506  Y 666
X 4623  Y 666
X 4680  Y 747
X 4740  Y 666
X 5160  Y 762
X 5160  Y 678
X 5160  Y 606
X 5226  Y 762
X 5226  Y 618
X 5226  Y 687
X 5292  Y 618
X 5604  Y 762
X 5604  Y 675
X 5604  Y 612
X 5670  Y 762
X 5670  Y 699
X 5670  Y 630
X 6215  Y 768
X 6521  Y 727
X 7479  Y 643
X 7532  Y 662
X 7673  Y 812
X 7687  Y 895
X 7687  Y 926
X 7668  Y 957
X 7664  Y 1025
X 7631  Y 957
X 7615  Y 885
X 6661  Y 880
X 6638  Y 993
X 6558  Y 1002
X 6503  Y 996
X 6498  Y 949
X 6451  Y 990
X 5532  Y 975
X 5355  Y 948
X 5148  Y 865
X 5061  Y 975
X 4725  Y 885
X 4659  Y 999
X 4506  Y 1011
X 4506  Y 885
X 4434  Y 972
X 4434  Y 876
X 3974  Y 982
X 3894  Y 1048
X 3840  Y 850
X 3822  Y 981
X 3336  Y 846
X 3275  Y 958
X 3225  Y 966
X 3105  Y 943
X 3027  Y 978
X 2892  Y 1047
X 2806  Y 1006
X 2800  Y 958
X 2779  Y 1024
X 2779  Y 1063
X 2778  Y 981
X 2700  Y 846
X 2662  Y 977
X 2653  Y 1081
X 2642  Y 834
X 2625  Y 951
X 2601  Y 977
X 2580  Y 840
X 2562  Y 951
X 2505  Y 1073
X 2502  Y 996
X 2462  Y 850
X 2445  Y 951
X 2430  Y 1080
X 2397  Y 1023
X 2289  Y 996
X 2249  Y 958
X 2220  Y 1050
X 2121  Y 942
X 2064  Y 918
X 2008  Y 1024
X 1986  Y 894
X 1965  Y 1023
X 1897  Y 901
X 1841  Y 1071
X 1776  Y 951
X 1425  Y 996
X 1372  Y 861
X 1326  Y 1017
X 1080  Y 948
X 582  Y 918
X 810  Y 1150
X 885  Y 1095
X 1225  Y 1150
X 1469  Y 1224
X 1549  Y 1276
X 1737  Y 1311
X 1818  Y 1200
X 1911  Y 1285
X 1987  Y 1156
X 2058  Y 1289
X 2059  Y 1118
X 2180  Y 1160
X 2202  Y 1113
X 2211  Y 1204
X 2211  Y 1289
X 2218  Y 1164
X 2232  Y 1098
X 2289  Y 1270
X 2289  Y 1195
X 2289  Y 1118
X 2358  Y 1118
X 2358  Y 1206
X 2358  Y 1270
X 2430  Y 1139
X 2430  Y 1209
X 2430  Y 1290
X 2505  Y 1132
X 2505  Y 1274
X 2505  Y 1199
X 2566  Y 1132
X 2566  Y 1200
X 2566  Y 1261
X 2644  Y 1219
X 2649  Y 1179
X 2659  Y 1252
X 2664  Y 1284
X 2671  Y 1318
X 2674  Y 1108
X 2781  Y 1251
X 2781  Y 1152
X 2895  Y 1254
X 3016  Y 1197
X 3018  Y 1299
X 3048  Y 1233
X 3126  Y 1194
X 3249  Y 1152
X 3326  Y 1154
X 3375  Y 1086
X 3423  Y 1254
X 3492  Y 1182
X 3510  Y 1281
X 3708  Y 1311
X 3726  Y 1224
X 3834  Y 1182
X 3894  Y 1314
X 4280  Y 1117
X 4434  Y 1113
X 4446  Y 1305
X 4506  Y 1113
X 4638  Y 1113
X 4770  Y 1113
X 4806  Y 1224
X 4833  Y 1224
X 4875  Y 1332
X 4926  Y 1332
X 4974  Y 1329
X 5033  Y 1172
X 5077  Y 1172
X 5667  Y 1278
X 5738  Y 1270
X 6252  Y 1158
X 6270  Y 1182
X 6288  Y 1131
X 6414  Y 1122
X 6414  Y 1278
X 6450  Y 1266
X 6468  Y 1236
X 6486  Y 1182
X 6675  Y 1172
X 6804  Y 1114
X 6978  Y 1102
X 7096  Y 1104
X 7298  Y 1138
X 7400  Y 1110
X 7449  Y 1107
X 7500  Y 1104
X 7626  Y 1185
X 7669  Y 1437
X 7578  Y 1560
X 7539  Y 1400
X 7476  Y 1560
X 7374  Y 1560
X 7278  Y 1560
X 7218  Y 1507
X 7176  Y 1560
X 7074  Y 1560
X 7050  Y 1464
X 6975  Y 1560
X 6765  Y 1429
X 6682  Y 1351
X 6682  Y 1498
X 6481  Y 1367
X 6297  Y 1359
X 6022  Y 1419
X 5815  Y 1486
X 5785  Y 1486
X 5524  Y 1446
X 5491  Y 1482
X 5475  Y 1446
X 5424  Y 1341
X 5155  Y 1345
X 4745  Y 1375
X 4608  Y 1428
X 4539  Y 1539
X 4484  Y 1463
X 4446  Y 1348
X 4212  Y 1554
X 4162  Y 1455
X 3923  Y 1571
X 3870  Y 1392
X 3852  Y 1572
X 3795  Y 1533
X 3765  Y 1581
X 3750  Y 1440
X 3564  Y 1422
X 3519  Y 1545
X 3480  Y 1545
X 3434  Y 1517
X 3423  Y 1359
X 3402  Y 1524
X 3201  Y 1365
X 3201  Y 1468
X 3159  Y 1374
X 3099  Y 1365
X 2966  Y 1358
X 2952  Y 1452
X 2940  Y 1516
X 2931  Y 1575
X 2781  Y 1434
X 2677  Y 1378
X 2671  Y 1429
X 2650  Y 1399
X 2616  Y 1566
X 2589  Y 1428
X 2566  Y 1339
X 2536  Y 1572
X 2523  Y 1431
X 2505  Y 1351
X 2482  Y 1425
X 2445  Y 1446
X 2430  Y 1351
X 2424  Y 1560
X 2358  Y 1351
X 2334  Y 1452
X 2306  Y 1581
X 2304  Y 1422
X 2289  Y 1346
X 2280  Y 1446
X 2213  Y 1417
X 2161  Y 1485
X 2065  Y 1356
X 2052  Y 1551
X 2047  Y 1417
X 1828  Y 1539
X 1790  Y 1380
X 1572  Y 1558
X 372  Y 1473
X 384  Y 1593
X 582  Y 1797
X 978  Y 1737
X 1344  Y 1656
X 1729  Y 1784
X 1992  Y 1752
X 2080  Y 1664
X 2094  Y 1587
X 2205  Y 1674
X 2303  Y 1694
X 2376  Y 1589
X 2380  Y 1742
X 2403  Y 1658
X 2447  Y 1596
X 2544  Y 1740
X 2570  Y 1760
X 2637  Y 1608
X 2641  Y 1702
X 2659  Y 1585
X 2862  Y 1767
X 2880  Y 1705
X 3035  Y 1602
X 3072  Y 1788
X 3148  Y 1700
X 3186  Y 1698
X 3294  Y 1718
X 3324  Y 1755
X 3381  Y 1717
X 3513  Y 1725
X 3639  Y 1773
X 3675  Y 1770
X 3696  Y 1710
X 3732  Y 1767
X 3750  Y 1710
X 3765  Y 1765
X 3801  Y 1818
X 3951  Y 1710
X 3971  Y 1817
X 4155  Y 1698
X 4164  Y 1799
X 4185  Y 1727
X 4246  Y 1799
X 4353  Y 1701
X 4378  Y 1760
X 4383  Y 1700
X 4413  Y 1680
X 4539  Y 1737
X 4557  Y 1830
X 4684  Y 1638
X 4686  Y 1788
X 4824  Y 1722
X 4851  Y 1824
X 4922  Y 1771
X 4974  Y 1821
X 4977  Y 1622
X 5025  Y 1620
X 5124  Y 1770
X 5226  Y 1626
X 5334  Y 1824
X 5352  Y 1626
X 5364  Y 1824
X 5478  Y 1663
X 5526  Y 1770
X 5571  Y 1671
X 5595  Y 1809
X 5652  Y 1821
X 5700  Y 1587
X 5721  Y 1741
X 5751  Y 1716
X 6007  Y 1585
X 6312  Y 1663
X 6392  Y 1746
X 6600  Y 1663
X 6676  Y 1733
X 6761  Y 1663
X 6924  Y 1704
X 6963  Y 1635
X 6978  Y 1740
X 7026  Y 1704
X 7068  Y 1641
X 7125  Y 1707
X 7167  Y 1641
X 7224  Y 1710
X 7263  Y 1641
X 7326  Y 1710
X 7371  Y 1641
X 7425  Y 1710
X 7473  Y 1641
X 7524  Y 1710
X 7566  Y 1641
X 7626  Y 1710
X 7644  Y 1785
X 7668  Y 1638
X 7695  Y 2010
X 7599  Y 1923
X 7552  Y 2062
X 7449  Y 1860
X 7401  Y 1854
X 7350  Y 1854
X 7300  Y 1854
X 7249  Y 1854
X 7200  Y 1854
X 7149  Y 1854
X 7099  Y 1866
X 7050  Y 1878
X 7050  Y 2082
X 6606  Y 2070
X 6603  Y 1905
X 6478  Y 1882
X 6039  Y 1869
X 5916  Y 1870
X 5854  Y 2007
X 5557  Y 1837
X 5556  Y 2079
X 5535  Y 1911
X 5511  Y 1890
X 5490  Y 1866
X 5469  Y 1842
X 5448  Y 1866
X 5427  Y 1842
X 5424  Y 2028
X 5319  Y 2079
X 5214  Y 1887
X 4965  Y 1971
X 4804  Y 1949
X 4770  Y 1962
X 4768  Y 1893
X 4608  Y 1872
X 4545  Y 1932
X 4395  Y 1846
X 4377  Y 1938
X 4248  Y 1872
X 4121  Y 2046
X 4056  Y 1923
X 4053  Y 1878
X 4002  Y 1938
X 3991  Y 2033
X 3973  Y 2080
X 3966  Y 2004
X 3954  Y 1896
X 3949  Y 2059
X 3806  Y 2019
X 3762  Y 2023
X 3760  Y 1975
X 3737  Y 2053
X 3203  Y 1848
X 3096  Y 1956
X 3072  Y 1848
X 2899  Y 1954
X 2673  Y 1956
X 2649  Y 1983
X 2604  Y 2031
X 2598  Y 1842
X 2535  Y 2040
X 1915  Y 1940
X 1880  Y 2037
X 1774  Y 1906
X 1548  Y 1850
X 1449  Y 2079
X 1374  Y 2070
X 1275  Y 2070
X 1176  Y 2082
X 769  Y 1990
X 722  Y 2042
X 659  Y 1991
X 546  Y 2319
X 936  Y 2250
X 1056  Y 2253
X 1374  Y 2241
X 1510  Y 2258
X 1588  Y 2171
X 1776  Y 2149
X 1942  Y 2100
X 2676  Y 2283
X 2679  Y 2241
X 2691  Y 2154
X 2697  Y 2196
X 2719  Y 2218
X 2729  Y 2131
X 2746  Y 2086
X 2955  Y 2161
X 3055  Y 2088
X 3092  Y 2237
X 3114  Y 2088
X 3144  Y 2247
X 3251  Y 2246
X 3318  Y 2250
X 3372  Y 2250
X 3540  Y 2250
X 3657  Y 2244
X 3710  Y 2210
X 3711  Y 2247
X 3799  Y 2242
X 3834  Y 2148
X 3949  Y 2101
X 3949  Y 2224
X 3949  Y 2143
X 3949  Y 2182
X 3973  Y 2203
X 3973  Y 2122
X 4002  Y 2298
X 4104  Y 2199
X 4104  Y 2151
X 4105  Y 2248
X 4152  Y 2163
X 4300  Y 2299
X 4303  Y 2226
X 4305  Y 2091
X 4416  Y 2147
X 4438  Y 2089
X 4483  Y 2104
X 4512  Y 2311
X 4626  Y 2106
X 4914  Y 2298
X 4956  Y 2319
X 4965  Y 2226
X 4968  Y 2178
X 4968  Y 2127
X 5103  Y 2328
X 5112  Y 2277
X 5124  Y 2229
X 5307  Y 2145
X 5343  Y 2178
X 5556  Y 2115
X 5951  Y 2137
X 5978  Y 2122
X 6499  Y 2223
X 6511  Y 2163
X 6551  Y 2301
X 6609  Y 2174
X 6676  Y 2221
X 6766  Y 2128
X 6925  Y 2262
X 7080  Y 2310
X 7134  Y 2262
X 7182  Y 2310
X 7278  Y 2310
X 7362  Y 2238
X 7544  Y 2149
X 7572  Y 2311
X 7626  Y 2256
X 7668  Y 2391
X 7626  Y 2454
X 7566  Y 2391
X 7522  Y 2455
X 7476  Y 2391
X 7425  Y 2454
X 7377  Y 2542
X 7365  Y 2388
X 7324  Y 2454
X 7266  Y 2391
X 7224  Y 2454
X 7170  Y 2544
X 7167  Y 2391
X 7125  Y 2454
X 7074  Y 2391
X 7025  Y 2452
X 6969  Y 2391
X 6925  Y 2454
X 6735  Y 2454
X 6719  Y 2522
X 6681  Y 2352
X 6631  Y 2518
X 6552  Y 2520
X 6459  Y 2400
X 6366  Y 2514
X 6300  Y 2404
X 6238  Y 2506
X 6216  Y 2400
X 6205  Y 2541
X 6174  Y 2525
X 6000  Y 2400
X 5892  Y 2386
X 5890  Y 2504
X 5820  Y 2334
X 5661  Y 2403
X 5595  Y 2430
X 5583  Y 2460
X 5565  Y 2487
X 5565  Y 2523
X 5373  Y 2574
X 5307  Y 2580
X 5136  Y 2427
X 5136  Y 2376
X 5091  Y 2571
X 4977  Y 2376
X 4956  Y 2352
X 4929  Y 2427
X 4812  Y 2508
X 4625  Y 2360
X 4536  Y 2352
X 4420  Y 2349
X 4321  Y 2424
X 4302  Y 2451
X 4300  Y 2398
X 4161  Y 2493
X 4131  Y 2577
X 4116  Y 2418
X 4104  Y 2350
X 4084  Y 2581
X 3999  Y 2547
X 3990  Y 2430
X 3981  Y 2397
X 3948  Y 2534
X 3929  Y 2465
X 3878  Y 2465
X 3854  Y 2494
X 3820  Y 2362
X 3778  Y 2484
X 3774  Y 2362
X 3754  Y 2386
X 3744  Y 2352
X 3700  Y 2483
X 3690  Y 2379
X 3666  Y 2574
X 3660  Y 2377
X 3639  Y 2352
X 3631  Y 2509
X 3618  Y 2377
X 3597  Y 2350
X 3573  Y 2377
X 3552  Y 2353
X 3519  Y 2350
X 3498  Y 2373
X 3475  Y 2497
X 3474  Y 2352
X 3415  Y 2356
X 3403  Y 2580
X 3382  Y 2359
X 3373  Y 2495
X 3361  Y 2386
X 3340  Y 2352
X 3319  Y 2397
X 3246  Y 2352
X 3244  Y 2383
X 3210  Y 2382
X 3180  Y 2580
X 3171  Y 2370
X 3117  Y 2388
X 3078  Y 2482
X 3066  Y 2409
X 2600  Y 2346
X 2489  Y 2552
X 2472  Y 2358
X 2409  Y 2462
X 2376  Y 2530
X 2350  Y 2510
X 2348  Y 2476
X 2319  Y 2541
X 2295  Y 2559
X 2252  Y 2555
X 2240  Y 2496
X 2218  Y 2556
X 2218  Y 2466
X 2158  Y 2492
X 2132  Y 2570
X 2100  Y 2469
X 2053  Y 2472
X 2031  Y 2571
X 1828  Y 2449
X 1794  Y 2549
X 1765  Y 2404
X 1600  Y 2544
X 1597  Y 2443
X 1383  Y 2364
X 1101  Y 2400
X 943  Y 2533
X 821  Y 2530
X 686  Y 2409
X 598  Y 2417
X 1473  Y 2599
X 1597  Y 2743
X 1602  Y 2643
X 1742  Y 2790
X 1788  Y 2604
X 1827  Y 2661
X 1879  Y 2815
X 2015  Y 2702
X 2017  Y 2617
X 2045  Y 2814
X 2199  Y 2727
X 2305  Y 2727
X 2339  Y 2829
X 2362  Y 2657
X 2382  Y 2798
X 2409  Y 2679
X 2409  Y 2634
X 2410  Y 2588
X 2429  Y 2720
X 2430  Y 2784
X 2437  Y 2815
X 2799  Y 2758
X 2811  Y 2788
X 2823  Y 2817
X 2931  Y 2811
X 3021  Y 2601
X 3084  Y 2781
X 3126  Y 2814
X 3228  Y 2592
X 3324  Y 2592
X 3334  Y 2641
X 3375  Y 2679
X 3460  Y 2656
X 3474  Y 2715
X 3495  Y 2763
X 3528  Y 2592
X 3546  Y 2648
X 3666  Y 2676
X 3666  Y 2634
X 3669  Y 2766
X 3778  Y 2612
X 3874  Y 2702
X 3896  Y 2825
X 4095  Y 2800
X 4186  Y 2810
X 4199  Y 2750
X 4225  Y 2823
X 4290  Y 2586
X 4296  Y 2724
X 4538  Y 2694
X 4810  Y 2675
X 5070  Y 2598
X 5136  Y 2604
X 5147  Y 2657
X 5156  Y 2754
X 5202  Y 2700
X 5265  Y 2777
X 5325  Y 2649
X 5346  Y 2778
X 5379  Y 2733
X 5400  Y 2757
X 5418  Y 2703
X 5424  Y 2778
X 5442  Y 2679
X 5448  Y 2736
X 5457  Y 2652
X 5526  Y 2640
X 5723  Y 2814
X 5730  Y 2691
X 5922  Y 2820
X 5988  Y 2748
X 6099  Y 2784
X 6300  Y 2814
X 6303  Y 2742
X 6426  Y 2809
X 6477  Y 2803
X 6524  Y 2818
X 6583  Y 2794
X 6630  Y 2760
X 6678  Y 2794
X 7119  Y 2754
X 7140  Y 2655
X 7667  Y 2761
X 7746  Y 2602
X 7800  Y 2958
X 7746  Y 2880
X 7176  Y 2850
X 7170  Y 3049
X 7107  Y 2953
X 6744  Y 2958
X 6702  Y 2838
X 6648  Y 2838
X 6585  Y 2970
X 6456  Y 2958
X 6394  Y 2842
X 6363  Y 2947
X 6360  Y 2991
X 6354  Y 3069
X 6299  Y 2845
X 6267  Y 3033
X 6267  Y 2949
X 6231  Y 3003
X 6204  Y 2947
X 6166  Y 2991
X 6141  Y 2947
X 6111  Y 2970
X 6079  Y 2947
X 6057  Y 2980
X 6018  Y 2947
X 6012  Y 3042
X 5985  Y 3000
X 5958  Y 2979
X 5934  Y 2949
X 5898  Y 3042
X 5727  Y 2928
X 5724  Y 3024
X 5724  Y 2874
X 5718  Y 2971
X 5556  Y 3079
X 5532  Y 2983
X 5526  Y 3081
X 5502  Y 3045
X 5478  Y 3009
X 5466  Y 2967
X 5328  Y 2853
X 5310  Y 2928
X 5298  Y 2835
X 5295  Y 2991
X 5295  Y 3054
X 5283  Y 3024
X 5235  Y 2932
X 5208  Y 2994
X 5206  Y 2949
X 5202  Y 3024
X 5194  Y 2846
X 5194  Y 2884
X 5044  Y 3056
X 5000  Y 2880
X 4929  Y 2992
X 4794  Y 2925
X 4791  Y 2967
X 4791  Y 3006
X 4737  Y 2958
X 4725  Y 2928
X 4695  Y 2937
X 4664  Y 2954
X 4656  Y 3054
X 4619  Y 2948
X 4548  Y 3055
X 4539  Y 2946
X 4452  Y 3078
X 4386  Y 2953
X 4302  Y 2932
X 3990  Y 3036
X 3960  Y 2846
X 3958  Y 2918
X 3957  Y 3072
X 3909  Y 2874
X 3858  Y 2940
X 3821  Y 3030
X 3789  Y 3035
X 3780  Y 2839
X 3699  Y 2951
X 3664  Y 2848
X 3647  Y 3031
X 3523  Y 2976
X 3450  Y 2889
X 3432  Y 2985
X 3423  Y 2847
X 3333  Y 3009
X 3286  Y 2867
X 3282  Y 2916
X 3279  Y 2958
X 3075  Y 2976
X 3027  Y 2871
X 3006  Y 2893
X 2985  Y 2871
X 2966  Y 2981
X 2964  Y 2893
X 2943  Y 2871
X 2933  Y 2981
X 2931  Y 2841
X 2910  Y 2883
X 2900  Y 2975
X 2889  Y 2848
X 2883  Y 3042
X 2880  Y 2880
X 2847  Y 2877
X 2835  Y 2848
X 2814  Y 3036
X 2741  Y 2970
X 2730  Y 3022
X 2441  Y 2875
X 2418  Y 2946
X 2368  Y 2893
X 2334  Y 2976
X 2236  Y 2971
X 2139  Y 3078
X 2118  Y 2976
X 1860  Y 2978
X 1857  Y 3033
X 1794  Y 2844
X 1619  Y 2844
X 1607  Y 3044
X 1605  Y 3003
X 1598  Y 2902
X 1524  Y 3020
X 800  Y 2986
X 282  Y 3258
X 804  Y 3174
X 842  Y 3280
X 901  Y 3121
X 1170  Y 3235
X 1374  Y 3315
X 1619  Y 3314
X 1857  Y 3214
X 2082  Y 3262
X 2226  Y 3117
X 2271  Y 3084
X 2300  Y 3224
X 2302  Y 3265
X 2443  Y 3223
X 2486  Y 3161
X 2490  Y 3228
X 2494  Y 3265
X 2610  Y 3133
X 2644  Y 3223
X 2743  Y 3223
X 2805  Y 3156
X 2805  Y 3190
X 2815  Y 3226
X 2923  Y 3226
X 3055  Y 3204
X 3060  Y 3286
X 3065  Y 3235
X 3081  Y 3183
X 3118  Y 3118
X 3252  Y 3120
X 3348  Y 3120
X 3450  Y 3120
X 3491  Y 3236
X 3548  Y 3232
X 3552  Y 3120
X 3648  Y 3120
X 3783  Y 3087
X 3870  Y 3141
X 3930  Y 3252
X 3987  Y 3087
X 4068  Y 3198
X 4074  Y 3291
X 4104  Y 3096
X 4112  Y 3217
X 4116  Y 3171
X 4278  Y 3282
X 4293  Y 3240
X 4299  Y 3108
X 4350  Y 3087
X 4500  Y 3225
X 4524  Y 3262
X 4629  Y 3246
X 4680  Y 3246
X 4728  Y 3312
X 4765  Y 3168
X 4779  Y 3105
X 4917  Y 3108
X 4923  Y 3150
X 4938  Y 3255
X 4953  Y 3162
X 4983  Y 3237
X 4991  Y 3208
X 5010  Y 3255
X 5020  Y 3288
X 5044  Y 3144
X 5044  Y 3114
X 5085  Y 3252
X 5085  Y 3291
X 5130  Y 3258
X 5139  Y 3093
X 5181  Y 3093
X 5196  Y 3186
X 5205  Y 3156
X 5211  Y 3126
X 5213  Y 3320
X 5517  Y 3124
X 5712  Y 3243
X 5712  Y 3168
X 5721  Y 3108
X 5724  Y 3198
X 5730  Y 3141
X 5882  Y 3295
X 6006  Y 3228
X 6145  Y 3179
X 6216  Y 3258
X 6222  Y 3207
X 6222  Y 3294
X 6264  Y 3127
X 6286  Y 3289
X 6366  Y 3226
X 6411  Y 3121
X 6468  Y 3121
X 6492  Y 3228
X 6495  Y 3284
X 6549  Y 3194
X 6564  Y 3121
X 6639  Y 3204
X 6648  Y 3300
X 6739  Y 3120
X 6802  Y 3121
X 6957  Y 3249
X 7086  Y 3324
X 7174  Y 3151
X 7617  Y 3146
X 7746  Y 3150
X 7793  Y 3330
X 7173  Y 3454
X 7173  Y 3360
X 7173  Y 3549
X 6738  Y 3354
X 6652  Y 3422
X 6625  Y 3481
X 6552  Y 3420
X 6501  Y 3426
X 6390  Y 3420
X 6342  Y 3444
X 6217  Y 3428
X 6144  Y 3456
X 5799  Y 3504
X 5766  Y 3435
X 5709  Y 3528
X 5481  Y 3391
X 5208  Y 3447
X 5147  Y 3342
X 5105  Y 3448
X 5046  Y 3342
X 4732  Y 3448
X 4722  Y 3522
X 4637  Y 3359
X 4584  Y 3450
X 4525  Y 3357
X 4512  Y 3477
X 4497  Y 3435
X 4473  Y 3369
X 4338  Y 3500
X 4335  Y 3552
X 4308  Y 3528
X 4290  Y 3357
X 4275  Y 3435
X 4177  Y 3468
X 4104  Y 3366
X 4083  Y 3510
X 4074  Y 3444
X 4062  Y 3339
X 3924  Y 3402
X 3924  Y 3336
X 3916  Y 3564
X 3906  Y 3465
X 3750  Y 3354
X 3651  Y 3354
X 3588  Y 3567
X 3549  Y 3354
X 3548  Y 3465
X 3465  Y 3474
X 3450  Y 3354
X 3405  Y 3579
X 3351  Y 3354
X 3351  Y 3444
X 3297  Y 3510
X 3252  Y 3354
X 3252  Y 3573
X 3075  Y 3345
X 3051  Y 3417
X 3030  Y 3378
X 2826  Y 3552
X 2220  Y 3401
X 2088  Y 3362
X 2010  Y 3504
X 2007  Y 3456
X 1893  Y 3398
X 1318  Y 3520
X 465  Y 3420
X 375  Y 3513
X 45  Y 3507
X 189  Y 3789
X 2525  Y 3600
X 3312  Y 3650
X 3336  Y 3674
X 3361  Y 3703
X 3378  Y 3639
X 3396  Y 3666
X 3426  Y 3669
X 3432  Y 3765
X 3450  Y 3588
X 3476  Y 3734
X 3550  Y 3767
X 3654  Y 3752
X 3705  Y 3672
X 3798  Y 3660
X 3883  Y 3595
X 3997  Y 3787
X 4043  Y 3799
X 4049  Y 3716
X 4076  Y 3695
X 4090  Y 3606
X 4176  Y 3684
X 4206  Y 3705
X 4233  Y 3663
X 4265  Y 3658
X 4335  Y 3639
X 4338  Y 3705
X 4341  Y 3672
X 4350  Y 3763
X 4404  Y 3762
X 4461  Y 3714
X 4476  Y 3656
X 4488  Y 3753
X 4518  Y 3606
X 4520  Y 3688
X 4713  Y 3690
X 4721  Y 3806
X 4725  Y 3616
X 4896  Y 3693
X 4918  Y 3787
X 4950  Y 3696
X 4956  Y 3810
X 5043  Y 3693
X 5147  Y 3695
X 5166  Y 3774
X 5172  Y 3804
X 5250  Y 3695
X 5256  Y 3761
X 5277  Y 3789
X 5279  Y 3739
X 5352  Y 3672
X 5354  Y 3805
X 5410  Y 3789
X 5438  Y 3776
X 5465  Y 3796
X 5481  Y 3630
X 5484  Y 3597
X 5591  Y 3583
X 5601  Y 3780
X 5634  Y 3777
X 5744  Y 3774
X 5763  Y 3585
X 5892  Y 3744
X 5916  Y 3717
X 5937  Y 3687
X 5958  Y 3715
X 6079  Y 3741
X 6111  Y 3717
X 6142  Y 3741
X 6144  Y 3651
X 6216  Y 3687
X 6219  Y 3655
X 6298  Y 3658
X 6300  Y 3744
X 6396  Y 3657
X 6454  Y 3749
X 6520  Y 3702
X 6595  Y 3727
X 6618  Y 3682
X 6745  Y 3710
X 7173  Y 3651
X 7228  Y 3811
X 7722  Y 3654
X 7669  Y 3960
X 7668  Y 3877
X 7668  Y 4002
X 7617  Y 3984
X 7179  Y 4074
X 7179  Y 3975
X 6948  Y 4029
X 6771  Y 3924
X 6738  Y 3900
X 6738  Y 3840
X 6655  Y 3975
X 6633  Y 3847
X 6600  Y 3930
X 6564  Y 3873
X 6544  Y 3987
X 6455  Y 3857
X 6444  Y 3993
X 6375  Y 3891
X 6375  Y 3849
X 6351  Y 3960
X 6258  Y 3879
X 6240  Y 3846
X 6187  Y 3880
X 6174  Y 3852
X 6153  Y 3972
X 6082  Y 3862
X 6051  Y 4035
X 6039  Y 3879
X 6039  Y 3950
X 5892  Y 3936
X 5745  Y 3957
X 5655  Y 4047
X 5550  Y 3984
X 5527  Y 3963
X 5497  Y 3942
X 5482  Y 3869
X 5467  Y 3920
X 5463  Y 4020
X 5430  Y 4032
X 5367  Y 3902
X 5362  Y 3872
X 5359  Y 3840
X 5295  Y 4026
X 5277  Y 3861
X 5266  Y 4060
X 5229  Y 3939
X 5161  Y 4039
X 5153  Y 3869
X 5136  Y 4060
X 5101  Y 4020
X 5084  Y 4047
X 5062  Y 4069
X 5053  Y 3955
X 5005  Y 3874
X 4996  Y 3940
X 4984  Y 4020
X 4971  Y 3991
X 4971  Y 3960
X 4906  Y 3853
X 4881  Y 3900
X 4881  Y 3930
X 4827  Y 3891
X 4813  Y 3979
X 4773  Y 3849
X 4743  Y 3849
X 4726  Y 3919
X 4722  Y 3890
X 4622  Y 3904
X 4618  Y 3945
X 4520  Y 3948
X 4419  Y 3945
X 4375  Y 3946
X 4147  Y 3922
X 4020  Y 4026
X 3990  Y 3859
X 3972  Y 4074
X 3282  Y 3873
X 3060  Y 3855
X 1765  Y 4081
X 1687  Y 4078
X 1651  Y 3979
X 546  Y 4003
X 486  Y 3840
X 1101  Y 4149
X 1609  Y 4282
X 1671  Y 4114
X 1705  Y 4300
X 1729  Y 4258
X 1731  Y 4135
X 1735  Y 4222
X 1842  Y 4260
X 1848  Y 4290
X 1941  Y 4152
X 1967  Y 4298
X 2125  Y 4152
X 2220  Y 4152
X 2325  Y 4152
X 2473  Y 4147
X 4119  Y 4328
X 4124  Y 4246
X 4140  Y 4162
X 4143  Y 4191
X 4200  Y 4176
X 4248  Y 4176
X 4249  Y 4324
X 4251  Y 4227
X 4297  Y 4324
X 4323  Y 4087
X 4323  Y 4117
X 4340  Y 4320
X 4378  Y 4116
X 4388  Y 4087
X 4402  Y 4276
X 4407  Y 4325
X 4423  Y 4086
X 4428  Y 4116
X 4447  Y 4276
X 4449  Y 4320
X 4450  Y 4219
X 4497  Y 4220
X 4498  Y 4276
X 4525  Y 4117
X 4555  Y 4275
X 4572  Y 4086
X 4572  Y 4117
X 4600  Y 4219
X 4602  Y 4276
X 4624  Y 4117
X 4627  Y 4087
X 4648  Y 4276
X 4648  Y 4219
X 4650  Y 4320
X 4670  Y 4115
X 4699  Y 4276
X 4751  Y 4320
X 4798  Y 4318
X 4800  Y 4276
X 4827  Y 4087
X 4848  Y 4320
X 4849  Y 4275
X 4860  Y 4115
X 4905  Y 4320
X 4915  Y 4087
X 4923  Y 4117
X 4950  Y 4320
X 4996  Y 4270
X 5018  Y 4111
X 5049  Y 4275
X 5068  Y 4111
X 5089  Y 4273
X 5139  Y 4090
X 5176  Y 4117
X 5247  Y 4327
X 5247  Y 4126
X 5257  Y 4094
X 5277  Y 4118
X 5298  Y 4276
X 5349  Y 4225
X 5397  Y 4129
X 5400  Y 4175
X 5457  Y 4275
X 5457  Y 4227
X 5502  Y 4166
X 5760  Y 4140
X 5778  Y 4203
X 6047  Y 4090
X 6135  Y 4161
X 6141  Y 4200
X 6156  Y 4108
X 6174  Y 4303
X 6216  Y 4201
X 6261  Y 4121
X 6301  Y 4203
X 6325  Y 4305
X 6355  Y 4310
X 6445  Y 4184
X 6448  Y 4114
X 6450  Y 4302
X 6521  Y 4113
X 6528  Y 4308
X 6549  Y 4188
X 6609  Y 4113
X 6645  Y 4188
X 6658  Y 4116
X 6675  Y 4331
X 6778  Y 4239
X 7176  Y 4201
X 7177  Y 4319
X 7662  Y 4095
X 7662  Y 4278
X 7662  Y 4230
X 7677  Y 4539
X 7662  Y 4362
X 7178  Y 4503
X 7174  Y 4434
X 6753  Y 4425
X 6652  Y 4410
X 6608  Y 4566
X 6555  Y 4431
X 6456  Y 4425
X 6345  Y 4380
X 6345  Y 4419
X 6147  Y 4410
X 6146  Y 4378
X 5949  Y 4350
X 5751  Y 4371
X 5751  Y 4410
X 5673  Y 4545
X 5538  Y 4506
X 5531  Y 4446
X 5517  Y 4351
X 5457  Y 4351
X 5455  Y 4402
X 5400  Y 4524
X 5349  Y 4574
X 5247  Y 4476
X 5247  Y 4527
X 5207  Y 4384
X 5197  Y 4521
X 5125  Y 4380
X 5111  Y 4483
X 5109  Y 4580
X 5064  Y 4476
X 5050  Y 4385
X 5018  Y 4517
X 4999  Y 4438
X 4998  Y 4401
X 4891  Y 4434
X 4857  Y 4377
X 4806  Y 4524
X 4792  Y 4366
X 4782  Y 4501
X 4752  Y 4528
X 4744  Y 4477
X 4741  Y 4433
X 4596  Y 4440
X 4590  Y 4368
X 4500  Y 4371
X 4441  Y 4369
X 4405  Y 4534
X 4400  Y 4450
X 4395  Y 4371
X 4350  Y 4427
X 4348  Y 4379
X 4347  Y 4476
X 4347  Y 4572
X 4306  Y 4574
X 4300  Y 4432
X 4300  Y 4385
X 4299  Y 4476
X 4252  Y 4478
X 4248  Y 4575
X 4245  Y 4527
X 4143  Y 4400
X 4142  Y 4452
X 4137  Y 4506
X 4113  Y 4398
X 4101  Y 4452
X 4083  Y 4398
X 4077  Y 4367
X 2815  Y 4497
X 2658  Y 4464
X 2573  Y 4566
X 2556  Y 4536
X 2505  Y 4506
X 2473  Y 4507
X 2421  Y 4506
X 2394  Y 4492
X 2380  Y 4348
X 2371  Y 4470
X 2346  Y 4515
X 2325  Y 4347
X 2322  Y 4446
X 2301  Y 4504
X 2280  Y 4434
X 2259  Y 4507
X 2145  Y 4500
X 2125  Y 4348
X 2112  Y 4506
X 2064  Y 4350
X 2043  Y 4440
X 2017  Y 4459
X 1998  Y 4357
X 1993  Y 4440
X 1972  Y 4465
X 1884  Y 4356
X 1853  Y 4349
X 1848  Y 4488
X 1842  Y 4458
X 1692  Y 4543
X 1672  Y 4567
X 1667  Y 4521
X 1635  Y 4398
X 1611  Y 4419
X 1485  Y 4338
X 1477  Y 4550
X 1392  Y 4524
X 1299  Y 4497
X 1284  Y 4398
X 1267  Y 4564
X 876  Y 4536
X 54  Y 4728
X 845  Y 4767
X 935  Y 4636
X 1041  Y 4765
X 1060  Y 4789
X 1062  Y 4644
X 1209  Y 4712
X 1447  Y 4619
X 1467  Y 4826
X 1470  Y 4656
X 1479  Y 4718
X 1503  Y 4600
X 1582  Y 4631
X 1624  Y 4591
X 1638  Y 4734
X 1663  Y 4818
X 1675  Y 4654
X 1689  Y 4710
X 1701  Y 4740
X 1762  Y 4752
X 1789  Y 4808
X 1792  Y 4752
X 1816  Y 4825
X 1818  Y 4659
X 1830  Y 4725
X 2355  Y 4608
X 2377  Y 4587
X 2379  Y 4674
X 2379  Y 4788
X 2572  Y 4675
X 2574  Y 4770
X 2595  Y 4651
X 2616  Y 4680
X 2628  Y 4710
X 2680  Y 4629
X 2691  Y 4749
X 2705  Y 4675
X 2725  Y 4818
X 2737  Y 4720
X 2750  Y 4790
X 2782  Y 4789
X 2796  Y 4819
X 3428  Y 4604
X 3921  Y 4590
X 4077  Y 4812
X 4080  Y 4698
X 4080  Y 4752
X 4080  Y 4650
X 4110  Y 4698
X 4110  Y 4752
X 4140  Y 4699
X 4141  Y 4597
X 4143  Y 4752
X 4143  Y 4797
X 4299  Y 4629
X 4299  Y 4725
X 4344  Y 4674
X 4348  Y 4726
X 4350  Y 4827
X 4350  Y 4779
X 4398  Y 4729
X 4401  Y 4623
X 4404  Y 4779
X 4435  Y 4623
X 4595  Y 4825
X 4595  Y 4700
X 4695  Y 4730
X 4695  Y 4830
X 4695  Y 4680
X 4695  Y 4780
X 4745  Y 4680
X 4745  Y 4730
X 4745  Y 4780
X 4745  Y 4830
X 4763  Y 4604
X 4795  Y 4780
X 4795  Y 4730
X 4795  Y 4680
X 4795  Y 4830
X 4814  Y 4604
X 4845  Y 4680
X 4845  Y 4830
X 4845  Y 4730
X 4845  Y 4780
X 4893  Y 4603
X 4895  Y 4830
X 4895  Y 4680
X 4895  Y 4780
X 4895  Y 4730
X 4945  Y 4830
X 4945  Y 4730
X 4945  Y 4680
X 4945  Y 4780
X 5013  Y 4776
X 5022  Y 4674
X 5100  Y 4719
X 5118  Y 4620
X 5199  Y 4731
X 5205  Y 4779
X 5244  Y 4830
X 5249  Y 4776
X 5300  Y 4720
X 5301  Y 4777
X 5350  Y 4624
X 5398  Y 4624
X 5466  Y 4794
X 5466  Y 4686
X 5466  Y 4740
X 5496  Y 4794
X 5496  Y 4740
X 5496  Y 4686
X 5523  Y 4600
X 5526  Y 4740
X 5526  Y 4686
X 5526  Y 4794
X 5530  Y 4641
X 5750  Y 4805
X 5860  Y 4696
X 5892  Y 4755
X 5913  Y 4625
X 5946  Y 4594
X 5952  Y 4818
X 5958  Y 4624
X 5958  Y 4764
X 6088  Y 4582
X 6090  Y 4788
X 6094  Y 4618
X 6105  Y 4647
X 6138  Y 4647
X 6144  Y 4611
X 6176  Y 4609
X 6237  Y 4642
X 6300  Y 4611
X 6300  Y 4642
X 6342  Y 4821
X 6346  Y 4750
X 6399  Y 4746
X 6399  Y 4583
X 6399  Y 4641
X 6457  Y 4743
X 6491  Y 4585
X 6520  Y 4642
X 6552  Y 4746
X 6615  Y 4641
X 6628  Y 4752
X 6678  Y 4620
X 6738  Y 4693
X 7457  Y 4688
X 7784  Y 4982
X 7783  Y 4873
X 7718  Y 4895
X 7576  Y 4990
X 7179  Y 4993
X 7170  Y 4900
X 6792  Y 5022
X 6631  Y 5029
X 6517  Y 5023
X 6452  Y 4966
X 6446  Y 5023
X 6372  Y 5034
X 6196  Y 5019
X 6096  Y 4836
X 5853  Y 4992
X 5796  Y 4950
X 5787  Y 5015
X 5587  Y 4902
X 5571  Y 4848
X 5559  Y 5058
X 5556  Y 4914
X 5525  Y 4928
X 5520  Y 4848
X 5515  Y 5043
X 5490  Y 4848
X 5485  Y 5043
X 5462  Y 4902
X 5460  Y 4847
X 5455  Y 5043
X 5346  Y 4977
X 5301  Y 5025
X 5298  Y 4977
X 5298  Y 5076
X 5253  Y 4923
X 5250  Y 5073
X 5247  Y 5022
X 5202  Y 4870
X 5190  Y 5074
X 5165  Y 5030
X 5082  Y 5049
X 5042  Y 5040
X 5017  Y 4862
X 5000  Y 4925
X 4945  Y 4880
X 4923  Y 4992
X 4895  Y 4880
X 4875  Y 5010
X 4869  Y 4962
X 4845  Y 4880
X 4795  Y 4880
X 4750  Y 5000
X 4745  Y 4880
X 4695  Y 4880
X 4692  Y 4995
X 4595  Y 4925
X 4497  Y 4964
X 4492  Y 5059
X 4404  Y 5049
X 4404  Y 4872
X 4401  Y 4974
X 4350  Y 5021
X 4350  Y 4974
X 4296  Y 4977
X 4247  Y 5070
X 4211  Y 5020
X 4143  Y 4909
X 4143  Y 4854
X 4113  Y 4854
X 4113  Y 4992
X 4113  Y 4905
X 4086  Y 4950
X 4083  Y 4851
X 4083  Y 4993
X 4083  Y 4905
X 3846  Y 5043
X 2932  Y 5021
X 2869  Y 4875
X 2856  Y 5040
X 2827  Y 5005
X 2826  Y 5046
X 2788  Y 4873
X 2592  Y 4983
X 2592  Y 5015
X 2574  Y 4875
X 2530  Y 5019
X 2379  Y 4920
X 2044  Y 4948
X 1978  Y 4948
X 1822  Y 4986
X 1798  Y 4939
X 1792  Y 4986
X 1771  Y 4897
X 1768  Y 4939
X 1762  Y 4986
X 1756  Y 5080
X 1720  Y 5053
X 1717  Y 5023
X 1467  Y 4926
X 1332  Y 4990
X 1287  Y 4839
X 1212  Y 4841
X 1152  Y 4936
X 432  Y 5007
X 183  Y 4866
X 45  Y 5120
X 1362  Y 5187
X 1371  Y 5112
X 1749  Y 5199
X 1764  Y 5316
X 1786  Y 5092
X 1816  Y 5101
X 1846  Y 5113
X 1848  Y 5260
X 1912  Y 5110
X 1967  Y 5114
X 1996  Y 5122
X 2016  Y 5148
X 2044  Y 5239
X 2053  Y 5269
X 2056  Y 5299
X 2059  Y 5176
X 2059  Y 5206
X 2059  Y 5146
X 2089  Y 5206
X 2149  Y 5239
X 2149  Y 5269
X 2155  Y 5299
X 2239  Y 5325
X 2257  Y 5301
X 2260  Y 5218
X 2379  Y 5157
X 2506  Y 5161
X 2542  Y 5272
X 2577  Y 5299
X 2791  Y 5149
X 2791  Y 5323
X 2848  Y 5131
X 3178  Y 5119
X 4143  Y 5219
X 4143  Y 5250
X 4143  Y 5151
X 4146  Y 5118
X 4200  Y 5275
X 4293  Y 5322
X 4294  Y 5190
X 4296  Y 5224
X 4296  Y 5273
X 4299  Y 5117
X 4350  Y 5177
X 4350  Y 5277
X 4360  Y 5215
X 4395  Y 5120
X 4398  Y 5277
X 4398  Y 5170
X 4443  Y 5274
X 4444  Y 5224
X 4449  Y 5322
X 4493  Y 5170
X 4503  Y 5224
X 4593  Y 5153
X 4611  Y 5097
X 4698  Y 5142
X 4699  Y 5282
X 4798  Y 5176
X 4799  Y 5230
X 4816  Y 5098
X 4830  Y 5136
X 4850  Y 5225
X 4851  Y 5326
X 4899  Y 5325
X 4901  Y 5232
X 4947  Y 5229
X 5036  Y 5180
X 5040  Y 5230
X 5076  Y 5169
X 5100  Y 5275
X 5149  Y 5223
X 5151  Y 5274
X 5160  Y 5150
X 5170  Y 5115
X 5193  Y 5274
X 5200  Y 5225
X 5200  Y 5175
X 5206  Y 5134
X 5244  Y 5178
X 5246  Y 5127
X 5247  Y 5226
X 5247  Y 5275
X 5297  Y 5323
X 5298  Y 5274
X 5299  Y 5224
X 5301  Y 5124
X 5301  Y 5172
X 5448  Y 5153
X 5483  Y 5161
X 5525  Y 5195
X 5535  Y 5140
X 5541  Y 5277
X 5555  Y 5207
X 5570  Y 5137
X 5606  Y 5101
X 5628  Y 5319
X 5710  Y 5292
X 5730  Y 5100
X 5790  Y 5167
X 5796  Y 5251
X 5821  Y 5220
X 5830  Y 5129
X 5890  Y 5149
X 6090  Y 5262
X 6194  Y 5258
X 6209  Y 5150
X 6306  Y 5261
X 6308  Y 5144
X 6380  Y 5152
X 6444  Y 5148
X 6502  Y 5146
X 6550  Y 5260
X 6645  Y 5163
X 6723  Y 5163
X 6796  Y 5224
X 6808  Y 5118
X 6828  Y 5316
X 6831  Y 5274
X 6832  Y 5224
X 6852  Y 5251
X 6855  Y 5295
X 7194  Y 5157
X 7204  Y 5235
X 7206  Y 5319
X 7206  Y 5262
X 7503  Y 5292
X 7632  Y 5151
X 7650  Y 5250
X 7644  Y 5349
X 7485  Y 5427
X 7449  Y 5400
X 7446  Y 5557
X 7086  Y 5442
X 6853  Y 5339
X 6847  Y 5373
X 6745  Y 5463
X 6636  Y 5432
X 6551  Y 5576
X 6533  Y 5426
X 6491  Y 5581
X 6399  Y 5579
X 6363  Y 5421
X 6329  Y 5581
X 6244  Y 5439
X 6140  Y 5581
X 6110  Y 5575
X 6052  Y 5356
X 6042  Y 5385
X 6029  Y 5414
X 6004  Y 5451
X 5999  Y 5408
X 5973  Y 5479
X 5971  Y 5448
X 5926  Y 5481
X 5872  Y 5476
X 5848  Y 5542
X 5632  Y 5365
X 5587  Y 5432
X 5450  Y 5458
X 5446  Y 5373
X 5397  Y 5373
X 5290  Y 5418
X 5176  Y 5434
X 5074  Y 5431
X 4968  Y 5484
X 4899  Y 5550
X 4873  Y 5430
X 4854  Y 5548
X 4851  Y 5376
X 4851  Y 5458
X 4825  Y 5534
X 4776  Y 5508
X 4722  Y 5520
X 4632  Y 5580
X 4629  Y 5526
X 4625  Y 5472
X 4522  Y 5492
X 4470  Y 5436
X 4425  Y 5541
X 4425  Y 5429
X 4423  Y 5511
X 4366  Y 5476
X 4365  Y 5535
X 4323  Y 5436
X 4322  Y 5535
X 4321  Y 5467
X 4204  Y 5425
X 4203  Y 5577
X 4203  Y 5371
X 3859  Y 5458
X 3856  Y 5488
X 3702  Y 5562
X 3234  Y 5562
X 3091  Y 5560
X 3067  Y 5581
X 3047  Y 5439
X 2884  Y 5436
X 2578  Y 5370
X 2565  Y 5556
X 2563  Y 5341
X 2544  Y 5370
X 2379  Y 5418
X 2199  Y 5415
X 2164  Y 5431
X 2130  Y 5433
X 2077  Y 5437
X 1998  Y 5412
X 1980  Y 5550
X 1954  Y 5332
X 1899  Y 5410
X 1383  Y 5364
X 811  Y 5363
X 728  Y 5482
X 417  Y 5349
X 45  Y 5553
X 620  Y 5746
X 1192  Y 5599
X 3043  Y 5602
X 3069  Y 5750
X 3108  Y 5787
X 3159  Y 5712
X 3499  Y 5701
X 3748  Y 5806
X 3748  Y 5773
X 3759  Y 5673
X 3778  Y 5797
X 4050  Y 5820
X 4152  Y 5820
X 4213  Y 5614
X 4289  Y 5725
X 4350  Y 5825
X 4355  Y 5585
X 4362  Y 5635
X 4423  Y 5583
X 4425  Y 5641
X 4450  Y 5821
X 4478  Y 5624
X 4496  Y 5661
X 4630  Y 5825
X 4655  Y 5607
X 4658  Y 5767
X 4722  Y 5628
X 4819  Y 5793
X 4887  Y 5606
X 4927  Y 5647
X 4929  Y 5603
X 4986  Y 5820
X 5015  Y 5644
X 5016  Y 5784
X 5017  Y 5687
X 5039  Y 5610
X 5050  Y 5673
X 5082  Y 5672
X 5082  Y 5636
X 5138  Y 5676
X 5144  Y 5634
X 5146  Y 5752
X 5199  Y 5650
X 5201  Y 5620
X 5257  Y 5646
X 5273  Y 5618
X 5555  Y 5635
X 5602  Y 5805
X 5815  Y 5815
X 5847  Y 5814
X 5893  Y 5595
X 5919  Y 5706
X 5938  Y 5590
X 5955  Y 5706
X 6087  Y 5598
X 6137  Y 5683
X 6147  Y 5757
X 6164  Y 5600
X 6195  Y 5590
X 6205  Y 5796
X 6225  Y 5583
X 6250  Y 5755
X 6261  Y 5707
X 6307  Y 5603
X 6346  Y 5749
X 6357  Y 5707
X 6399  Y 5694
X 6428  Y 5776
X 6445  Y 5591
X 6499  Y 5689
X 6500  Y 5781
X 6557  Y 5763
X 6564  Y 5683
X 6615  Y 5584
X 6652  Y 5662
X 6658  Y 5584
X 6661  Y 5765
X 6729  Y 5587
X 6742  Y 5752
X 6766  Y 5682
X 6861  Y 5649
X 6902  Y 5818
X 6982  Y 5832
X 7080  Y 5775
X 7083  Y 5640
X 7479  Y 5832
X 7479  Y 5733
X 7479  Y 6033
X 7479  Y 5934
X 7080  Y 6075
X 7080  Y 5976
X 7080  Y 5874
X 6987  Y 6024
X 6982  Y 5922
X 6710  Y 5891
X 6691  Y 5973
X 6648  Y 5883
X 6554  Y 5890
X 6516  Y 5995
X 6512  Y 6075
X 6460  Y 6053
X 6456  Y 5886
X 6398  Y 5931
X 6396  Y 6024
X 6363  Y 6070
X 6300  Y 5893
X 6290  Y 5971
X 6246  Y 5931
X 6221  Y 6077
X 6217  Y 5997
X 6173  Y 5922
X 6111  Y 5919
X 6106  Y 5958
X 6084  Y 6081
X 6078  Y 5943
X 6061  Y 6051
X 6049  Y 5968
X 6017  Y 6050
X 5914  Y 6010
X 5884  Y 6007
X 5865  Y 5969
X 5841  Y 6000
X 5819  Y 5971
X 5797  Y 5995
X 5775  Y 5971
X 5754  Y 5998
X 5733  Y 5971
X 5712  Y 5998
X 5695  Y 5837
X 5691  Y 5971
X 5670  Y 5998
X 5555  Y 5850
X 5383  Y 6063
X 5382  Y 5846
X 5325  Y 5850
X 5277  Y 6066
X 5148  Y 5850
X 5032  Y 5845
X 4881  Y 5913
X 4805  Y 5946
X 4790  Y 5920
X 4725  Y 5859
X 4705  Y 5912
X 4689  Y 6004
X 4657  Y 5864
X 4555  Y 5845
X 4521  Y 6079
X 4354  Y 5976
X 4252  Y 6055
X 3775  Y 5851
X 3736  Y 5893
X 3621  Y 5867
X 3577  Y 6068
X 3454  Y 5872
X 3435  Y 6000
X 2949  Y 5949
X 2775  Y 5946
X 2766  Y 6015
X 2733  Y 5994
X 2712  Y 6039
X 2676  Y 6018
X 2646  Y 6051
X 2611  Y 6063
X 2536  Y 6064
X 2515  Y 6000
X 2491  Y 6055
X 2442  Y 6075
X 1980  Y 5949
X 1661  Y 6055
X 1424  Y 6039
X 1292  Y 6020
X 1001  Y 6020
X 381  Y 5948
X 1374  Y 6087
X 1512  Y 6087
X 1557  Y 6087
X 1638  Y 6108
X 1722  Y 6213
X 1812  Y 6105
X 1843  Y 6103
X 1875  Y 6117
X 2019  Y 6126
X 2032  Y 6301
X 2040  Y 6105
X 2127  Y 6099
X 2223  Y 6225
X 2320  Y 6304
X 2410  Y 6089
X 2469  Y 6099
X 2557  Y 6087
X 3528  Y 6092
X 3847  Y 6165
X 3849  Y 6100
X 4204  Y 6275
X 4344  Y 6201
X 4380  Y 6147
X 4390  Y 6275
X 4391  Y 6317
X 4401  Y 6087
X 4513  Y 6202
X 4543  Y 6173
X 4575  Y 6207
X 4632  Y 6303
X 4643  Y 6116
X 4764  Y 6114
X 4797  Y 6297
X 4806  Y 6090
X 4809  Y 6330
X 4953  Y 6204
X 5031  Y 6093
X 5148  Y 6222
X 5214  Y 6084
X 5229  Y 6240
X 5238  Y 6153
X 5260  Y 6315
X 5280  Y 6255
X 5330  Y 6275
X 5337  Y 6093
X 5436  Y 6318
X 5478  Y 6087
X 5500  Y 6110
X 5625  Y 6213
X 5634  Y 6318
X 5688  Y 6150
X 5718  Y 6162
X 5989  Y 6083
X 6249  Y 6160
X 6294  Y 6096
X 6348  Y 6183
X 6352  Y 6220
X 6448  Y 6211
X 6546  Y 6225
X 6751  Y 6332
X 6950  Y 6205
X 6958  Y 6136
X 6984  Y 6115
X 7080  Y 6276
X 7080  Y 6174
X 7083  Y 6231
X 7083  Y 6327
X 7476  Y 6135
X 7482  Y 6234
X 7482  Y 6333
X 7476  Y 6435
X 7431  Y 6477
X 7083  Y 6426
X 7080  Y 6375
X 7078  Y 6475
X 6950  Y 6368
X 6949  Y 6489
X 6796  Y 6352
X 6697  Y 6392
X 6646  Y 6340
X 6583  Y 6352
X 6520  Y 6362
X 6488  Y 6421
X 6457  Y 6371
X 5890  Y 6353
X 5704  Y 6466
X 5605  Y 6480
X 5562  Y 6388
X 5436  Y 6501
X 5399  Y 6570
X 5348  Y 6415
X 5025  Y 6355
X 5025  Y 6565
X 4932  Y 6579
X 4753  Y 6429
X 4747  Y 6529
X 4716  Y 6391
X 4716  Y 6528
X 4657  Y 6333
X 4575  Y 6550
X 4573  Y 6400
X 4385  Y 6552
X 4376  Y 6395
X 4231  Y 6395
X 4010  Y 6376
X 4009  Y 6529
X 3807  Y 6387
X 3738  Y 6396
X 3613  Y 6343
X 3570  Y 6444
X 3495  Y 6523
X 3438  Y 6558
X 3396  Y 6522
X 3289  Y 6447
X 2632  Y 6472
X 2569  Y 6544
X 2422  Y 6514
X 1912  Y 6484
X 1874  Y 6486
X 1762  Y 6472
X 1696  Y 6472
X 1612  Y 6426
X 1525  Y 6375
X 1486  Y 6569
X 1468  Y 6378
X 1428  Y 6440
X 1391  Y 6479
X 1278  Y 6521
X 1225  Y 6568
X 1123  Y 6568
X 1086  Y 6423
X 1026  Y 6570
X 949  Y 6476
X 903  Y 6421
X 772  Y 6519
X 664  Y 6553
X 654  Y 6474
X 297  Y 6750
X 623  Y 6814
X 762  Y 6589
X 783  Y 6750
X 886  Y 6621
X 889  Y 6720
X 1054  Y 6724
X 1123  Y 6766
X 1150  Y 6673
X 1284  Y 6624
X 1284  Y 6726
X 1486  Y 6671
X 1566  Y 6745
X 1758  Y 6810
X 2491  Y 6583
X 2556  Y 6741
X 2766  Y 6589
X 3219  Y 6615
X 3378  Y 6630
X 3438  Y 6618
X 3758  Y 6592
X 3851  Y 6670
X 3975  Y 6795
X 3993  Y 6768
X 4012  Y 6600
X 4041  Y 6822
X 4200  Y 6730
X 4204  Y 6597
X 4215  Y 6666
X 4300  Y 6730
X 4383  Y 6684
X 4400  Y 6730
X 4500  Y 6730
X 4524  Y 6627
X 4563  Y 6723
X 4622  Y 6669
X 4648  Y 6612
X 5002  Y 6730
X 5100  Y 6729
X 5499  Y 6810
X 5503  Y 6765
X 5527  Y 6831
X 5527  Y 6789
X 5704  Y 6598
X 5901  Y 6699
X 6531  Y 6603
X 6714  Y 6597
X 6751  Y 6803
X 6804  Y 6774
X 6850  Y 6796
X 6950  Y 6675
X 7206  Y 6822
X 7462  Y 6687
X 7026  Y 7005
X 6693  Y 6839
X 5574  Y 7073
X 5532  Y 7000
X 5530  Y 7036
X 5527  Y 6915
X 5527  Y 6957
X 5527  Y 6873
X 5500  Y 6978
X 5500  Y 6894
X 5500  Y 6852
X 5500  Y 6936
X 5448  Y 6921
X 5429  Y 6853
X 5414  Y 7059
X 5401  Y 7012
X 5343  Y 6955
X 5287  Y 7048
X 5235  Y 7006
X 5070  Y 6990
X 4907  Y 6880
X 4315  Y 6915
X 4239  Y 6963
X 4237  Y 6993
X 4088  Y 6947
X 4063  Y 6907
X 4053  Y 6853
X 4012  Y 7007
X 3332  Y 6973
X 3264  Y 6951
X 3187  Y 6955
X 3135  Y 6939
X 3120  Y 6969
X 3072  Y 6969
X 3030  Y 6942
X 3001  Y 6967
X 2965  Y 6943
X 2859  Y 6960
X 2777  Y 6903
X 2730  Y 6948
X 2647  Y 6975
X 2560  Y 6925
X 2518  Y 6925
X 2506  Y 6967
X 2458  Y 6931
X 2434  Y 6967
X 2389  Y 6967
X 2356  Y 6937
X 2340  Y 6972
X 2310  Y 6942
X 2293  Y 6967
X 2264  Y 6942
X 2238  Y 6960
X 2174  Y 6970
X 1969  Y 6973
X 1792  Y 6954
X 1600  Y 6887
X 1523  Y 6955
X 1275  Y 6882
X 834  Y 7080
X 807  Y 6996
X 699  Y 6888
X 477  Y 6978
X 264  Y 6861
X 423  Y 7251
X 786  Y 7191
X 822  Y 7140
X 996  Y 7089
X 1193  Y 7227
X 1274  Y 7332
X 1545  Y 7311
X 1733  Y 7309
X 1743  Y 7107
X 1785  Y 7143
X 1845  Y 7206
X 1959  Y 7240
X 2028  Y 7317
X 2124  Y 7311
X 2157  Y 7308
X 2185  Y 7099
X 2193  Y 7311
X 2245  Y 7270
X 2269  Y 7291
X 2293  Y 7270
X 2317  Y 7290
X 2343  Y 7269
X 2358  Y 7329
X 2410  Y 7102
X 2412  Y 7296
X 2436  Y 7275
X 2460  Y 7296
X 2463  Y 7134
X 2506  Y 7291
X 2529  Y 7272
X 2532  Y 7108
X 2551  Y 7296
X 2577  Y 7268
X 2598  Y 7314
X 2599  Y 7102
X 2631  Y 7104
X 2640  Y 7294
X 2647  Y 7263
X 2683  Y 7305
X 2718  Y 7305
X 2744  Y 7261
X 2744  Y 7109
X 2764  Y 7322
X 2768  Y 7279
X 2803  Y 7323
X 2829  Y 7110
X 2829  Y 7269
X 2845  Y 7297
X 2874  Y 7110
X 2883  Y 7269
X 2920  Y 7108
X 2925  Y 7305
X 2925  Y 7266
X 2964  Y 7113
X 3003  Y 7281
X 3013  Y 7310
X 3031  Y 7270
X 3121  Y 7270
X 3166  Y 7282
X 3261  Y 7125
X 3307  Y 7282
X 3331  Y 7132
X 3429  Y 7203
X 3429  Y 7308
X 3504  Y 7152
X 3867  Y 7197
X 3897  Y 7197
X 3921  Y 7142
X 3927  Y 7197
X 3952  Y 7137
X 3954  Y 7275
X 3957  Y 7197
X 3987  Y 7275
X 3987  Y 7209
X 4079  Y 7230
X 4080  Y 7281
X 4103  Y 7158
X 4115  Y 7231
X 4226  Y 7149
X 4228  Y 7198
X 4229  Y 7303
X 4231  Y 7255
X 4275  Y 7200
X 4275  Y 7149
X 4276  Y 7252
X 4276  Y 7294
X 4324  Y 7099
X 4326  Y 7251
X 4326  Y 7200
X 4329  Y 7152
X 4422  Y 7296
X 4422  Y 7203
X 4425  Y 7149
X 4425  Y 7101
X 4474  Y 7198
X 4474  Y 7099
X 4476  Y 7149
X 4519  Y 7298
X 4524  Y 7200
X 4527  Y 7149
X 4575  Y 7200
X 4575  Y 7152
X 4626  Y 7200
X 4730  Y 7295
X 4761  Y 7324
X 5025  Y 7149
X 5130  Y 7224
X 5141  Y 7149
X 5250  Y 7146
X 5331  Y 7261
X 5331  Y 7303
X 5355  Y 7282
X 5450  Y 7195
X 5496  Y 7166
X 5534  Y 7264
X 5562  Y 7290
X 5618  Y 7166
X 5633  Y 7303
X 5644  Y 7141
X 5952  Y 7329
X 5985  Y 7317
X 5997  Y 7273
X 6018  Y 7305
X 6021  Y 7251
X 6054  Y 7218
X 6058  Y 7255
X 6470  Y 7130
X 6553  Y 7222
X 6652  Y 7222
X 6700  Y 7176
X 6801  Y 7125
X 6954  Y 7179
X 7152  Y 7287
X 7206  Y 7221
X 7792  Y 7577
X 7713  Y 7497
X 7639  Y 7576
X 7173  Y 7395
X 6976  Y 7453
X 6798  Y 7335
X 6717  Y 7341
X 6612  Y 7347
X 6346  Y 7338
X 6040  Y 7564
X 6009  Y 7561
X 5991  Y 7533
X 5950  Y 7509
X 5950  Y 7542
X 5920  Y 7350
X 5920  Y 7500
X 5714  Y 7428
X 5645  Y 7385
X 5606  Y 7491
X 5490  Y 7340
X 5451  Y 7431
X 5398  Y 7362
X 5232  Y 7500
X 5211  Y 7527
X 5190  Y 7497
X 5169  Y 7527
X 5139  Y 7476
X 5025  Y 7548
X 4866  Y 7475
X 4854  Y 7374
X 4740  Y 7575
X 4740  Y 7425
X 4740  Y 7476
X 4740  Y 7525
X 4625  Y 7450
X 4625  Y 7550
X 4625  Y 7500
X 4580  Y 7545
X 4575  Y 7500
X 4575  Y 7450
X 4572  Y 7350
X 4462  Y 7440
X 4384  Y 7525
X 4380  Y 7476
X 4372  Y 7351
X 4326  Y 7500
X 4325  Y 7451
X 4276  Y 7350
X 4274  Y 7399
X 4274  Y 7452
X 4228  Y 7450
X 4228  Y 7354
X 4228  Y 7402
X 4224  Y 7551
X 4113  Y 7525
X 4083  Y 7533
X 4059  Y 7423
X 4054  Y 7519
X 4029  Y 7423
X 4024  Y 7486
X 3999  Y 7365
X 3987  Y 7507
X 3986  Y 7435
X 3968  Y 7460
X 3967  Y 7335
X 3967  Y 7379
X 3939  Y 7363
X 3937  Y 7465
X 3937  Y 7333
X 3934  Y 7543
X 3828  Y 7477
X 3725  Y 7450
X 3725  Y 7550
X 3725  Y 7350
X 3429  Y 7410
X 3429  Y 7488
X 3324  Y 7488
X 3190  Y 7561
X 3190  Y 7480
X 3145  Y 7336
X 3124  Y 7426
X 3073  Y 7339
X 3051  Y 7428
X 3031  Y 7402
X 2995  Y 7336
X 2971  Y 7357
X 2913  Y 7350
X 2870  Y 7338
X 2694  Y 7353
X 2628  Y 7347
X 2622  Y 7515
X 2436  Y 7380
X 2433  Y 7539
X 2391  Y 7380
X 2361  Y 7380
X 2355  Y 7500
X 2331  Y 7377
X 2298  Y 7347
X 2274  Y 7377
X 2241  Y 7380
X 2229  Y 7539
X 2205  Y 7383
X 2199  Y 7536
X 2175  Y 7377
X 2163  Y 7540
X 2137  Y 7484
X 2097  Y 7538
X 2085  Y 7488
X 2046  Y 7491
X 1998  Y 7380
X 1980  Y 7539
X 1946  Y 7489
X 1917  Y 7359
X 1909  Y 7521
X 1881  Y 7485
X 1860  Y 7374
X 1860  Y 7338
X 1839  Y 7482
X 1800  Y 7374
X 1800  Y 7485
X 1791  Y 7578
X 1764  Y 7485
X 1725  Y 7380
X 1677  Y 7380
X 1590  Y 7578
X 1493  Y 7526
X 1359  Y 7569
X 1344  Y 7533
X 1002  Y 7392
X 966  Y 7410
X 939  Y 7380
X 861  Y 7446
X 477  Y 7389
X 453  Y 7449
X 377  Y 7735
X 663  Y 7731
X 1158  Y 7761
X 1176  Y 7821
X 1242  Y 7607
X 1242  Y 7779
X 1282  Y 7798
X 1301  Y 7676
X 1372  Y 7753
X 1383  Y 7686
X 1460  Y 7672
X 1584  Y 7767
X 1589  Y 7648
X 1704  Y 7759
X 1725  Y 7620
X 1728  Y 7707
X 1752  Y 7602
X 1773  Y 7632
X 1803  Y 7785
X 1818  Y 7617
X 1823  Y 7652
X 1863  Y 7614
X 1947  Y 7709
X 2050  Y 7714
X 2146  Y 7588
X 2160  Y 7710
X 2218  Y 7596
X 2265  Y 7801
X 2367  Y 7707
X 2406  Y 7596
X 2448  Y 7584
X 2448  Y 7812
X 2469  Y 7650
X 2469  Y 7698
X 2469  Y 7728
X 2472  Y 7611
X 2478  Y 7809
X 2594  Y 7583
X 2641  Y 7825
X 2642  Y 7749
X 2673  Y 7762
X 2675  Y 7806
X 2688  Y 7701
X 2703  Y 7729
X 2892  Y 7737
X 2894  Y 7653
X 2960  Y 7652
X 3090  Y 7650
X 3184  Y 7678
X 3184  Y 7729
X 3184  Y 7780
X 3184  Y 7828
X 3190  Y 7591
X 3190  Y 7630
X 3429  Y 7584
X 3429  Y 7671
X 3429  Y 7791
X 3540  Y 7656
X 3540  Y 7758
X 3727  Y 7645
X 3727  Y 7749
X 3828  Y 7692
X 3916  Y 7658
X 3925  Y 7750
X 3946  Y 7660
X 3957  Y 7752
X 3976  Y 7660
X 4006  Y 7660
X 4039  Y 7771
X 4072  Y 7711
X 4126  Y 7795
X 4177  Y 7798
X 4227  Y 7797
X 4228  Y 7702
X 4228  Y 7600
X 4270  Y 7654
X 4274  Y 7598
X 4324  Y 7600
X 4425  Y 7619
X 4426  Y 7749
X 4473  Y 7663
X 4533  Y 7701
X 4650  Y 7605
X 4701  Y 7638
X 4713  Y 7713
X 4800  Y 7635
X 4869  Y 7743
X 4975  Y 7800
X 5025  Y 7599
X 5025  Y 7800
X 5223  Y 7800
X 5232  Y 7725
X 5284  Y 7650
X 5292  Y 7749
X 5360  Y 7694
X 5362  Y 7605
X 5490  Y 7647
X 5749  Y 7680
X 5846  Y 7758
X 6004  Y 7603
X 6040  Y 7606
X 6575  Y 7625
X 6675  Y 7614
X 6677  Y 7767
X 6006  Y 8001
X 5778  Y 8082
X 5499  Y 7851
X 5451  Y 8001
X 5391  Y 7896
X 5256  Y 7923
X 5110  Y 8071
X 4902  Y 8082
X 4875  Y 7950
X 4875  Y 7851
X 4875  Y 7899
X 4824  Y 7851
X 4789  Y 8071
X 4775  Y 7849
X 4774  Y 7949
X 4749  Y 8025
X 4725  Y 7851
X 4725  Y 7900
X 4692  Y 8022
X 4626  Y 7948
X 4575  Y 7851
X 4524  Y 7851
X 4476  Y 7851
X 4456  Y 8022
X 4326  Y 7851
X 4278  Y 7848
X 4225  Y 7852
X 4177  Y 7849
X 4072  Y 7900
X 3970  Y 7852
X 3928  Y 8049
X 3915  Y 7866
X 3822  Y 7989
X 3735  Y 7935
X 3731  Y 7850
X 3688  Y 7850
X 3675  Y 8001
X 3559  Y 7972
X 3552  Y 7860
X 3504  Y 7951
X 3429  Y 7890
X 3334  Y 7966
X 3327  Y 7884
X 3303  Y 7914
X 3300  Y 7965
X 3186  Y 7888
X 3184  Y 7930
X 3183  Y 7980
X 3054  Y 7920
X 3048  Y 8028
X 3018  Y 7938
X 3016  Y 8028
X 2905  Y 7914
X 2898  Y 7881
X 2895  Y 7836
X 2802  Y 7836
X 2712  Y 7981
X 2712  Y 8076
X 2655  Y 7878
X 2652  Y 8029
X 2649  Y 7980
X 2637  Y 7929
X 2587  Y 8070
X 2478  Y 7879
X 2478  Y 7848
X 2477  Y 7958
X 2472  Y 7996
X 2471  Y 7910
X 2361  Y 7929
X 2360  Y 8006
X 2250  Y 7902
X 2240  Y 8008
X 2202  Y 7877
X 2197  Y 8029
X 2149  Y 8021
X 2117  Y 8029
X 2053  Y 8027
X 2025  Y 7878
X 2010  Y 7978
X 1841  Y 8032
X 1836  Y 7845
X 1800  Y 7904
X 1762  Y 8033
X 1594  Y 8004
X 1591  Y 7918
X 1569  Y 7918
X 1377  Y 7942
X 1374  Y 8064
X 1369  Y 7846
X 1203  Y 7845
X 1168  Y 7960
X 1148  Y 8027
X 921  Y 7862
X 816  Y 7962
X 697  Y 7849
X 652  Y 7996
X 425  Y 7875
X 325  Y 7875
X 702  Y 8238
X 1290  Y 8193
X 1368  Y 8325
X 1453  Y 8102
X 1598  Y 8319
X 1644  Y 8180
X 1740  Y 8189
X 1769  Y 8137
X 1835  Y 8271
X 1927  Y 8208
X 1961  Y 8268
X 2030  Y 8145
X 2076  Y 8139
X 2174  Y 8172
X 2235  Y 8141
X 2250  Y 8172
X 2283  Y 8313
X 2299  Y 8226
X 2303  Y 8287
X 2341  Y 8153
X 2367  Y 8183
X 2748  Y 8131
X 2760  Y 8232
X 2808  Y 8124
X 2850  Y 8238
X 2906  Y 8094
X 2991  Y 8124
X 3022  Y 8257
X 3046  Y 8131
X 3198  Y 8238
X 3285  Y 8238
X 3336  Y 8107
X 3465  Y 8235
X 4017  Y 8136
X 4120  Y 8215
X 4176  Y 8106
X 4216  Y 8250
X 4318  Y 8275
X 4326  Y 8115
X 4404  Y 8231
X 4458  Y 8100
X 4470  Y 8269
X 4574  Y 8300
X 4662  Y 8277
X 4746  Y 8280
X 4817  Y 8093
X 4842  Y 8316
X 5004  Y 8088
X 5100  Y 8275
X 5249  Y 8282
X 5438  Y 8216
X 5610  Y 8163
X 5778  Y 8247
X 5855  Y 8158
X 6125  Y 8450
X 6075  Y 8367
X 5985  Y 8397
X 5616  Y 8412
X 5577  Y 8361
X 5271  Y 8377
X 5173  Y 8441
X 4974  Y 8499
X 4878  Y 8403
X 4821  Y 8409
X 4776  Y 8499
X 4674  Y 8499
X 4575  Y 8505
X 4482  Y 8499
X 4434  Y 8361
X 4416  Y 8439
X 4374  Y 8508
X 4323  Y 8502
X 4275  Y 8508
X 4218  Y 8439
X 4176  Y 8509
X 4116  Y 8442
X 4077  Y 8509
X 2350  Y 8390
X 2232  Y 8409
X 2199  Y 8352
X 2181  Y 8520
X 2118  Y 8400
X 2088  Y 8352
X 2052  Y 8352
X 2031  Y 8520
X 1944  Y 8370
X 1833  Y 8352
X 1698  Y 8460
X 1596  Y 8493
X 1541  Y 8415
X 1539  Y 8475
X 1407  Y 8460
X 1359  Y 8490
X 1326  Y 8373

Drill: 32  Tool: 3  Feed: 197  Speed: 550
X 200  Y 279
X 200  Y 264
X 200  Y 249
X 200  Y 239
X 200  Y 294
X 200  Y 309
X 200  Y 319
X 282  Y 82
X 292  Y 82
X 307  Y 82
X 322  Y 82
X 337  Y 82
X 352  Y 82
X 362  Y 82
X 444  Y 294
X 444  Y 279
X 444  Y 324
X 444  Y 309
X 444  Y 249
X 444  Y 264
X 444  Y 234
X 444  Y 219
X 444  Y 339

Drill: 35  Tool: 4  Feed: 197  Speed: 550
X 214  Y 807
X 214  Y 888
X 214  Y 968
X 214  Y 1048
X 285  Y 928
X 285  Y 1008
X 285  Y 848
X 474  Y 677
X 476  Y 768
X 474  Y 1218
X 474  Y 1128
X 466  Y 1486
X 466  Y 1576
X 285  Y 1088
X 276  Y 1736
X 276  Y 1816
X 276  Y 1655
X 206  Y 1696
X 206  Y 1615
X 206  Y 1776
X 206  Y 1856
X 214  Y 2502
X 214  Y 2422
X 214  Y 2662
X 214  Y 2582
X 276  Y 1896
X 285  Y 2462
X 285  Y 2542
X 285  Y 2703
X 285  Y 2622
X 466  Y 2026
X 466  Y 1936
X 474  Y 2292
X 474  Y 2742
X 476  Y 2382
X 474  Y 2833
X 474  Y 7048
X 214  Y 7258
X 214  Y 7178
X 214  Y 7419
X 214  Y 7338
X 285  Y 7298
X 285  Y 7459
X 285  Y 7379
X 285  Y 7218
X 474  Y 7499
X 474  Y 7589
X 476  Y 7138

Drill: 35.43  Tool: 5  Feed: 197  Speed: 550
X 3395  Y 7119

Drill: 36.22  Tool: 6  Feed: 197  Speed: 550
X 381  Y 8227
X 381  Y 8129
X 459  Y 8129
X 459  Y 8227

Drill: 37  Tool: 7  Feed: 197  Speed: 550
X 2371  Y 3364
X 2471  Y 3364
X 6166  Y 1730
X 6166  Y 1630
X 3749  Y 4053
X 3749  Y 3953
X 3674  Y 4003
X 3674  Y 3903
X 3599  Y 4053
X 3599  Y 3953
X 3524  Y 4003
X 3524  Y 3903
X 3449  Y 4053
X 3449  Y 3953
X 3374  Y 4003
X 3374  Y 3903
X 3299  Y 4053
X 3299  Y 3953
X 3224  Y 4003
X 3224  Y 3903
X 3224  Y 4303
X 3224  Y 4203
X 3224  Y 4103
X 3224  Y 4503
X 3224  Y 4403
X 3299  Y 4253
X 3299  Y 4153
X 3299  Y 4553
X 3299  Y 4453
X 3299  Y 4353
X 3374  Y 4303
X 3374  Y 4203
X 3374  Y 4103
X 3374  Y 4503
X 3374  Y 4403
X 3449  Y 4553
X 3449  Y 4153
X 3449  Y 4453
X 3449  Y 4253
X 3449  Y 4353
X 3524  Y 4503
X 3524  Y 4403
X 3524  Y 4303
X 3524  Y 4203
X 3524  Y 4103
X 3599  Y 4553
X 3599  Y 4453
X 3599  Y 4353
X 3599  Y 4253
X 3599  Y 4153
X 3674  Y 4303
X 3674  Y 4503
X 3674  Y 4203
X 3674  Y 4403
X 3674  Y 4103
X 3749  Y 4453
X 3749  Y 4153
X 3749  Y 4553
X 3749  Y 4253
X 3749  Y 4353
X 7000  Y 5075
X 3749  Y 4753
X 3749  Y 4653
X 3749  Y 5053
X 3749  Y 4953
X 3749  Y 4853
X 3674  Y 4703
X 3674  Y 5003
X 3674  Y 4603
X 3674  Y 4903
X 3674  Y 4803
X 3599  Y 4753
X 3599  Y 4653
X 3599  Y 5053
X 3599  Y 4953
X 3599  Y 4853
X 3524  Y 4703
X 3524  Y 4603
X 3524  Y 4803
X 3524  Y 5003
X 3524  Y 4903
X 3449  Y 4653
X 3449  Y 4753
X 3449  Y 5053
X 3449  Y 4953
X 3449  Y 4853
X 3374  Y 4603
X 3374  Y 4703
X 3374  Y 5003
X 3374  Y 4903
X 3374  Y 4803
X 3299  Y 4753
X 3299  Y 4653
X 3299  Y 5053
X 3299  Y 4953
X 3299  Y 4853
X 3224  Y 4703
X 3224  Y 5003
X 3224  Y 4603
X 3224  Y 4903
X 3224  Y 4803
X 3224  Y 5303
X 3224  Y 5203
X 3224  Y 5103
X 3224  Y 5503
X 3224  Y 5403
X 3299  Y 5253
X 3299  Y 5153
X 3299  Y 5553
X 3299  Y 5453
X 3299  Y 5353
X 3374  Y 5203
X 3374  Y 5103
X 3374  Y 5503
X 3374  Y 5403
X 3374  Y 5303
X 3449  Y 5553
X 3449  Y 5153
X 3449  Y 5453
X 3449  Y 5353
X 3449  Y 5253
X 3524  Y 5203
X 3524  Y 5303
X 3524  Y 5503
X 3524  Y 5403
X 3524  Y 5103
X 3599  Y 5253
X 3599  Y 5553
X 3599  Y 5453
X 3599  Y 5153
X 3599  Y 5353
X 3674  Y 5403
X 3674  Y 5503
X 3674  Y 5303
X 3674  Y 5103
X 3674  Y 5203
X 3749  Y 5353
X 3749  Y 5253
X 3749  Y 5153
X 3749  Y 5453
X 3749  Y 5553
X 7000  Y 5175
X 7000  Y 5275
X 3575  Y 6167
X 3575  Y 6267
X 3475  Y 6167
X 3475  Y 6267
X 3375  Y 6167
X 3375  Y 6267
X 3275  Y 6167
X 3275  Y 6267
X 3175  Y 6167
X 3175  Y 6267
X 3075  Y 6167
X 3075  Y 6267
X 2975  Y 6167
X 2975  Y 6267
X 2875  Y 6267
X 2875  Y 6167
X 2775  Y 6167
X 2775  Y 6267
X 2675  Y 6167
X 2675  Y 6267
X 2575  Y 6167
X 2575  Y 6267
X 2475  Y 6167
X 2475  Y 6267
X 2375  Y 6267
X 2375  Y 6167
X 2275  Y 6267
X 2275  Y 6167
X 2175  Y 6167
X 2175  Y 6267
X 2075  Y 6167
X 2075  Y 6267
X 1975  Y 6267
X 1975  Y 6167
X 1875  Y 6167
X 1875  Y 6267
X 1775  Y 6267
X 1775  Y 6167
X 1675  Y 6267
X 1675  Y 6167
X 1575  Y 6167
X 1575  Y 6267
X 1475  Y 6167
X 1475  Y 6267
X 1375  Y 6167
X 1375  Y 6267
X 1275  Y 6167
X 1275  Y 6267
X 1175  Y 6267
X 1175  Y 6167
X 1075  Y 6267
X 1075  Y 6167
X 975  Y 6267
X 975  Y 6167
X 875  Y 6267
X 875  Y 6167
X 775  Y 6267
X 775  Y 6167
X 675  Y 6267
X 675  Y 6167
X 484  Y 6259
X 367  Y 6259
X 367  Y 6535
X 367  Y 6437
X 367  Y 6358
X 484  Y 6535
X 484  Y 6437
X 484  Y 6358
X 2803  Y 7466
X 2903  Y 7466
X 3507  Y 8330
X 3507  Y 8430
X 3407  Y 8330
X 3407  Y 8430
X 3307  Y 8430
X 3307  Y 8330
X 3207  Y 8430
X 3207  Y 8330
X 3107  Y 8330
X 3107  Y 8430
X 2860  Y 8330
X 2860  Y 8430
X 2760  Y 8330
X 2760  Y 8430
X 2660  Y 8330
X 2660  Y 8430
X 2560  Y 8330
X 2560  Y 8430
X 2460  Y 8430
X 2460  Y 8330

Drill: 40  Tool: 8  Feed: 139  Speed: 550
X 5642  Y 1038
X 5642  Y 938
X 5742  Y 1038
X 5742  Y 938
X 5842  Y 1038
X 5842  Y 938
X 5942  Y 1038
X 5942  Y 938
X 6042  Y 1038
X 6042  Y 938
X 6142  Y 1038
X 6142  Y 938
X 6242  Y 1038
X 6242  Y 938
X 6342  Y 1038
X 6342  Y 938
X 7548  Y 2762
X 7548  Y 2662
X 7548  Y 3062
X 7548  Y 2962
X 7548  Y 2862
X 7448  Y 2662
X 7448  Y 2962
X 7448  Y 2762
X 7448  Y 2862
X 7448  Y 3062
X 7448  Y 3262
X 7448  Y 3162
X 7448  Y 3562
X 7448  Y 3462
X 7448  Y 3362
X 7448  Y 3762
X 7448  Y 3662
X 7548  Y 3462
X 7548  Y 3262
X 7548  Y 3362
X 7548  Y 3562
X 7548  Y 3762
X 7548  Y 3162
X 7548  Y 3662
X 7548  Y 4062
X 7548  Y 3962
X 7548  Y 3862
X 7548  Y 4262
X 7548  Y 4162
X 7548  Y 4562
X 7548  Y 4462
X 7548  Y 4362
X 7448  Y 4162
X 7448  Y 3862
X 7448  Y 4562
X 7448  Y 3962
X 7448  Y 4462
X 7448  Y 4262
X 7448  Y 4362
X 7448  Y 4062

Drill: 51.18  Tool: 9  Feed: 107  Speed: 550
X 4960  Y 2907
X 5539  Y 3242

Drill: 60  Tool: 10  Feed: 89  Speed: 550
X 6504  Y 8103
X 7297  Y 8103

Drill: 62  Tool: 11  Feed: 89  Speed: 550
X 241  Y 1435
X 241  Y 2076
X 249  Y 627
X 249  Y 1268
X 250  Y 2242
X 250  Y 2883
X 250  Y 6998
X 250  Y 7639

Drill: 62.99  Tool: 12  Feed: 89  Speed: 550
X 2112  Y 7119

Drill: 70  Tool: 13  Feed: 81  Speed: 550
X 7646  Y 6653
X 7646  Y 7053
X 7646  Y 6853
X 7646  Y 7253

Drill: 90.55  Tool: 14  Feed: 66  Speed: 550
X 274  Y 7941
X 274  Y 8415

Drill: 91  Tool: 15  Feed: 66  Speed: 550
X 3251  Y 3703
X 3551  Y 3703
X 3551  Y 5753
X 3251  Y 5753

Drill: 91  Tool: 16  Feed: 66  Speed: 550
X 712  Y 3566
X 1012  Y 3566
X 1012  Y 5889
X 712  Y 5889
X 484  Y 6138
X 260  Y 6138
X 260  Y 6656
X 484  Y 6656

Drill: 108.43  Tool: 17  Feed: 69  Speed: 658
X 3799  Y 6964
X 3799  Y 8362

Drill: 128  Tool: 18  Feed: 35  Speed: 794
X 106  Y 1506
X 106  Y 2006
X 114  Y 698
X 114  Y 1198
X 114  Y 2312
X 114  Y 2812
X 114  Y 7068
X 114  Y 7569

Drill: 166  Tool: 19  Feed: 35  Speed: 1033
X 905  Y 314
X 2208  Y 2086
X 6208  Y 2086
X 7645  Y 314
X 6208  Y 6574
X 2208  Y 6574
X 905  Y 8346
X 7645  Y 8346

End of Listing
