[0012843C] Loading Vxd = VMM
[0012843C] LoadSuccess = VMM
[0012843C] Loading Vxd = VPOWERD
[0012843C] LoadSuccess = VPOWERD
[0012843C] Loading Vxd = ndis.vxd
[0012843A] LoadSuccess = ndis.vxd
[0012843A] Loading Vxd = JAVASUP.VXD
[0012843A] LoadSuccess = JAVASUP.VXD
[0012843A] Loading Vxd = CONFIGMG
[0012843A] LoadSuccess = CONFIGMG
[0012843A] Loading Vxd = NTKERN
[0012843A] LoadSuccess = NTKERN
[0012843A] Loading Vxd = VWIN32
[0012843A] LoadSuccess = VWIN32
[0012843A] Loading Vxd = VFBACKUP
[0012843A] LoadSuccess = VFBACKUP
[0012843A] Loading Vxd = VCOMM
[0012843A] LoadSuccess = VCOMM
[0012843A] Loading Vxd = COMBUFF
[0012843A] LoadSuccess = COMBUFF
[0012843A] Loading Vxd = C:\WINDOWS\system\VMM32\IFSMGR.VXD
[0012843A] LoadSuccess = C:\WINDOWS\system\VMM32\IFSMGR.VXD
[0012843A] Loading Vxd = IOS
[0012843A] LoadSuccess = IOS
[0012843A] Loading Vxd = MTRR
[0012843A] LoadSuccess = MTRR
[0012843A] Loading Vxd = SPOOLER
[0012843A] LoadSuccess = SPOOLER
[0012843A] Loading Vxd = UDF
[0012843A] LoadSuccess = UDF
[0012843A] Loading Vxd = VFAT
[0012843A] LoadSuccess = VFAT
[0012843A] Loading Vxd = VCACHE
[0012843A] LoadSuccess = VCACHE
[0012843A] Loading Vxd = VCOND
[0012843A] LoadSuccess = VCOND
[0012843A] Loading Vxd = VCDFSD
[0012843A] LoadSuccess = VCDFSD
[0012843A] Loading Vxd = VXDLDR
[0012843A] LoadSuccess = VXDLDR
[0012843A] Loading Vxd = VDEF
[0012843A] LoadSuccess = VDEF
[0012843A] Loading Vxd = VPICD
[0012843A] LoadSuccess = VPICD
[0012843A] Loading Vxd = VTD
[0012843A] LoadSuccess = VTD
[0012843A] Loading Vxd = REBOOT
[0012843A] LoadSuccess = REBOOT
[0012843A] Loading Vxd = VDMAD
[0012843A] LoadSuccess = VDMAD
[0012843A] Loading Vxd = VSD
[0012843A] LoadSuccess = VSD
[0012843A] Loading Vxd = V86MMGR
[0012843A] LoadSuccess = V86MMGR
[0012843A] Loading Vxd = PAGESWAP
[0012843A] LoadSuccess = PAGESWAP
[0012843A] Loading Vxd = DOSMGR
[0012843A] LoadSuccess = DOSMGR
[0012843A] Loading Vxd = VMPOLL
[0012843A] LoadSuccess = VMPOLL
[0012843A] Loading Vxd = SHELL
[0012843A] LoadSuccess = SHELL
[0012843A] Loading Vxd = PARITY
[0012843A] LoadSuccess = PARITY
[0012843A] Loading Vxd = BIOSXLAT
[0012843A] LoadSuccess = BIOSXLAT
[0012843A] Loading Vxd = VMCPD
[0012843A] LoadSuccess = VMCPD
[0012843A] Loading Vxd = VTDAPI
[0012843A] LoadSuccess = VTDAPI
[0012843A] Loading Vxd = PERF
[0012843A] LoadSuccess = PERF
[0012843A] Loading Vxd = VxDMon
[0012843A] LoadSuccess = VxDMon
[0012843B] Loading Vxd = vnetbios.vxd
[0012843A] LoadSuccess = vnetbios.vxd
[0012843B] Loading Vxd = VgartD.VxD
[0012843A] LoadSuccess = VgartD.VxD
[0012843A] Loading Vxd = smclib.vxd
[0012843A] LoadSuccess = smclib.vxd
[0012843B] Loading Vxd = ebios
[0012843B] LoadSuccess = ebios
[0012843B] Loading Vxd = vmouse
[0012843B] LoadSuccess = vmouse
[0012843B] Loading Vxd = msmouse.vxd
[0012843A] LoadSuccess = msmouse.vxd
[0012843A] Loading Vxd = dynapage
[0012843A] LoadSuccess = dynapage
[0012843A] Loading Vxd = vcd
[0012843A] LoadSuccess = vcd
[0012843A] Loading Vxd = vpd
[0012843A] LoadSuccess = vpd
[0012843A] Loading Vxd = int13
[0012843A] LoadSuccess = int13
[0012843A] Loading Vxd = enable
[0012843A] LoadSuccess = enable
[0012843A] Loading Vxd = vkd
[0012843A] LoadSuccess = vkd
[0012843A] Loading Vxd = vdd
[0012843A] LoadSuccess = vdd
[0012843A] Loading Vxd = vflatd
[0012843A] LoadSuccess = vflatd
[0012843A] SYSCRITINIT  = VMM     
[0012843A] SYSCRITINITSUCCESS  = VMM     
[0012843A] SYSCRITINIT  = MTRR    
[0012843A] SYSCRITINITSUCCESS  = MTRR    
[0012843A] SYSCRITINIT  = VCACHE  
[0012843A] SYSCRITINITSUCCESS  = VCACHE  
[0012843A] SYSCRITINIT  = VGARTD  
[0012843A] SYSCRITINITSUCCESS  = VGARTD  
[0012843A] SYSCRITINIT  = PERF    
[0012843A] SYSCRITINITSUCCESS  = PERF    
[0012843A] SYSCRITINIT  = VPOWERD 
[0012843A] SYSCRITINITSUCCESS  = VPOWERD 
[0012843A] SYSCRITINIT  = VPICD   
[0012843A] SYSCRITINITSUCCESS  = VPICD   
[0012843A] SYSCRITINIT  = VTD     
[0012843A] SYSCRITINITSUCCESS  = VTD     
[0012843A] SYSCRITINIT  = VWIN32  
[0012843A] SYSCRITINITSUCCESS  = VWIN32  
[0012843A] SYSCRITINIT  = VXDLDR  
[0012843A] SYSCRITINITSUCCESS  = VXDLDR  
[0012843A] SYSCRITINIT  = NTKERN  
[0012843A] SYSCRITINITSUCCESS  = NTKERN  
[0012843A] SYSCRITINIT  = CONFIGMG
[0012843A] SYSCRITINITSUCCESS  = CONFIGMG
[0012843A] SYSCRITINIT  = VCDFSD  
[0012843A] SYSCRITINITSUCCESS  = VCDFSD  
[0012843A] SYSCRITINIT  = IOS     
[0012843A] SYSCRITINITSUCCESS  = IOS     
[0012843A] SYSCRITINIT  = PAGEFILE
[0012843A] SYSCRITINITSUCCESS  = PAGEFILE
[0012843A] SYSCRITINIT  = PAGESWAP
[0012843A] SYSCRITINITSUCCESS  = PAGESWAP
[0012843A] SYSCRITINIT  = PARITY  
[0012843A] SYSCRITINITSUCCESS  = PARITY  
[0012843A] SYSCRITINIT  = REBOOT  
[0012843A] SYSCRITINITSUCCESS  = REBOOT  
[0012843A] SYSCRITINIT  = EBIOS   
[0012843A] SYSCRITINITSUCCESS  = EBIOS   
[0012843A] SYSCRITINIT  = VDD     
[0012843A] SYSCRITINITSUCCESS  = VDD     
[0012843A] SYSCRITINIT  = VSD     
[0012843A] SYSCRITINITSUCCESS  = VSD     
[0012843A] SYSCRITINIT  = COMBUFF 
[0012843A] SYSCRITINITSUCCESS  = COMBUFF 
[0012843A] SYSCRITINIT  = VCD     
[0012843A] SYSCRITINITSUCCESS  = VCD     
[0012843A] SYSCRITINIT  = VMOUSE  
[0012843A] SYSCRITINITSUCCESS  = VMOUSE  
[0012843A] SYSCRITINIT  = MSMINI  
[0012843A] SYSCRITINITSUCCESS  = MSMINI  
[0012843A] SYSCRITINIT  = ENABLE  
[0012843A] SYSCRITINITSUCCESS  = ENABLE  
[0012843A] SYSCRITINIT  = VKD     
[0012843A] SYSCRITINITSUCCESS  = VKD     
[0012843A] SYSCRITINIT  = VPD     
[0012843A] SYSCRITINITSUCCESS  = VPD     
[0012843A] SYSCRITINIT  = INT13   
[0012843A] SYSCRITINITSUCCESS  = INT13   
[0012843A] SYSCRITINIT  = VMCPD   
[0012843A] SYSCRITINITSUCCESS  = VMCPD   
[0012843A] SYSCRITINIT  = BIOSXLAT
[0012843A] SYSCRITINITSUCCESS  = BIOSXLAT
[0012843A] SYSCRITINIT  = VNETBIOS
[0012843A] SYSCRITINITSUCCESS  = VNETBIOS
[0012843A] SYSCRITINIT  = NDIS    
[0012843A] SYSCRITINITSUCCESS  = NDIS    
[0012843A] SYSCRITINIT  = DOSMGR  
[0012843A] SYSCRITINITSUCCESS  = DOSMGR  
[0012843A] SYSCRITINIT  = VMPOLL  
[0012843A] SYSCRITINITSUCCESS  = VMPOLL  
[0012843A] SYSCRITINIT  = SMCLIB  
[0012843A] SYSCRITINITSUCCESS  = SMCLIB  
[0012843A] SYSCRITINIT  = JAVASUP 
[0012843A] SYSCRITINITSUCCESS  = JAVASUP 
[0012843A] SYSCRITINIT  = VCOMM   
[0012843A] SYSCRITINITSUCCESS  = VCOMM   
[0012843A] SYSCRITINIT  = VCOND   
[0012843A] SYSCRITINITSUCCESS  = VCOND   
[0012843A] SYSCRITINIT  = VTDAPI  
[0012843A] SYSCRITINITSUCCESS  = VTDAPI  
[0012843A] SYSCRITINIT  = VXDMON  
[0012843A] SYSCRITINITSUCCESS  = VXDMON  
[0012843A] SYSCRITINIT  = VFLATD  
[0012843A] SYSCRITINITSUCCESS  = VFLATD  
[0012843A] SYSCRITINIT  = VDMAD   
[0012843A] SYSCRITINITSUCCESS  = VDMAD   
[0012843A] SYSCRITINIT  = V86MMGR 
[0012843A] SYSCRITINITSUCCESS  = V86MMGR 
[0012843A] SYSCRITINIT  = SPOOLER 
[0012843A] SYSCRITINITSUCCESS  = SPOOLER 
[0012843A] SYSCRITINIT  = UDF     
[0012843A] SYSCRITINITSUCCESS  = UDF     
[0012843A] SYSCRITINIT  = VFAT    
[0012843A] SYSCRITINITSUCCESS  = VFAT    
[0012843A] SYSCRITINIT  = VDEF    
[0012843A] SYSCRITINITSUCCESS  = VDEF    
[0012843A] SYSCRITINIT  = IFSMGR  
[0012843A] SYSCRITINITSUCCESS  = IFSMGR  
[0012843A] SYSCRITINIT  = VFBACKUP
[0012843A] SYSCRITINITSUCCESS  = VFBACKUP
[0012843A] SYSCRITINIT  = SHELL   
[0012843A] SYSCRITINITSUCCESS  = SHELL   
[0012843A] DEVICEINIT   = VMM     
[0012843A] DEVICEINITSUCCESS   = VMM     
[0012843A] DEVICEINIT   = MTRR    
[0012843A] DEVICEINITSUCCESS   = MTRR    
[0012843A] DEVICEINIT   = VCACHE  
[0012843A] DEVICEINITSUCCESS   = VCACHE  
[0012843B] DEVICEINIT   = VGARTD  
[0012843B] DEVICEINITSUCCESS   = VGARTD  
[0012843B] DEVICEINIT   = PERF    
[0012843B] DEVICEINITSUCCESS   = PERF    
[0012843B] DEVICEINIT   = VPOWERD 
[0012843B] DEVICEINITSUCCESS   = VPOWERD 
[0012843B] DEVICEINIT   = VPICD   
[0012843B] DEVICEINITSUCCESS   = VPICD   
[0012843B] DEVICEINIT   = VTD     
[0012843B] DEVICEINITSUCCESS   = VTD     
[0012843B] DEVICEINIT   = VWIN32  
[0012843B] DEVICEINITSUCCESS   = VWIN32  
[0012843B] DEVICEINIT   = VXDLDR  
[0012843B] DEVICEINITSUCCESS   = VXDLDR  
[0012843B] DEVICEINIT   = NTKERN  
[0012844F] DEVICEINITSUCCESS   = NTKERN  
[0012844F] DEVICEINIT   = CONFIGMG
[0012844F] Starting Unknown (HTREE\RESERVED\0)
[0012844F] Started Unknown (HTREE\RESERVED\0)
[0012844F] Starting Unknown (HTREE\ROOT\0)
[0012844F] Started Unknown (HTREE\ROOT\0)
[0012844F] Enumerating Unknown (HTREE\ROOT\0)
[0012844F] Enumerated Unknown (HTREE\ROOT\0)
[0012844F] Loading PNP drivers of Plug and Play Software Device Enumerator (ROOT\SWENUM\0000)
[0012844E] Loaded PNP drivers of Plug and Play Software Device Enumerator (ROOT\SWENUM\0000)
[0012844D] Loading PNP drivers of Dial-Up Adapter (ROOT\NET\0000)
[0012844D] Loading PNP drivers of Advanced Configuration and Power Interface (ACPI) BIOS (ROOT\*PNP0C08\0000)
[0012844E] Dynamic load device  PCI.VXD
[0012844D] Dynamic init device  PCI
[0012844D] Dynamic init success PCI
[0012844D] Dynamic load success PCI.VXD
[0012844D] Loading PNP drivers of System board (ROOT\*PNP0C01\0000)
[0012844D] Loaded PNP drivers of System board (ROOT\*PNP0C01\0000)
[0012844D] Loading PNP drivers of Processor support (ROOT\PROCESSOR_UPDATE\0000)
[0012844D] Loaded PNP drivers of Processor support (ROOT\PROCESSOR_UPDATE\0000)
[0012844D] Starting Plug and Play Software Device Enumerator (ROOT\SWENUM\0000)
[0012844D] Started Plug and Play Software Device Enumerator (ROOT\SWENUM\0000)
[0012844D] Starting Advanced Configuration and Power Interface (ACPI) BIOS (ROOT\*PNP0C08\0000)
[0012844D] Started Advanced Configuration and Power Interface (ACPI) BIOS (ROOT\*PNP0C08\0000)
[0012844D] Starting System board (ROOT\*PNP0C01\0000)
[0012844D] Started System board (ROOT\*PNP0C01\0000)
[0012844D] Starting Processor support (ROOT\PROCESSOR_UPDATE\0000)
[0012844D] Started Processor support (ROOT\PROCESSOR_UPDATE\0000)
[0012844D] Enumerating Plug and Play Software Device Enumerator (ROOT\SWENUM\0000)
[0012844D] Enumerated Plug and Play Software Device Enumerator (ROOT\SWENUM\0000)
[0012844D] Enumerating Advanced Configuration and Power Interface (ACPI) BIOS (ROOT\*PNP0C08\0000)
[0012844D] Starting SCI IRQ used by ACPI bus (ACPI\ACPI_INTERRUPT\0)
[0012844D] Started SCI IRQ used by ACPI bus (ACPI\ACPI_INTERRUPT\0)
[0012844D] Enumerating Processor support (ROOT\PROCESSOR_UPDATE\0000)
[0012844D] Enumerated Processor support (ROOT\PROCESSOR_UPDATE\0000)
[0012844D] Enumerated Advanced Configuration and Power Interface (ACPI) BIOS (ROOT\*PNP0C08\0000)
[0012844D] Loading PNP drivers of Composite Power Source (ACPI\COMPBATT\ROOT&*PNP0C08&0000)
[0012844D] Loaded PNP drivers of Composite Power Source (ACPI\COMPBATT\ROOT&*PNP0C08&0000)
[0012844D] Loading PNP drivers of ACPI System Button (ACPI\BUTTON\ROOT&*PNP0C08&0000)
[0012844D] Loaded PNP drivers of ACPI System Button (ACPI\BUTTON\ROOT&*PNP0C08&0000)
[0012844D] Loading PNP drivers of System board extension for ACPI BIOS (ACPI\*PNP0C01\0)
[0012844D] Loaded PNP drivers of System board extension for ACPI BIOS (ACPI\*PNP0C01\0)
[0012844D] Loading PNP drivers of PCI bus (ACPI\*PNP0A03\0)
[0012844D] Dynamic load device  pci.vxd
[0012844D] Dynamic init device  PCI
[0012844D] Dynamic init success PCI
[0012844D] Dynamic load success pci.vxd
[0012844D] Loading PNP drivers of Numeric data processor (ACPI\*PNP0C04\0)
[0012844D] Loaded PNP drivers of Numeric data processor (ACPI\*PNP0C04\0)
[0012844D] Loading PNP drivers of System timer (ACPI\*PNP0100\0)
[0012844D] Loaded PNP drivers of System timer (ACPI\*PNP0100\0)
[0012844D] Loading PNP drivers of Direct memory access controller (ACPI\*PNP0200\0)
[0012844D] Loaded PNP drivers of Direct memory access controller (ACPI\*PNP0200\0)
[0012844D] Loading PNP drivers of System CMOS/real time clock (ACPI\*PNP0B00\0)
[0012844D] Loaded PNP drivers of System CMOS/real time clock (ACPI\*PNP0B00\0)
[0012844D] Loading PNP drivers of System speaker (ACPI\*PNP0800\0)
[0012844D] Loaded PNP drivers of System speaker (ACPI\*PNP0800\0)
[0012844D] Loading PNP drivers of PS/2 Compatible Mouse Port (ACPI\*PNP0F13\0)
[0012844D] Loading PNP drivers of Standard 101/102-Key or Microsoft Natural Keyboard (ACPI\*PNP0303\0)
[0012844D] Loaded PNP drivers of Standard 101/102-Key or Microsoft Natural Keyboard (ACPI\*PNP0303\0)
[0012844D] Starting Composite Power Source (ACPI\COMPBATT\ROOT&*PNP0C08&0000)
[0012844D] Started Composite Power Source (ACPI\COMPBATT\ROOT&*PNP0C08&0000)
[0012844D] Starting ACPI System Button (ACPI\BUTTON\ROOT&*PNP0C08&0000)
[0012844D] Started ACPI System Button (ACPI\BUTTON\ROOT&*PNP0C08&0000)
[0012844D] Starting ACPI Power Button (ACPI\*PNP0C0C\00000001)
[0012844D] Started ACPI Power Button (ACPI\*PNP0C0C\00000001)
[0012844D] Starting System board extension for ACPI BIOS (ACPI\*PNP0C01\0)
[0012844D] Started System board extension for ACPI BIOS (ACPI\*PNP0C01\0)
[0012844D] Starting PCI bus (ACPI\*PNP0A03\0)
[0012844D] Started PCI bus (ACPI\*PNP0A03\0)
[0012844D] Starting Motherboard resources (ACPI\*PNP0C02\00000001)
[0012844D] Started Motherboard resources (ACPI\*PNP0C02\00000001)
[0012844D] Starting Numeric data processor (ACPI\*PNP0C04\0)
[0012844D] Started Numeric data processor (ACPI\*PNP0C04\0)
[0012844D] Starting Programmable interrupt controller (ACPI\*PNP0000\0)
[0012844D] Started Programmable interrupt controller (ACPI\*PNP0000\0)
[0012844D] Starting System timer (ACPI\*PNP0100\0)
[0012844D] Started System timer (ACPI\*PNP0100\0)
[0012844D] Starting Direct memory access controller (ACPI\*PNP0200\0)
[0012844D] Started Direct memory access controller (ACPI\*PNP0200\0)
[0012844D] Starting System CMOS/real time clock (ACPI\*PNP0B00\0)
[0012844D] Started System CMOS/real time clock (ACPI\*PNP0B00\0)
[0012844D] Starting System speaker (ACPI\*PNP0800\0)
[0012844D] Started System speaker (ACPI\*PNP0800\0)
[0012844D] Starting Standard 101/102-Key or Microsoft Natural Keyboard (ACPI\*PNP0303\0)
[0012844D] Started Standard 101/102-Key or Microsoft Natural Keyboard (ACPI\*PNP0303\0)
[0012844D] Enumerating Composite Power Source (ACPI\COMPBATT\ROOT&*PNP0C08&0000)
[0012844D] Enumerated Composite Power Source (ACPI\COMPBATT\ROOT&*PNP0C08&0000)
[0012844D] Enumerating ACPI System Button (ACPI\BUTTON\ROOT&*PNP0C08&0000)
[0012844D] Enumerated ACPI System Button (ACPI\BUTTON\ROOT&*PNP0C08&0000)
[0012844D] Enumerating PCI bus (ACPI\*PNP0A03\0)
[0012844D] Starting Intel(r) 82810e DC-133 System and Graphics Controller (PCI\VEN_8086&DEV_7124&SUBSYS_00000000&REV_03\BUS_00&DEV_00&FUNC_00)
[0012844D] Started Intel(r) 82810e DC-133 System and Graphics Controller (PCI\VEN_8086&DEV_7124&SUBSYS_00000000&REV_03\BUS_00&DEV_00&FUNC_00)
[0012844D] Starting Intel 82801AA PCI Bridge (PCI\VEN_8086&DEV_2418&SUBSYS_00000000&REV_02\BUS_00&DEV_1E&FUNC_00)
[0012844D] Started Intel 82801AA PCI Bridge (PCI\VEN_8086&DEV_2418&SUBSYS_00000000&REV_02\BUS_00&DEV_1E&FUNC_00)
[0012844D] Enumerating Standard 101/102-Key or Microsoft Natural Keyboard (ACPI\*PNP0303\0)
[0012844D] Enumerated Standard 101/102-Key or Microsoft Natural Keyboard (ACPI\*PNP0303\0)
[0012844D] Enumerating Intel 82801AA PCI Bridge (PCI\VEN_8086&DEV_2418&SUBSYS_00000000&REV_02\BUS_00&DEV_1E&FUNC_00)
[0012844D] Enumerated Intel 82801AA PCI Bridge (PCI\VEN_8086&DEV_2418&SUBSYS_00000000&REV_02\BUS_00&DEV_1E&FUNC_00)
[0012844D] Enumerated PCI bus (ACPI\*PNP0A03\0)
[0012844D] Loading PNP drivers of Intel 82801AA LPC Interface Controller (PCI\VEN_8086&DEV_2410&SUBSYS_00000000&REV_02\BUS_00&DEV_1F&FUNC_00)
[0012844D] Dynamic load device  isapnp.vxd
[0012844D] Dynamic init device  ISAPNP
[0012844D] Dynamic init success ISAPNP
[0012844D] Dynamic load success isapnp.vxd
[0012844D] Starting Intel 82801AA LPC Interface Controller (PCI\VEN_8086&DEV_2410&SUBSYS_00000000&REV_02\BUS_00&DEV_1F&FUNC_00)
[0012844D] Started Intel 82801AA LPC Interface Controller (PCI\VEN_8086&DEV_2410&SUBSYS_00000000&REV_02\BUS_00&DEV_1F&FUNC_00)
[0012844D] Enumerating Intel 82801AA LPC Interface Controller (PCI\VEN_8086&DEV_2410&SUBSYS_00000000&REV_02\BUS_00&DEV_1F&FUNC_00)
[0012844D] Enumerated Intel 82801AA LPC Interface Controller (PCI\VEN_8086&DEV_2410&SUBSYS_00000000&REV_02\BUS_00&DEV_1F&FUNC_00)
[0012844D] Starting IO read data port for ISA Plug and Play enumerator (ISAPNP\READDATAPORT\0)
[0012844D] Started IO read data port for ISA Plug and Play enumerator (ISAPNP\READDATAPORT\0)
[0012844D] Loaded PNP drivers of Intel 82801AA LPC Interface Controller (PCI\VEN_8086&DEV_2410&SUBSYS_00000000&REV_02\BUS_00&DEV_1F&FUNC_00)
[0012844D] Loaded PNP drivers of PCI bus (ACPI\*PNP0A03\0)
[0012844D] Loaded PNP drivers of Advanced Configuration and Power Interface (ACPI) BIOS (ROOT\*PNP0C08\0000)
[0012844D] Enumerating Intel 82801AA LPC Interface Controller (PCI\VEN_8086&DEV_2410&SUBSYS_00000000&REV_02\BUS_00&DEV_1F&FUNC_00)
[0012844F] Removing Unknown ()
[0012844F] Removed Unknown ()
[0012844F] Enumerated Intel 82801AA LPC Interface Controller (PCI\VEN_8086&DEV_2410&SUBSYS_00000000&REV_02\BUS_00&DEV_1F&FUNC_00)
[0012844F] DEVICEINITSUCCESS   = CONFIGMG
[0012844F] Loading PNP drivers of ACPI IRQ Holder for PCI IRQ Steering (ACPI\*PNP0C0F\00000001)
[0012844F] Dynamic load device  PCI.VxD
[0012844F] Dynamic init device  PCI
[0012844D] Dynamic init success PCI
[0012844D] Dynamic load success PCI.VxD
[0012844D] Loading PNP drivers of ACPI IRQ Holder for PCI IRQ Steering (ACPI\*PNP0C0F\00000002)
[0012844D] Dynamic load device  PCI.VxD
[0012844E] Dynamic init device  PCI
[0012844E] Dynamic init success PCI
[0012844E] Dynamic load success PCI.VxD
[0012844E] Loading PNP drivers of ACPI IRQ Holder for PCI IRQ Steering (ACPI\*PNP0C0F\00000003)
[0012844E] Dynamic load device  PCI.VxD
[0012844E] Dynamic init device  PCI
[0012845F] Dynamic init success PCI
[0012845F] Dynamic load success PCI.VxD
[0012845F] Loading PNP drivers of ACPI IRQ Holder for PCI IRQ Steering (ACPI\*PNP0C0F\00000004)
[0012845F] Dynamic load device  PCI.VxD
[0012845F] Dynamic init device  PCI
[0012845F] Dynamic init success PCI
[0012845F] Dynamic load success PCI.VxD
[0012845F] Loading PNP drivers of ECP Printer Port (LPT1) (ACPI\*PNP0401\00000001)
[0012845F] Loaded PNP drivers of ECP Printer Port (LPT1) (ACPI\*PNP0401\00000001)
[0012845F] Loading PNP drivers of Communications Port (COM1) (ACPI\*PNP0501\00000001)
[0012845F] Loaded PNP drivers of Communications Port (COM1) (ACPI\*PNP0501\00000001)
[0012845F] Loading PNP drivers of MPU-401 Compatible MIDI Device (ACPI\*PNPB006\00000001)
[0012845F] Dynamic load device  mmdevldr.vxd
[0012845F] Dynamic init device  MMDEVLDR
[0012845F] Dynamic init success MMDEVLDR
[0012845F] Dynamic load success mmdevldr.vxd
[0012845F] Loading PNP drivers of Gameport Joystick (ACPI\*PNPB02F\00000001)
[0012845F] Dynamic load device  mmdevldr.vxd
[0012845F] Dynamic init device  MMDEVLDR
[0012845F] Dynamic init success MMDEVLDR
[0012845F] Dynamic load success mmdevldr.vxd
[0012845F] Loading PNP drivers of Standard Floppy Disk Controller (ACPI\*PNP0700\00000001)
[0012845F] Loading PNP drivers of Intel 82801AA Bus Master IDE Controller (PCI\VEN_8086&DEV_2411&SUBSYS_24118086&REV_02\BUS_00&DEV_1F&FUNC_01)
[0012845F] Loaded PNP drivers of Intel 82801AA Bus Master IDE Controller (PCI\VEN_8086&DEV_2411&SUBSYS_24118086&REV_02\BUS_00&DEV_1F&FUNC_01)
[0012845F] Starting ACPI IRQ Holder for PCI IRQ Steering (ACPI\*PNP0C0F\00000001)
[0012845F] Started ACPI IRQ Holder for PCI IRQ Steering (ACPI\*PNP0C0F\00000001)
[0012845F] Loading PNP drivers of Intel(r) 82810E Graphics Controller (PCI\VEN_8086&DEV_7125&SUBSYS_B1650E11&REV_03\BUS_00&DEV_01&FUNC_00)
[0012845F] Loaded PNP drivers of Intel(r) 82810E Graphics Controller (PCI\VEN_8086&DEV_7125&SUBSYS_B1650E11&REV_03\BUS_00&DEV_01&FUNC_00)
[0012845F] Starting ACPI IRQ Holder for PCI IRQ Steering (ACPI\*PNP0C0F\00000002)
[0012845F] Started ACPI IRQ Holder for PCI IRQ Steering (ACPI\*PNP0C0F\00000002)
[0012845F] Loading PNP drivers of ESS Allegro PCI Audio (WDM) (PCI\VEN_125D&DEV_1988&SUBSYS_B19D0E11&REV_12\28F000)
[00128460] Dynamic load device  mmdevldr.vxd
[0012845F] Dynamic init device  MMDEVLDR
[0012845F] Dynamic init success MMDEVLDR
[0012845F] Dynamic load success mmdevldr.vxd
[0012845F] Loading PNP drivers of Realtek RTL8139(A)-based PCI Fast Ethernet Adapter (PCI\VEN_1113&DEV_1211&SUBSYS_9207103C&REV_10\48F000)
[0012845F] Starting ACPI IRQ Holder for PCI IRQ Steering (ACPI\*PNP0C0F\00000003)
[0012845F] Started ACPI IRQ Holder for PCI IRQ Steering (ACPI\*PNP0C0F\00000003)
[0012845F] Loading PNP drivers of HSP56 WDM DEVICE (PCI\VEN_134D&DEV_7897&SUBSYS_0001134D&REV_02\50F000)
[0012845F] Loaded PNP drivers of HSP56 WDM DEVICE (PCI\VEN_134D&DEV_7897&SUBSYS_0001134D&REV_02\50F000)
[0012845F] Starting ACPI IRQ Holder for PCI IRQ Steering (ACPI\*PNP0C0F\00000004)
[0012845F] Started ACPI IRQ Holder for PCI IRQ Steering (ACPI\*PNP0C0F\00000004)
[0012845F] Loading PNP drivers of Intel(r) 82801AA USB Universal Host Controller (PCI\VEN_8086&DEV_2412&SUBSYS_24128086&REV_02\BUS_00&DEV_1F&FUNC_02)
[0012845F] Loaded PNP drivers of Intel(r) 82801AA USB Universal Host Controller (PCI\VEN_8086&DEV_2412&SUBSYS_24128086&REV_02\BUS_00&DEV_1F&FUNC_02)
[0012845F] Starting ECP Printer Port (LPT1) (ACPI\*PNP0401\00000001)
[0012845F] Started ECP Printer Port (LPT1) (ACPI\*PNP0401\00000001)
[0012845F] Starting Communications Port (COM1) (ACPI\*PNP0501\00000001)
[0012845F] Started Communications Port (COM1) (ACPI\*PNP0501\00000001)
[0012845F] Starting Intel 82801AA Bus Master IDE Controller (PCI\VEN_8086&DEV_2411&SUBSYS_24118086&REV_02\BUS_00&DEV_1F&FUNC_01)
[0012845F] Started Intel 82801AA Bus Master IDE Controller (PCI\VEN_8086&DEV_2411&SUBSYS_24118086&REV_02\BUS_00&DEV_1F&FUNC_01)
[0012845F] Starting Intel(r) 82810E Graphics Controller (PCI\VEN_8086&DEV_7125&SUBSYS_B1650E11&REV_03\BUS_00&DEV_01&FUNC_00)
[0012845F] Dynamic load device  i81x.vxd
[00128460] Dynamic init device  I81X
[00128460] Dynamic init success I81X
[00128460] Dynamic load success i81x.vxd
[00128472] Started Intel(r) 82810E Graphics Controller (PCI\VEN_8086&DEV_7125&SUBSYS_B1650E11&REV_03\BUS_00&DEV_01&FUNC_00)
[00128472] Starting Intel 82801AA SMBus Controller (PCI\VEN_8086&DEV_2413&SUBSYS_24138086&REV_02\BUS_00&DEV_1F&FUNC_03)
[00128472] Started Intel 82801AA SMBus Controller (PCI\VEN_8086&DEV_2413&SUBSYS_24138086&REV_02\BUS_00&DEV_1F&FUNC_03)
[00128472] Starting Intel(r) 82801AA USB Universal Host Controller (PCI\VEN_8086&DEV_2412&SUBSYS_24128086&REV_02\BUS_00&DEV_1F&FUNC_02)
[00128472] Started Intel(r) 82801AA USB Universal Host Controller (PCI\VEN_8086&DEV_2412&SUBSYS_24128086&REV_02\BUS_00&DEV_1F&FUNC_02)
[00128472] Starting HSP56 WDM DEVICE (PCI\VEN_134D&DEV_7897&SUBSYS_0001134D&REV_02\50F000)
[00128472] Started HSP56 WDM DEVICE (PCI\VEN_134D&DEV_7897&SUBSYS_0001134D&REV_02\50F000)
[00128472] Enumerating Intel 82801AA Bus Master IDE Controller (PCI\VEN_8086&DEV_2411&SUBSYS_24118086&REV_02\BUS_00&DEV_1F&FUNC_01)
[00128472] Enumerated Intel 82801AA Bus Master IDE Controller (PCI\VEN_8086&DEV_2411&SUBSYS_24118086&REV_02\BUS_00&DEV_1F&FUNC_01)
[00128472] Loading PNP drivers of Primary IDE controller (dual fifo) (MF\CHILD0000\PCI&VEN_8086&DEV_2411&SUBSYS_24118086&REV_02&BUS_00&DEV_1F&FUNC_01)
[00128472] Loading PNP drivers of Secondary IDE controller (dual fifo) (MF\CHILD0001\PCI&VEN_8086&DEV_2411&SUBSYS_24118086&REV_02&BUS_00&DEV_1F&FUNC_01)
[00128472] Enumerating Intel(r) 82810E Graphics Controller (PCI\VEN_8086&DEV_7125&SUBSYS_B1650E11&REV_03\BUS_00&DEV_01&FUNC_00)
[00128473] Enumerated Intel(r) 82810E Graphics Controller (PCI\VEN_8086&DEV_7125&SUBSYS_B1650E11&REV_03\BUS_00&DEV_01&FUNC_00)
[00128473] Starting Plug and Play Monitor (MONITOR\SNY0290\PCI_VEN_8086&DEV_7125&SUBSYS_B1650E11&REV_03_BUS_00&DEV_01&FUNC_00)
[00128473] Started Plug and Play Monitor (MONITOR\SNY0290\PCI_VEN_8086&DEV_7125&SUBSYS_B1650E11&REV_03_BUS_00&DEV_01&FUNC_00)
[00128473] Enumerating Intel(r) 82801AA USB Universal Host Controller (PCI\VEN_8086&DEV_2412&SUBSYS_24128086&REV_02\BUS_00&DEV_1F&FUNC_02)
[00128473] Enumerated Intel(r) 82801AA USB Universal Host Controller (PCI\VEN_8086&DEV_2412&SUBSYS_24128086&REV_02\BUS_00&DEV_1F&FUNC_02)
[00128473] Loading PNP drivers of USB Root Hub (USB\ROOT_HUB\PCI&VEN_8086&DEV_2412&SUBSYS_24128086&REV_02&BUS_00&DEV_1F&FUNC_02)
[00128474] Loaded PNP drivers of USB Root Hub (USB\ROOT_HUB\PCI&VEN_8086&DEV_2412&SUBSYS_24128086&REV_02&BUS_00&DEV_1F&FUNC_02)
[00128474] Starting USB Root Hub (USB\ROOT_HUB\PCI&VEN_8086&DEV_2412&SUBSYS_24128086&REV_02&BUS_00&DEV_1F&FUNC_02)
[00128472] Started USB Root Hub (USB\ROOT_HUB\PCI&VEN_8086&DEV_2412&SUBSYS_24128086&REV_02&BUS_00&DEV_1F&FUNC_02)
[00128472] Enumerating HSP56 WDM DEVICE (PCI\VEN_134D&DEV_7897&SUBSYS_0001134D&REV_02\50F000)
[00128472] Enumerated HSP56 WDM DEVICE (PCI\VEN_134D&DEV_7897&SUBSYS_0001134D&REV_02\50F000)
[00128472] Loading PNP drivers of PCTEL Platinum V.90 Modem (WDM_MODEM\PCT0001\WDMMDM0)
[00128472] Loaded PNP drivers of PCTEL Platinum V.90 Modem (WDM_MODEM\PCT0001\WDMMDM0)
[00128472] Starting PCTEL Platinum V.90 Modem (WDM_MODEM\PCT0001\WDMMDM0)
[00128472] Dynamic load device  0
[00128473] Dynamic load failed  0 : [00128473] File not found
[00128473] Started PCTEL Platinum V.90 Modem (WDM_MODEM\PCT0001\WDMMDM0)
[00128473] Enumerating USB Root Hub (USB\ROOT_HUB\PCI&VEN_8086&DEV_2412&SUBSYS_24128086&REV_02&BUS_00&DEV_1F&FUNC_02)
[0012847A] Enumerated USB Root Hub (USB\ROOT_HUB\PCI&VEN_8086&DEV_2412&SUBSYS_24128086&REV_02&BUS_00&DEV_1F&FUNC_02)
[0012847A] Loading PNP drivers of Generic USB Hub (USB\VID_0451&PID_2046\INST_0)
[0012847A] Loaded PNP drivers of Generic USB Hub (USB\VID_0451&PID_2046\INST_0)
[0012847A] Starting Generic USB Hub (USB\VID_0451&PID_2046\INST_0)
[00128483] Started Generic USB Hub (USB\VID_0451&PID_2046\INST_0)
[00128483] Enumerating Generic USB Hub (USB\VID_0451&PID_2046\INST_0)
[00128484] Enumerated Generic USB Hub (USB\VID_0451&PID_2046\INST_0)
[00128484] Loaded PNP drivers of ACPI IRQ Holder for PCI IRQ Steering (ACPI\*PNP0C0F\00000004)
[00128484] Loaded PNP drivers of ACPI IRQ Holder for PCI IRQ Steering (ACPI\*PNP0C0F\00000003)
[00128484] Loaded PNP drivers of ACPI IRQ Holder for PCI IRQ Steering (ACPI\*PNP0C0F\00000002)
[00128484] Loaded PNP drivers of ACPI IRQ Holder for PCI IRQ Steering (ACPI\*PNP0C0F\00000001)
[00128484] DEVICEINIT   = ACPI    
[00128484] DEVICEINITSUCCESS   = ACPI    
[00128484] DEVICEINIT   = VCDFSD  
[00128484] DEVICEINITSUCCESS   = VCDFSD  
[00128484] DEVICEINIT   = IOS     
[00128488] Dynamic load device  C:\WINDOWS\system\IOSUBSYS\apix.vxd
[00128488] Dynamic load success C:\WINDOWS\system\IOSUBSYS\apix.vxd
[00128484] Dynamic load device  C:\WINDOWS\system\IOSUBSYS\atapchng.vxd
[00128484] Dynamic load success C:\WINDOWS\system\IOSUBSYS\atapchng.vxd
[00128484] Dynamic load device  C:\WINDOWS\system\IOSUBSYS\cdfs.vxd
[00128484] Dynamic load success C:\WINDOWS\system\IOSUBSYS\cdfs.vxd
[00128484] Dynamic load device  C:\WINDOWS\system\IOSUBSYS\cdtsd.vxd
[00128484] Dynamic load success C:\WINDOWS\system\IOSUBSYS\cdtsd.vxd
[00128484] Dynamic load device  C:\WINDOWS\system\IOSUBSYS\cdvsd.vxd
[00128484] Dynamic load success C:\WINDOWS\system\IOSUBSYS\cdvsd.vxd
[00128484] Dynamic load device  C:\WINDOWS\system\IOSUBSYS\disktsd.vxd
[00128484] Dynamic load success C:\WINDOWS\system\IOSUBSYS\disktsd.vxd
[00128484] Dynamic load device  C:\WINDOWS\system\IOSUBSYS\diskvsd.vxd
[00128484] Dynamic load success C:\WINDOWS\system\IOSUBSYS\diskvsd.vxd
[00128484] Dynamic load device  C:\WINDOWS\system\IOSUBSYS\necatapi.vxd
[00128496] Dynamic load success C:\WINDOWS\system\IOSUBSYS\necatapi.vxd
[00128496] Dynamic load device  C:\WINDOWS\system\IOSUBSYS\scsi1hlp.vxd
[00128496] Dynamic load success C:\WINDOWS\system\IOSUBSYS\scsi1hlp.vxd
[00128496] Dynamic load device  C:\WINDOWS\system\IOSUBSYS\torisan3.vxd
[00128496] Dynamic load success C:\WINDOWS\system\IOSUBSYS\torisan3.vxd
[00128496] Dynamic load device  C:\WINDOWS\system\IOSUBSYS\voltrack.vxd
[00128496] Dynamic load success C:\WINDOWS\system\IOSUBSYS\voltrack.vxd
[00128496] Dynamic load device  C:\WINDOWS\system\IOSUBSYS\rmm.pdr
[00128496] Dynamic load success C:\WINDOWS\system\IOSUBSYS\rmm.pdr
[00128496] Dynamic load device  C:\WINDOWS\system\IOSUBSYS\bigmem.drv
[00128496] Dynamic load success C:\WINDOWS\system\IOSUBSYS\bigmem.drv
[00128496] DEVICEINITSUCCESS   = IOS     
[00128496] DEVICEINIT   = PAGEFILE
[00128496] DEVICEINITSUCCESS   = PAGEFILE
[00128496] DEVICEINIT   = PAGESWAP
[00128496] DEVICEINITSUCCESS   = PAGESWAP
[00128496] DEVICEINIT   = PARITY  
[00128496] DEVICEINITSUCCESS   = PARITY  
[00128496] DEVICEINIT   = REBOOT  
[00128496] DEVICEINITSUCCESS   = REBOOT  
[00128496] DEVICEINIT   = EBIOS   
[00128496] DEVICEINITSUCCESS   = EBIOS   
[00128496] DEVICEINIT   = VDD     
[00128496] DEVICEINITSUCCESS   = VDD     
[00128496] DEVICEINIT   = VSD     
[00128496] DEVICEINITSUCCESS   = VSD     
[00128496] DEVICEINIT   = COMBUFF 
[00128496] DEVICEINITSUCCESS   = COMBUFF 
[00128496] DEVICEINIT   = VCD     
[00128496] DEVICEINITSUCCESS   = VCD     
[00128496] DEVICEINIT   = VMOUSE  
[00128496] DEVICEINITSUCCESS   = VMOUSE  
[00128496] Loading PNP drivers of PS/2 Compatible Mouse Port (ACPI\*PNP0F13\0)
[00128496] Loaded PNP drivers of PS/2 Compatible Mouse Port (ACPI\*PNP0F13\0)
[00128496] Starting PS/2 Compatible Mouse Port (ACPI\*PNP0F13\0)
[001284AA] Started PS/2 Compatible Mouse Port (ACPI\*PNP0F13\0)
[001284AA] DEVICEINIT   = MSMINI  
[001284AA] DEVICEINITSUCCESS   = MSMINI  
[001284AA] DEVICEINIT   = ENABLE  
[001284AA] DEVICEINITSUCCESS   = ENABLE  
[001284AA] DEVICEINIT   = VKD     
[001284AA] DEVICEINITSUCCESS   = VKD     
[001284AA] DEVICEINIT   = VPD     
[001284AA] DEVICEINITSUCCESS   = VPD     
[001284AA] DEVICEINIT   = INT13   
[001284AA] DEVICEINITSUCCESS   = INT13   
[001284AA] DEVICEINIT   = VMCPD   
[001284AA] DEVICEINITSUCCESS   = VMCPD   
[001284AA] DEVICEINIT   = BIOSXLAT
[001284AA] DEVICEINITSUCCESS   = BIOSXLAT
[001284AA] DEVICEINIT   = VNETBIOS
[001284AA] DEVICEINITSUCCESS   = VNETBIOS
[001284AA] DEVICEINIT   = NDIS    
[001284AA] DEVICEINITSUCCESS   = NDIS    
[001284A8] Loading PNP drivers of Dial-Up Adapter (ROOT\NET\0000)
[001284A8] Dynamic load device  pppmac.vxd
[001284AA] Dynamic init device  PPPMAC
[001284AA] Dynamic load device  C:\WINDOWS\system\spap.vxd
[001284BA] Dynamic init device  SPAP
[001284BA] Dynamic init success SPAP
[001284BA] Dynamic load success C:\WINDOWS\system\spap.vxd
[001284BA] Dynamic init success PPPMAC
[001284BA] Dynamic load success pppmac.vxd
[001284BA] Loaded PNP drivers of Dial-Up Adapter (ROOT\NET\0000)
[001284BA] Loading PNP drivers of Realtek RTL8139(A)-based PCI Fast Ethernet Adapter (PCI\VEN_1113&DEV_1211&SUBSYS_9207103C&REV_10\48F000)
[001284BB] Loaded PNP drivers of Realtek RTL8139(A)-based PCI Fast Ethernet Adapter (PCI\VEN_1113&DEV_1211&SUBSYS_9207103C&REV_10\48F000)
[001284BA] Starting Dial-Up Adapter (ROOT\NET\0000)
[001284BA] Started Dial-Up Adapter (ROOT\NET\0000)
[001284BA] Starting Realtek RTL8139(A)-based PCI Fast Ethernet Adapter (PCI\VEN_1113&DEV_1211&SUBSYS_9207103C&REV_10\48F000)
[001284BA] Started Realtek RTL8139(A)-based PCI Fast Ethernet Adapter (PCI\VEN_1113&DEV_1211&SUBSYS_9207103C&REV_10\48F000)
[001284BA] Enumerating Dial-Up Adapter (ROOT\NET\0000)
[001284BA] Enumerated Dial-Up Adapter (ROOT\NET\0000)
[001284BA] Loading PNP drivers of TCP/IP (NETWORK\MSTCP\0000)
[001284BB] Dynamic load device  vtdi.386
[001284BB] Dynamic init device  VTDI
[001284BB] Dynamic init success VTDI
[001284BB] Dynamic load success vtdi.386
[001284BB] Dynamic load device  vip.386
[001284BA] Dynamic init device  VIP
[001284BA] Dynamic init success VIP
[001284BA] Dynamic load success vip.386
[001284BA] Dynamic load device  vtcp.386
[001284BA] Dynamic init device  MSTCP
[001284BA] Dynamic init success MSTCP
[001284BA] Dynamic load success vtcp.386
[001284BA] Dynamic load device  vdhcp.386
[001284BA] Dynamic init device  VDHCP
[001284BA] Dynamic init success VDHCP
[001284BA] Dynamic load success vdhcp.386
[001284BA] Dynamic load device  vnbt.386
[001284BA] Dynamic init device  VNBT
[001284BA] Dynamic init success VNBT
[001284BA] Dynamic load success vnbt.386
[001284BA] Starting TCP/IP (NETWORK\MSTCP\0000)
[001284BA] Started TCP/IP (NETWORK\MSTCP\0000)
[001284BA] Enumerating TCP/IP (NETWORK\MSTCP\0000)
[001284BA] Enumerated TCP/IP (NETWORK\MSTCP\0000)
[001284BA] Starting Microsoft Family Logon (NETWORK\FAMILY\0000)
[001284BA] Started Microsoft Family Logon (NETWORK\FAMILY\0000)
[001284BA] Enumerating Realtek RTL8139(A)-based PCI Fast Ethernet Adapter (PCI\VEN_1113&DEV_1211&SUBSYS_9207103C&REV_10\48F000)
[001284BA] Enumerated Realtek RTL8139(A)-based PCI Fast Ethernet Adapter (PCI\VEN_1113&DEV_1211&SUBSYS_9207103C&REV_10\48F000)
[001284BA] Loading PNP drivers of TCP/IP (NETWORK\MSTCP\0001)
[001284BA] Starting TCP/IP (NETWORK\MSTCP\0001)
[001284BA] Started TCP/IP (NETWORK\MSTCP\0001)
[001284BA] Enumerating TCP/IP (NETWORK\MSTCP\0001)
[001284BA] Enumerated TCP/IP (NETWORK\MSTCP\0001)
[001284BA] Starting Microsoft Family Logon (NETWORK\FAMILY\0001)
[001284BA] Started Microsoft Family Logon (NETWORK\FAMILY\0001)
[001284BA] Loaded PNP drivers of TCP/IP (NETWORK\MSTCP\0001)
[001284BA] Loaded PNP drivers of TCP/IP (NETWORK\MSTCP\0000)
[001284BA] DEVICEINIT   = DOSMGR  
[001284BA] DEVICEINITSUCCESS   = DOSMGR  
[001284BA] DEVICEINIT   = VMPOLL  
[001284BA] DEVICEINITSUCCESS   = VMPOLL  
[001284BA] DEVICEINIT   = SMCLIB  
[001284BA] DEVICEINITSUCCESS   = SMCLIB  
[001284BA] DEVICEINIT   = JAVASUP 
[001284BA] DEVICEINITSUCCESS   = JAVASUP 
[001284BA] DEVICEINIT   = VCOMM   
[001284BA] DEVICEINITSUCCESS   = VCOMM   
[001284BA] DEVICEINIT   = VCOND   
[001284BA] DEVICEINITSUCCESS   = VCOND   
[001284BA] DEVICEINIT   = VTDAPI  
[001284BA] DEVICEINITSUCCESS   = VTDAPI  
[001284BA] DEVICEINIT   = VXDMON  
[001284BA] DEVICEINITSUCCESS   = VXDMON  
[001284BA] DEVICEINIT   = VFLATD  
[001284BA] DEVICEINITSUCCESS   = VFLATD  
[001284BA] DEVICEINIT   = RT      
[001284BA] DEVICEINITSUCCESS   = RT      
[001284BA] DEVICEINIT   = SBEMUL  
[001284BA] DEVICEINITSUCCESS   = SBEMUL  
[001284BA] DEVICEINIT   = Display1
[001284BA] DEVICEINITSUCCESS   = Display1
[001284BA] DEVICEINIT   = VDMAD   
[001284BA] DEVICEINITSUCCESS   = VDMAD   
[001284BA] DEVICEINIT   = V86MMGR 
[001284BA] DEVICEINITSUCCESS   = V86MMGR 
[001284BA] DEVICEINIT   = SPOOLER 
[001284BA] DEVICEINITSUCCESS   = SPOOLER 
[001284BA] DEVICEINIT   = UDF     
[001284BA] DEVICEINITSUCCESS   = UDF     
[001284BA] DEVICEINIT   = VFAT    
[001284BA] DEVICEINITSUCCESS   = VFAT    
[001284BA] DEVICEINIT   = VDEF    
[001284BA] DEVICEINITSUCCESS   = VDEF    
[001284BB] Initing hsflop.pdr
[001284BC] Init Success hsflop.pdr
[001284BC] Initing esdi_506.pdr
[001284D6] Init Success esdi_506.pdr
[001284D6] Initing esdi_506.pdr
[001284DC] Init Success esdi_506.pdr
[001284E1] INITCOMPLETE = VMM     
[001284E1] INITCOMPLETESUCCESS = VMM     
[001284E1] INITCOMPLETE = MTRR    
[001284E1] INITCOMPLETESUCCESS = MTRR    
[001284E1] INITCOMPLETE = VCACHE  
[001284E1] INITCOMPLETESUCCESS = VCACHE  
[001284E1] INITCOMPLETE = VGARTD  
[001284E1] INITCOMPLETESUCCESS = VGARTD  
[001284E1] INITCOMPLETE = PERF    
[001284E1] INITCOMPLETESUCCESS = PERF    
[001284E1] INITCOMPLETE = VPOWERD 
[001284E1] INITCOMPLETESUCCESS = VPOWERD 
[001284E1] INITCOMPLETE = VPICD   
[001284E1] INITCOMPLETESUCCESS = VPICD   
[001284E1] INITCOMPLETE = VTD     
[001284E1] INITCOMPLETESUCCESS = VTD     
[001284E1] INITCOMPLETE = VWIN32  
[001284E1] INITCOMPLETESUCCESS = VWIN32  
[001284E1] INITCOMPLETE = VXDLDR  
[001284E1] INITCOMPLETESUCCESS = VXDLDR  
[001284E1] INITCOMPLETE = NTKERN  
[001284E1] INITCOMPLETESUCCESS = NTKERN  
[001284E1] INITCOMPLETE = CONFIGMG
[001284E1] INITCOMPLETESUCCESS = CONFIGMG
[001284E1] INITCOMPLETE = PCI     
[001284E1] INITCOMPLETESUCCESS = PCI     
[001284E1] INITCOMPLETE = ISAPNP  
[001284E1] INITCOMPLETESUCCESS = ISAPNP  
[001284E1] INITCOMPLETE = ACPI    
[001284E1] INITCOMPLETESUCCESS = ACPI    
[001284E1] INITCOMPLETE = VCDFSD  
[001284E1] INITCOMPLETESUCCESS = VCDFSD  
[001284E1] INITCOMPLETE = IOS     
[001284E1] INITCOMPLETESUCCESS = IOS     
[001284E1] INITCOMPLETE = PAGEFILE
[001284E1] INITCOMPLETESUCCESS = PAGEFILE
[001284E1] INITCOMPLETE = PAGESWAP
[001284E1] INITCOMPLETESUCCESS = PAGESWAP
[001284E1] INITCOMPLETE = PARITY  
[001284E1] INITCOMPLETESUCCESS = PARITY  
[001284E1] INITCOMPLETE = REBOOT  
[001284E1] INITCOMPLETESUCCESS = REBOOT  
[001284E1] INITCOMPLETE = EBIOS   
[001284E1] INITCOMPLETESUCCESS = EBIOS   
[001284E1] INITCOMPLETE = VDD     
[001284E1] INITCOMPLETESUCCESS = VDD     
[001284E1] INITCOMPLETE = I81X    
[001284E1] INITCOMPLETESUCCESS = I81X    
[001284E1] INITCOMPLETE = VSD     
[001284E1] INITCOMPLETESUCCESS = VSD     
[001284E1] INITCOMPLETE = COMBUFF 
[001284E1] INITCOMPLETESUCCESS = COMBUFF 
[001284E1] INITCOMPLETE = VCD     
[001284E1] INITCOMPLETESUCCESS = VCD     
[001284E1] INITCOMPLETE = VMOUSE  
[001284E1] INITCOMPLETESUCCESS = VMOUSE  
[001284E1] INITCOMPLETE = MSMINI  
[001284E1] INITCOMPLETESUCCESS = MSMINI  
[001284E1] INITCOMPLETE = ENABLE  
[001284E1] INITCOMPLETESUCCESS = ENABLE  
[001284E2] INITCOMPLETE = VKD     
[001284E2] INITCOMPLETESUCCESS = VKD     
[001284E2] INITCOMPLETE = VPD     
[001284E2] INITCOMPLETESUCCESS = VPD     
[001284E2] INITCOMPLETE = INT13   
[001284E2] INITCOMPLETESUCCESS = INT13   
[001284E2] INITCOMPLETE = VMCPD   
[001284E2] INITCOMPLETESUCCESS = VMCPD   
[001284E2] INITCOMPLETE = BIOSXLAT
[001284E2] INITCOMPLETESUCCESS = BIOSXLAT
[001284E2] INITCOMPLETE = VNETBIOS
[001284E2] INITCOMPLETESUCCESS = VNETBIOS
[001284E2] INITCOMPLETE = NDIS    
[001284E2] INITCOMPLETESUCCESS = NDIS    
[001284E2] INITCOMPLETE = PPPMAC  
[001284E2] INITCOMPLETESUCCESS = PPPMAC  
[001284E2] INITCOMPLETE = VTDI    
[001284E2] INITCOMPLETESUCCESS = VTDI    
[001284E2] INITCOMPLETE = VIP     
[001284E2] INITCOMPLETESUCCESS = VIP     
[001284E2] INITCOMPLETE = MSTCP   
[001284E2] INITCOMPLETESUCCESS = MSTCP   
[001284E2] INITCOMPLETE = VDHCP   
[001284E2] INITCOMPLETESUCCESS = VDHCP   
[001284E2] INITCOMPLETE = VNBT    
[001284E2] INITCOMPLETESUCCESS = VNBT    
[001284E2] INITCOMPLETE = DOSMGR  
[001284E2] INITCOMPLETESUCCESS = DOSMGR  
[001284E2] INITCOMPLETE = VMPOLL  
[001284E2] INITCOMPLETESUCCESS = VMPOLL  
[001284E2] INITCOMPLETE = SMCLIB  
[001284E2] INITCOMPLETESUCCESS = SMCLIB  
[001284E2] INITCOMPLETE = JAVASUP 
[001284E2] INITCOMPLETESUCCESS = JAVASUP 
[001284E2] INITCOMPLETE = VCOMM   
[001284E2] Dynamic load device  lptenum.vxd
[001284E3] Dynamic init device  LPTENUM
[001284E3] Dynamic init success LPTENUM
[001284E3] Dynamic load success lptenum.vxd
[001284E3] Dynamic load device  serenum.vxd
[001284E3] Dynamic init device  SERENUM
[001284E3] Dynamic init success SERENUM
[001284E3] Dynamic load success serenum.vxd
[001284E3] INITCOMPLETESUCCESS = VCOMM   
[001284E3] Enumerating ECP Printer Port (LPT1) (ACPI\*PNP0401\00000001)
[001284E3] Enumerated ECP Printer Port (LPT1) (ACPI\*PNP0401\00000001)
[001284E4] Enumerating Communications Port (COM1) (ACPI\*PNP0501\00000001)
[001284E4] Dynamic load device  C:\WINDOWS\system\serial.vxd
[001284E4] Dynamic init device  SERIAL
[001284E4] Dynamic init success SERIAL
[001284E4] Dynamic load success C:\WINDOWS\system\serial.vxd
[001284E8] Enumerated Communications Port (COM1) (ACPI\*PNP0501\00000001)
[001284E8] Removing Microsoft Family Logon (NETWORK\FAMILY\0001)
[001284E8] Removed Microsoft Family Logon (NETWORK\FAMILY\0001)
[001284E8] Enumerating TCP/IP (NETWORK\MSTCP\0001)
[001284E8] Enumerated TCP/IP (NETWORK\MSTCP\0001)
[001284E8] Starting Microsoft Family Logon (NETWORK\FAMILY\0001)
[001284E8] Started Microsoft Family Logon (NETWORK\FAMILY\0001)
[001284E8] INITCOMPLETE = VCOND   
[001284E8] INITCOMPLETESUCCESS = VCOND   
[001284E8] INITCOMPLETE = VTDAPI  
[001284E8] INITCOMPLETESUCCESS = VTDAPI  
[001284E8] INITCOMPLETE = VXDMON  
[001284F4] INITCOMPLETESUCCESS = VXDMON  
[001284F4] INITCOMPLETE = VFLATD  
[001284F4] INITCOMPLETESUCCESS = VFLATD  
[001284F4] INITCOMPLETE = RT      
[001284F4] INITCOMPLETESUCCESS = RT      
[001284F4] INITCOMPLETE = mmdevldr
[001284F4] INITCOMPLETESUCCESS = mmdevldr
[001284F4] Loading PNP drivers of MPU-401 Compatible MIDI Device (ACPI\*PNPB006\00000001)
[001284F6] Removing Unknown ()
[001284F6] Removed Unknown ()
[001284F6] Loading PNP drivers of Gameport Joystick (ACPI\*PNPB02F\00000001)
[001284F6] Dynamic load device  vjoyd.vxd
[001284F6] Dynamic init device  VJOYD
[001284F6] Dynamic init success VJOYD
[001284F6] Dynamic load success vjoyd.vxd
[001284F6] Loading PNP drivers of ESS Allegro PCI Audio (WDM) (PCI\VEN_125D&DEV_1988&SUBSYS_B19D0E11&REV_12\28F000)
[001284F7] Starting MPU-401 Compatible MIDI Device (ACPI\*PNPB006\00000001)
[001284F7] Started MPU-401 Compatible MIDI Device (ACPI\*PNPB006\00000001)
[001284F7] Starting Gameport Joystick (ACPI\*PNPB02F\00000001)
[001284F7] Started Gameport Joystick (ACPI\*PNPB02F\00000001)
[001284F7] Starting ESS Allegro PCI Audio (WDM) (PCI\VEN_125D&DEV_1988&SUBSYS_B19D0E11&REV_12\28F000)
[0012850C] Started ESS Allegro PCI Audio (WDM) (PCI\VEN_125D&DEV_1988&SUBSYS_B19D0E11&REV_12\28F000)
[0012850C] Enumerating MPU-401 Compatible MIDI Device (ACPI\*PNPB006\00000001)
[0012850C] Enumerated MPU-401 Compatible MIDI Device (ACPI\*PNPB006\00000001)
[0012850C] Enumerating ESS Allegro PCI Audio (WDM) (PCI\VEN_125D&DEV_1988&SUBSYS_B19D0E11&REV_12\28F000)
[0012850C] Enumerated ESS Allegro PCI Audio (WDM) (PCI\VEN_125D&DEV_1988&SUBSYS_B19D0E11&REV_12\28F000)
[0012850C] Loaded PNP drivers of ESS Allegro PCI Audio (WDM) (PCI\VEN_125D&DEV_1988&SUBSYS_B19D0E11&REV_12\28F000)
[0012850C] Loaded PNP drivers of Gameport Joystick (ACPI\*PNPB02F\00000001)
[0012850C] Loaded PNP drivers of MPU-401 Compatible MIDI Device (ACPI\*PNPB006\00000001)
[0012850C] Enumerating Plug and Play Software Device Enumerator (ROOT\SWENUM\0000)
[0012850C] Enumerated Plug and Play Software Device Enumerator (ROOT\SWENUM\0000)
[0012850C] Loading PNP drivers of Microsoft Kernel System Audio Renderer (SW\{A7C7A5B0-5AF3-11D1-9CED-00A024BF0407}\{9B365890-165F-11D0-A195-0020AFD156E4})
[0012850C] Loaded PNP drivers of Microsoft Kernel System Audio Renderer (SW\{A7C7A5B0-5AF3-11D1-9CED-00A024BF0407}\{9B365890-165F-11D0-A195-0020AFD156E4})
[0012850D] Starting Microsoft Kernel System Audio Renderer (SW\{A7C7A5B0-5AF3-11D1-9CED-00A024BF0407}\{9B365890-165F-11D0-A195-0020AFD156E4})
[0012850D] Started Microsoft Kernel System Audio Renderer (SW\{A7C7A5B0-5AF3-11D1-9CED-00A024BF0407}\{9B365890-165F-11D0-A195-0020AFD156E4})
[0012850D] Enumerating Microsoft Kernel System Audio Renderer (SW\{A7C7A5B0-5AF3-11D1-9CED-00A024BF0407}\{9B365890-165F-11D0-A195-0020AFD156E4})
[0012850D] Enumerated Microsoft Kernel System Audio Renderer (SW\{A7C7A5B0-5AF3-11D1-9CED-00A024BF0407}\{9B365890-165F-11D0-A195-0020AFD156E4})
[0012850D] Enumerating Plug and Play Software Device Enumerator (ROOT\SWENUM\0000)
[0012850D] Enumerated Plug and Play Software Device Enumerator (ROOT\SWENUM\0000)
[0012850D] Loading PNP drivers of Microsoft Kernel DRM Descrambler Filter (SW\{EEC12DB6-AD9C-4168-8658-B03DAEF417FE}\{ABD61E00-9350-47E2-A632-4438B90C6641})
[0012850D] Loaded PNP drivers of Microsoft Kernel DRM Descrambler Filter (SW\{EEC12DB6-AD9C-4168-8658-B03DAEF417FE}\{ABD61E00-9350-47E2-A632-4438B90C6641})
[0012850D] Starting Microsoft Kernel DRM Descrambler Filter (SW\{EEC12DB6-AD9C-4168-8658-B03DAEF417FE}\{ABD61E00-9350-47E2-A632-4438B90C6641})
[0012850D] Started Microsoft Kernel DRM Descrambler Filter (SW\{EEC12DB6-AD9C-4168-8658-B03DAEF417FE}\{ABD61E00-9350-47E2-A632-4438B90C6641})
[0012850D] Enumerating Microsoft Kernel System Audio Renderer (SW\{A7C7A5B0-5AF3-11D1-9CED-00A024BF0407}\{9B365890-165F-11D0-A195-0020AFD156E4})
[0012850D] Enumerated Microsoft Kernel System Audio Renderer (SW\{A7C7A5B0-5AF3-11D1-9CED-00A024BF0407}\{9B365890-165F-11D0-A195-0020AFD156E4})
[0012850D] Enumerating Microsoft Kernel DRM Descrambler Filter (SW\{EEC12DB6-AD9C-4168-8658-B03DAEF417FE}\{ABD61E00-9350-47E2-A632-4438B90C6641})
[0012850D] Enumerated Microsoft Kernel DRM Descrambler Filter (SW\{EEC12DB6-AD9C-4168-8658-B03DAEF417FE}\{ABD61E00-9350-47E2-A632-4438B90C6641})
[0012850D] Enumerating Plug and Play Software Device Enumerator (ROOT\SWENUM\0000)
[0012850D] Enumerated Plug and Play Software Device Enumerator (ROOT\SWENUM\0000)
[0012850D] Loading PNP drivers of Microsoft Kernel GS Wavetable Synthesizer (SW\{6C1B9F60-C0A9-11D0-96D8-00AA0051E51D}\{9B365890-165F-11D0-A195-0020AFD156E4})
[0012850D] Loaded PNP drivers of Microsoft Kernel GS Wavetable Synthesizer (SW\{6C1B9F60-C0A9-11D0-96D8-00AA0051E51D}\{9B365890-165F-11D0-A195-0020AFD156E4})
[0012850D] Starting Microsoft Kernel GS Wavetable Synthesizer (SW\{6C1B9F60-C0A9-11D0-96D8-00AA0051E51D}\{9B365890-165F-11D0-A195-0020AFD156E4})
[0012850D] Started Microsoft Kernel GS Wavetable Synthesizer (SW\{6C1B9F60-C0A9-11D0-96D8-00AA0051E51D}\{9B365890-165F-11D0-A195-0020AFD156E4})
[0012850D] Enumerating Microsoft Kernel System Audio Renderer (SW\{A7C7A5B0-5AF3-11D1-9CED-00A024BF0407}\{9B365890-165F-11D0-A195-0020AFD156E4})
[0012850D] Enumerated Microsoft Kernel System Audio Renderer (SW\{A7C7A5B0-5AF3-11D1-9CED-00A024BF0407}\{9B365890-165F-11D0-A195-0020AFD156E4})
[0012850D] Enumerating Microsoft Kernel DRM Descrambler Filter (SW\{EEC12DB6-AD9C-4168-8658-B03DAEF417FE}\{ABD61E00-9350-47E2-A632-4438B90C6641})
[0012850D] Enumerated Microsoft Kernel DRM Descrambler Filter (SW\{EEC12DB6-AD9C-4168-8658-B03DAEF417FE}\{ABD61E00-9350-47E2-A632-4438B90C6641})
[0012850D] Enumerating Microsoft Kernel GS Wavetable Synthesizer (SW\{6C1B9F60-C0A9-11D0-96D8-00AA0051E51D}\{9B365890-165F-11D0-A195-0020AFD156E4})
[0012850D] Enumerated Microsoft Kernel GS Wavetable Synthesizer (SW\{6C1B9F60-C0A9-11D0-96D8-00AA0051E51D}\{9B365890-165F-11D0-A195-0020AFD156E4})
[0012850D] Enumerating Plug and Play Software Device Enumerator (ROOT\SWENUM\0000)
[0012850D] Enumerated Plug and Play Software Device Enumerator (ROOT\SWENUM\0000)
[0012850D] Loading PNP drivers of Microsoft Kernel Audio Mixer (SW\{B7EAFDC0-A680-11D0-96D8-00AA0051E51D}\{9B365890-165F-11D0-A195-0020AFD156E4})
[0012850D] Loaded PNP drivers of Microsoft Kernel Audio Mixer (SW\{B7EAFDC0-A680-11D0-96D8-00AA0051E51D}\{9B365890-165F-11D0-A195-0020AFD156E4})
[0012850D] Starting Microsoft Kernel Audio Mixer (SW\{B7EAFDC0-A680-11D0-96D8-00AA0051E51D}\{9B365890-165F-11D0-A195-0020AFD156E4})
[0012850D] Started Microsoft Kernel Audio Mixer (SW\{B7EAFDC0-A680-11D0-96D8-00AA0051E51D}\{9B365890-165F-11D0-A195-0020AFD156E4})
[0012850D] Enumerating Microsoft Kernel System Audio Renderer (SW\{A7C7A5B0-5AF3-11D1-9CED-00A024BF0407}\{9B365890-165F-11D0-A195-0020AFD156E4})
[0012850D] Enumerated Microsoft Kernel System Audio Renderer (SW\{A7C7A5B0-5AF3-11D1-9CED-00A024BF0407}\{9B365890-165F-11D0-A195-0020AFD156E4})
[0012850D] Enumerating Microsoft Kernel DRM Descrambler Filter (SW\{EEC12DB6-AD9C-4168-8658-B03DAEF417FE}\{ABD61E00-9350-47E2-A632-4438B90C6641})
[0012850D] Enumerated Microsoft Kernel DRM Descrambler Filter (SW\{EEC12DB6-AD9C-4168-8658-B03DAEF417FE}\{ABD61E00-9350-47E2-A632-4438B90C6641})
[0012850D] Enumerating Microsoft Kernel GS Wavetable Synthesizer (SW\{6C1B9F60-C0A9-11D0-96D8-00AA0051E51D}\{9B365890-165F-11D0-A195-0020AFD156E4})
[0012850D] Enumerated Microsoft Kernel GS Wavetable Synthesizer (SW\{6C1B9F60-C0A9-11D0-96D8-00AA0051E51D}\{9B365890-165F-11D0-A195-0020AFD156E4})
[0012850D] Enumerating Microsoft Kernel Audio Mixer (SW\{B7EAFDC0-A680-11D0-96D8-00AA0051E51D}\{9B365890-165F-11D0-A195-0020AFD156E4})
[0012850D] Enumerated Microsoft Kernel Audio Mixer (SW\{B7EAFDC0-A680-11D0-96D8-00AA0051E51D}\{9B365890-165F-11D0-A195-0020AFD156E4})
[0012850D] Enumerating Plug and Play Software Device Enumerator (ROOT\SWENUM\0000)
[0012850D] Enumerated Plug and Play Software Device Enumerator (ROOT\SWENUM\0000)
[0012850D] Loading PNP drivers of Microsoft Kernel Audio Splitter (SW\{2F412AB5-ED3A-4590-AB24-B0CE2AA77D3C}\{9B365890-165F-11D0-A195-0020AFD156E4})
[0012850E] Loaded PNP drivers of Microsoft Kernel Audio Splitter (SW\{2F412AB5-ED3A-4590-AB24-B0CE2AA77D3C}\{9B365890-165F-11D0-A195-0020AFD156E4})
[0012850E] Starting Microsoft Kernel Audio Splitter (SW\{2F412AB5-ED3A-4590-AB24-B0CE2AA77D3C}\{9B365890-165F-11D0-A195-0020AFD156E4})
[0012850E] Started Microsoft Kernel Audio Splitter (SW\{2F412AB5-ED3A-4590-AB24-B0CE2AA77D3C}\{9B365890-165F-11D0-A195-0020AFD156E4})
[0012850E] Enumerating Microsoft Kernel System Audio Renderer (SW\{A7C7A5B0-5AF3-11D1-9CED-00A024BF0407}\{9B365890-165F-11D0-A195-0020AFD156E4})
[0012850E] Enumerated Microsoft Kernel System Audio Renderer (SW\{A7C7A5B0-5AF3-11D1-9CED-00A024BF0407}\{9B365890-165F-11D0-A195-0020AFD156E4})
[0012850E] Enumerating Microsoft Kernel DRM Descrambler Filter (SW\{EEC12DB6-AD9C-4168-8658-B03DAEF417FE}\{ABD61E00-9350-47E2-A632-4438B90C6641})
[0012850E] Enumerated Microsoft Kernel DRM Descrambler Filter (SW\{EEC12DB6-AD9C-4168-8658-B03DAEF417FE}\{ABD61E00-9350-47E2-A632-4438B90C6641})
[0012850E] Enumerating Microsoft Kernel GS Wavetable Synthesizer (SW\{6C1B9F60-C0A9-11D0-96D8-00AA0051E51D}\{9B365890-165F-11D0-A195-0020AFD156E4})
[0012850E] Enumerated Microsoft Kernel GS Wavetable Synthesizer (SW\{6C1B9F60-C0A9-11D0-96D8-00AA0051E51D}\{9B365890-165F-11D0-A195-0020AFD156E4})
[0012850E] Enumerating Microsoft Kernel Audio Mixer (SW\{B7EAFDC0-A680-11D0-96D8-00AA0051E51D}\{9B365890-165F-11D0-A195-0020AFD156E4})
[0012850E] Enumerated Microsoft Kernel Audio Mixer (SW\{B7EAFDC0-A680-11D0-96D8-00AA0051E51D}\{9B365890-165F-11D0-A195-0020AFD156E4})
[0012850E] Enumerating Microsoft Kernel Audio Splitter (SW\{2F412AB5-ED3A-4590-AB24-B0CE2AA77D3C}\{9B365890-165F-11D0-A195-0020AFD156E4})
[0012850E] Enumerated Microsoft Kernel Audio Splitter (SW\{2F412AB5-ED3A-4590-AB24-B0CE2AA77D3C}\{9B365890-165F-11D0-A195-0020AFD156E4})
[0012850E] Enumerating Plug and Play Software Device Enumerator (ROOT\SWENUM\0000)
[0012850E] Enumerated Plug and Play Software Device Enumerator (ROOT\SWENUM\0000)
[0012850E] Loading PNP drivers of Microsoft Kernel DLS Synthesizer (SW\{8C07DD50-7A8D-11D2-8F8C-00C04FBF8FEF}\DMUSIC)
[0012850E] Loaded PNP drivers of Microsoft Kernel DLS Synthesizer (SW\{8C07DD50-7A8D-11D2-8F8C-00C04FBF8FEF}\DMUSIC)
[0012850E] Starting Microsoft Kernel DLS Synthesizer (SW\{8C07DD50-7A8D-11D2-8F8C-00C04FBF8FEF}\DMUSIC)
[0012850F] Started Microsoft Kernel DLS Synthesizer (SW\{8C07DD50-7A8D-11D2-8F8C-00C04FBF8FEF}\DMUSIC)
[0012850F] Enumerating Microsoft Kernel System Audio Renderer (SW\{A7C7A5B0-5AF3-11D1-9CED-00A024BF0407}\{9B365890-165F-11D0-A195-0020AFD156E4})
[0012850F] Enumerated Microsoft Kernel System Audio Renderer (SW\{A7C7A5B0-5AF3-11D1-9CED-00A024BF0407}\{9B365890-165F-11D0-A195-0020AFD156E4})
[0012850F] Enumerating Microsoft Kernel DRM Descrambler Filter (SW\{EEC12DB6-AD9C-4168-8658-B03DAEF417FE}\{ABD61E00-9350-47E2-A632-4438B90C6641})
[0012850F] Enumerated Microsoft Kernel DRM Descrambler Filter (SW\{EEC12DB6-AD9C-4168-8658-B03DAEF417FE}\{ABD61E00-9350-47E2-A632-4438B90C6641})
[0012850F] Enumerating Microsoft Kernel GS Wavetable Synthesizer (SW\{6C1B9F60-C0A9-11D0-96D8-00AA0051E51D}\{9B365890-165F-11D0-A195-0020AFD156E4})
[0012850F] Enumerated Microsoft Kernel GS Wavetable Synthesizer (SW\{6C1B9F60-C0A9-11D0-96D8-00AA0051E51D}\{9B365890-165F-11D0-A195-0020AFD156E4})
[0012850F] Enumerating Microsoft Kernel Audio Mixer (SW\{B7EAFDC0-A680-11D0-96D8-00AA0051E51D}\{9B365890-165F-11D0-A195-0020AFD156E4})
[0012850F] Enumerated Microsoft Kernel Audio Mixer (SW\{B7EAFDC0-A680-11D0-96D8-00AA0051E51D}\{9B365890-165F-11D0-A195-0020AFD156E4})
[0012850F] Enumerating Microsoft Kernel Audio Splitter (SW\{2F412AB5-ED3A-4590-AB24-B0CE2AA77D3C}\{9B365890-165F-11D0-A195-0020AFD156E4})
[0012850F] Enumerated Microsoft Kernel Audio Splitter (SW\{2F412AB5-ED3A-4590-AB24-B0CE2AA77D3C}\{9B365890-165F-11D0-A195-0020AFD156E4})
[0012850F] Enumerating Microsoft Kernel DLS Synthesizer (SW\{8C07DD50-7A8D-11D2-8F8C-00C04FBF8FEF}\DMUSIC)
[0012850F] Enumerated Microsoft Kernel DLS Synthesizer (SW\{8C07DD50-7A8D-11D2-8F8C-00C04FBF8FEF}\DMUSIC)
[0012850F] INITCOMPLETE = SBEMUL  
[0012850F] INITCOMPLETESUCCESS = SBEMUL  
[0012850F] INITCOMPLETE = Display1
[0012850F] INITCOMPLETESUCCESS = Display1
[0012850F] INITCOMPLETE = APIX    
[0012850F] INITCOMPLETESUCCESS = APIX    
[0012850F] INITCOMPLETE = CDTSD   
[0012850F] INITCOMPLETESUCCESS = CDTSD   
[0012850F] INITCOMPLETE = CDVSD   
[0012850F] INITCOMPLETESUCCESS = CDVSD   
[0012850F] INITCOMPLETE = DiskTSD 
[0012850F] INITCOMPLETESUCCESS = DiskTSD 
[0012850F] INITCOMPLETE = scsi1hlp
[0012850F] INITCOMPLETESUCCESS = scsi1hlp
[0012850F] INITCOMPLETE = voltrack
[0012850F] INITCOMPLETESUCCESS = voltrack
[0012850F] INITCOMPLETE = BIGMEM  
[0012850F] INITCOMPLETESUCCESS = BIGMEM  
[0012850F] INITCOMPLETE = SPAP    
[0012850F] INITCOMPLETESUCCESS = SPAP    
[0012850F] INITCOMPLETE = HSFLOP  
[0012850F] INITCOMPLETESUCCESS = HSFLOP  
[0012850F] INITCOMPLETE = ESDI_506
[0012850F] INITCOMPLETESUCCESS = ESDI_506
[0012850F] INITCOMPLETE = LPTENUM 
[0012850F] INITCOMPLETESUCCESS = LPTENUM 
[0012850F] INITCOMPLETE = SERENUM 
[0012850F] INITCOMPLETESUCCESS = SERENUM 
[0012850F] INITCOMPLETE = WDMAUD  
[0012850F] INITCOMPLETESUCCESS = WDMAUD  
[0012850F] INITCOMPLETE = vjoyd   
[0012850F] INITCOMPLETESUCCESS = vjoyd   
[0012850F] INITCOMPLETE = VDMAD   
[0012850F] INITCOMPLETESUCCESS = VDMAD   
[0012850F] INITCOMPLETE = V86MMGR 
[0012850F] INITCOMPLETESUCCESS = V86MMGR 
[0012850F] INITCOMPLETE = SPOOLER 
[0012850F] INITCOMPLETESUCCESS = SPOOLER 
[0012850F] INITCOMPLETE = UDF     
[0012850F] INITCOMPLETESUCCESS = UDF     
[0012850F] INITCOMPLETE = VFAT    
[0012850F] INITCOMPLETESUCCESS = VFAT    
[0012850F] INITCOMPLETE = VDEF    
[0012850F] INITCOMPLETESUCCESS = VDEF    
[0012850F] INITCOMPLETE = CDFS    
[0012850F] INITCOMPLETESUCCESS = CDFS    
[0012850F] INITCOMPLETE = IFSMGR  
[0012850F] INITCOMPLETESUCCESS = IFSMGR  
[0012850F] INITCOMPLETE = VFBACKUP
[0012850F] INITCOMPLETESUCCESS = VFBACKUP
[0012850F] INITCOMPLETE = SHELL   
[0012850F] INITCOMPLETESUCCESS = SHELL   
Initializing KERNEL
LoadStart = system.drv
LoadSuccess = system.drv
LoadStart = keyboard.drv
LoadSuccess = keyboard.drv
LoadStart = mouse.drv
LoadSuccess = mouse.drv
LoadStart = i81xdw9x.drv
LoadStart = DIBENG.DLL
LoadSuccess = DIBENG.DLL
LoadSuccess = i81xdw9x.drv
LoadStart = mmsound.drv
LoadSuccess = mmsound.drv
LoadStart = comm.drv
LoadSuccess = comm.drv
LoadStart = gdi.exe
LoadStart = C:\WINDOWS\SYSTEM\GDI32.DLL
LoadStart = GDI.EXE
LoadSuccess = GDI.EXE
LoadStart = GDI.EXE
LoadSuccess = GDI.EXE
LoadStart = GDI.EXE
LoadSuccess = GDI.EXE
LoadStart = GDI.EXE
LoadSuccess = GDI.EXE
LoadSuccess = C:\WINDOWS\SYSTEM\GDI32.DLL
LoadStart = C:\WINDOWS\fonts\vgasys.fon
LoadSuccess = C:\WINDOWS\fonts\vgasys.fon
LoadStart = C:\WINDOWS\fonts\vgafix.fon
LoadSuccess = C:\WINDOWS\fonts\vgafix.fon
LoadStart = C:\WINDOWS\fonts\vgaoem.fon
LoadSuccess = C:\WINDOWS\fonts\vgaoem.fon
LoadSuccess = gdi.exe
LoadStart = user.exe
LoadStart = DDEML.DLL
LoadSuccess = DDEML.DLL
LoadStart = C:\WINDOWS\SYSTEM\USER32.DLL
LoadStart = USER.EXE
LoadSuccess = USER.EXE
LoadStart = USER.EXE
LoadSuccess = USER.EXE
LoadStart = USER.EXE
LoadSuccess = USER.EXE
LoadStart = USER.EXE
LoadSuccess = USER.EXE
LoadStart = USER.EXE
LoadSuccess = USER.EXE
LoadSuccess = C:\WINDOWS\SYSTEM\USER32.DLL
LoadStart = COOL.DLL
LoadSuccess = COOL.DLL
Init = KEYBOARD
InitDone = KEYBOARD
Init = Mouse
Status = Mouse driver installed
InitDone = Mouse
Init = 
LoadStart = DISPLAY.drv
LoadSuccess = DISPLAY.drv
InitDone = DISPLAY
Init = Display Resources
InitDone = Display Resources
LoadStart = C:\WINDOWS\fonts\serife.fon
LoadSuccess = C:\WINDOWS\fonts\serife.fon
LoadStart = C:\WINDOWS\fonts\sserife.fon
LoadSuccess = C:\WINDOWS\fonts\sserife.fon
LoadStart = C:\WINDOWS\fonts\coure.fon
LoadSuccess = C:\WINDOWS\fonts\coure.fon
LoadStart = C:\WINDOWS\fonts\symbole.fon
LoadSuccess = C:\WINDOWS\fonts\symbole.fon
LoadStart = C:\WINDOWS\fonts\smalle.fon
LoadSuccess = C:\WINDOWS\fonts\smalle.fon
LoadStart = DIBENG.DLL
LoadSuccess = DIBENG.DLL
LoadStart = DIBENG.drv
LoadSuccess = DIBENG.drv
LoadSuccess = user.exe
LoadStart = MSGSRV32.EXE
LoadSuccess = MSGSRV32.EXE
Init = Final USER
InitDone = Final USER
Init = Installable Drivers
InitDone = Installable Drivers
Init = TSRQuery
InitDone = TSRQuery
[00128565] Enumerating Standard Floppy Disk Controller (ACPI\*PNP0700\00000001)
[00128566] Enumerated Standard Floppy Disk Controller (ACPI\*PNP0700\00000001)
[0012861C] Enumerating Plug and Play Software Device Enumerator (ROOT\SWENUM\0000)
[0012861C] Removing Microsoft Kernel DRM Descrambler Filter (SW\{EEC12DB6-AD9C-4168-8658-B03DAEF417FE}\{ABD61E00-9350-47E2-A632-4438B90C6641})
[0012861C] Removed Microsoft Kernel DRM Descrambler Filter (SW\{EEC12DB6-AD9C-4168-8658-B03DAEF417FE}\{ABD61E00-9350-47E2-A632-4438B90C6641})
[0012861C] Enumerated Plug and Play Software Device Enumerator (ROOT\SWENUM\0000)
[0012861C] Enumerating Microsoft Kernel System Audio Renderer (SW\{A7C7A5B0-5AF3-11D1-9CED-00A024BF0407}\{9B365890-165F-11D0-A195-0020AFD156E4})
[0012861C] Enumerated Microsoft Kernel System Audio Renderer (SW\{A7C7A5B0-5AF3-11D1-9CED-00A024BF0407}\{9B365890-165F-11D0-A195-0020AFD156E4})
[0012861C] Enumerating Microsoft Kernel GS Wavetable Synthesizer (SW\{6C1B9F60-C0A9-11D0-96D8-00AA0051E51D}\{9B365890-165F-11D0-A195-0020AFD156E4})
[0012861C] Enumerated Microsoft Kernel GS Wavetable Synthesizer (SW\{6C1B9F60-C0A9-11D0-96D8-00AA0051E51D}\{9B365890-165F-11D0-A195-0020AFD156E4})
[0012861C] Enumerating Microsoft Kernel Audio Mixer (SW\{B7EAFDC0-A680-11D0-96D8-00AA0051E51D}\{9B365890-165F-11D0-A195-0020AFD156E4})
[0012861C] Enumerated Microsoft Kernel Audio Mixer (SW\{B7EAFDC0-A680-11D0-96D8-00AA0051E51D}\{9B365890-165F-11D0-A195-0020AFD156E4})
[0012861C] Enumerating Microsoft Kernel Audio Splitter (SW\{2F412AB5-ED3A-4590-AB24-B0CE2AA77D3C}\{9B365890-165F-11D0-A195-0020AFD156E4})
[0012861C] Enumerated Microsoft Kernel Audio Splitter (SW\{2F412AB5-ED3A-4590-AB24-B0CE2AA77D3C}\{9B365890-165F-11D0-A195-0020AFD156E4})
[0012861C] Enumerating Microsoft Kernel DLS Synthesizer (SW\{8C07DD50-7A8D-11D2-8F8C-00C04FBF8FEF}\DMUSIC)
[0012861C] Enumerated Microsoft Kernel DLS Synthesizer (SW\{8C07DD50-7A8D-11D2-8F8C-00C04FBF8FEF}\DMUSIC)
[0012861C] Enumerating Plug and Play Software Device Enumerator (ROOT\SWENUM\0000)
[0012861C] Removing Microsoft Kernel GS Wavetable Synthesizer (SW\{6C1B9F60-C0A9-11D0-96D8-00AA0051E51D}\{9B365890-165F-11D0-A195-0020AFD156E4})
[0012861C] Removed Microsoft Kernel GS Wavetable Synthesizer (SW\{6C1B9F60-C0A9-11D0-96D8-00AA0051E51D}\{9B365890-165F-11D0-A195-0020AFD156E4})
[0012861C] Enumerated Plug and Play Software Device Enumerator (ROOT\SWENUM\0000)
[0012861C] Enumerating Microsoft Kernel System Audio Renderer (SW\{A7C7A5B0-5AF3-11D1-9CED-00A024BF0407}\{9B365890-165F-11D0-A195-0020AFD156E4})
[0012861C] Enumerated Microsoft Kernel System Audio Renderer (SW\{A7C7A5B0-5AF3-11D1-9CED-00A024BF0407}\{9B365890-165F-11D0-A195-0020AFD156E4})
[0012861C] Enumerating Microsoft Kernel Audio Mixer (SW\{B7EAFDC0-A680-11D0-96D8-00AA0051E51D}\{9B365890-165F-11D0-A195-0020AFD156E4})
[0012861C] Enumerated Microsoft Kernel Audio Mixer (SW\{B7EAFDC0-A680-11D0-96D8-00AA0051E51D}\{9B365890-165F-11D0-A195-0020AFD156E4})
[0012861C] Enumerating Microsoft Kernel Audio Splitter (SW\{2F412AB5-ED3A-4590-AB24-B0CE2AA77D3C}\{9B365890-165F-11D0-A195-0020AFD156E4})
[0012861C] Enumerated Microsoft Kernel Audio Splitter (SW\{2F412AB5-ED3A-4590-AB24-B0CE2AA77D3C}\{9B365890-165F-11D0-A195-0020AFD156E4})
[0012861C] Enumerating Microsoft Kernel DLS Synthesizer (SW\{8C07DD50-7A8D-11D2-8F8C-00C04FBF8FEF}\DMUSIC)
[0012861C] Enumerated Microsoft Kernel DLS Synthesizer (SW\{8C07DD50-7A8D-11D2-8F8C-00C04FBF8FEF}\DMUSIC)
[0012861D] Enumerating Plug and Play Software Device Enumerator (ROOT\SWENUM\0000)
[0012861D] Removing Microsoft Kernel Audio Mixer (SW\{B7EAFDC0-A680-11D0-96D8-00AA0051E51D}\{9B365890-165F-11D0-A195-0020AFD156E4})
[0012861D] Removed Microsoft Kernel Audio Mixer (SW\{B7EAFDC0-A680-11D0-96D8-00AA0051E51D}\{9B365890-165F-11D0-A195-0020AFD156E4})
[0012861D] Enumerated Plug and Play Software Device Enumerator (ROOT\SWENUM\0000)
[0012861D] Enumerating Microsoft Kernel System Audio Renderer (SW\{A7C7A5B0-5AF3-11D1-9CED-00A024BF0407}\{9B365890-165F-11D0-A195-0020AFD156E4})
[0012861D] Enumerated Microsoft Kernel System Audio Renderer (SW\{A7C7A5B0-5AF3-11D1-9CED-00A024BF0407}\{9B365890-165F-11D0-A195-0020AFD156E4})
[0012861D] Enumerating Microsoft Kernel Audio Splitter (SW\{2F412AB5-ED3A-4590-AB24-B0CE2AA77D3C}\{9B365890-165F-11D0-A195-0020AFD156E4})
[0012861D] Enumerated Microsoft Kernel Audio Splitter (SW\{2F412AB5-ED3A-4590-AB24-B0CE2AA77D3C}\{9B365890-165F-11D0-A195-0020AFD156E4})
[0012861D] Enumerating Microsoft Kernel DLS Synthesizer (SW\{8C07DD50-7A8D-11D2-8F8C-00C04FBF8FEF}\DMUSIC)
[0012861D] Enumerated Microsoft Kernel DLS Synthesizer (SW\{8C07DD50-7A8D-11D2-8F8C-00C04FBF8FEF}\DMUSIC)
[0012861D] Enumerating Plug and Play Software Device Enumerator (ROOT\SWENUM\0000)
[0012861D] Removing Microsoft Kernel Audio Splitter (SW\{2F412AB5-ED3A-4590-AB24-B0CE2AA77D3C}\{9B365890-165F-11D0-A195-0020AFD156E4})
[0012861D] Removed Microsoft Kernel Audio Splitter (SW\{2F412AB5-ED3A-4590-AB24-B0CE2AA77D3C}\{9B365890-165F-11D0-A195-0020AFD156E4})
[0012861D] Enumerated Plug and Play Software Device Enumerator (ROOT\SWENUM\0000)
[0012861D] Enumerating Microsoft Kernel System Audio Renderer (SW\{A7C7A5B0-5AF3-11D1-9CED-00A024BF0407}\{9B365890-165F-11D0-A195-0020AFD156E4})
[0012861D] Enumerated Microsoft Kernel System Audio Renderer (SW\{A7C7A5B0-5AF3-11D1-9CED-00A024BF0407}\{9B365890-165F-11D0-A195-0020AFD156E4})
[0012861D] Enumerating Microsoft Kernel DLS Synthesizer (SW\{8C07DD50-7A8D-11D2-8F8C-00C04FBF8FEF}\DMUSIC)
[0012861D] Enumerated Microsoft Kernel DLS Synthesizer (SW\{8C07DD50-7A8D-11D2-8F8C-00C04FBF8FEF}\DMUSIC)
[0012861D] Enumerating Plug and Play Software Device Enumerator (ROOT\SWENUM\0000)
[0012861D] Removing Microsoft Kernel DLS Synthesizer (SW\{8C07DD50-7A8D-11D2-8F8C-00C04FBF8FEF}\DMUSIC)
[0012861D] Removed Microsoft Kernel DLS Synthesizer (SW\{8C07DD50-7A8D-11D2-8F8C-00C04FBF8FEF}\DMUSIC)
[0012861D] Enumerated Plug and Play Software Device Enumerator (ROOT\SWENUM\0000)
[0012861D] Enumerating Microsoft Kernel System Audio Renderer (SW\{A7C7A5B0-5AF3-11D1-9CED-00A024BF0407}\{9B365890-165F-11D0-A195-0020AFD156E4})
[0012861D] Enumerated Microsoft Kernel System Audio Renderer (SW\{A7C7A5B0-5AF3-11D1-9CED-00A024BF0407}\{9B365890-165F-11D0-A195-0020AFD156E4})
[00128634] Enumerating Plug and Play Software Device Enumerator (ROOT\SWENUM\0000)
[00128634] Enumerated Plug and Play Software Device Enumerator (ROOT\SWENUM\0000)
[00128634] Loading PNP drivers of Microsoft Kernel Audio Mixer (SW\{B7EAFDC0-A680-11D0-96D8-00AA0051E51D}\{9B365890-165F-11D0-A195-0020AFD156E4})
[00128636] Loaded PNP drivers of Microsoft Kernel Audio Mixer (SW\{B7EAFDC0-A680-11D0-96D8-00AA0051E51D}\{9B365890-165F-11D0-A195-0020AFD156E4})
[00128636] Starting Microsoft Kernel Audio Mixer (SW\{B7EAFDC0-A680-11D0-96D8-00AA0051E51D}\{9B365890-165F-11D0-A195-0020AFD156E4})
[00128636] Started Microsoft Kernel Audio Mixer (SW\{B7EAFDC0-A680-11D0-96D8-00AA0051E51D}\{9B365890-165F-11D0-A195-0020AFD156E4})
[00128636] Enumerating Microsoft Kernel System Audio Renderer (SW\{A7C7A5B0-5AF3-11D1-9CED-00A024BF0407}\{9B365890-165F-11D0-A195-0020AFD156E4})
[00128636] Enumerated Microsoft Kernel System Audio Renderer (SW\{A7C7A5B0-5AF3-11D1-9CED-00A024BF0407}\{9B365890-165F-11D0-A195-0020AFD156E4})
[00128636] Enumerating Microsoft Kernel Audio Mixer (SW\{B7EAFDC0-A680-11D0-96D8-00AA0051E51D}\{9B365890-165F-11D0-A195-0020AFD156E4})
[00128636] Enumerated Microsoft Kernel Audio Mixer (SW\{B7EAFDC0-A680-11D0-96D8-00AA0051E51D}\{9B365890-165F-11D0-A195-0020AFD156E4})
Init = Display Resources
InitDone = Display Resources
[00128862] Enumerating Plug and Play Software Device Enumerator (ROOT\SWENUM\0000)
[00128862] Removing Microsoft Kernel Audio Mixer (SW\{B7EAFDC0-A680-11D0-96D8-00AA0051E51D}\{9B365890-165F-11D0-A195-0020AFD156E4})
[00128863] Removed Microsoft Kernel Audio Mixer (SW\{B7EAFDC0-A680-11D0-96D8-00AA0051E51D}\{9B365890-165F-11D0-A195-0020AFD156E4})
[00128863] Enumerated Plug and Play Software Device Enumerator (ROOT\SWENUM\0000)
[00128863] Enumerating Microsoft Kernel System Audio Renderer (SW\{A7C7A5B0-5AF3-11D1-9CED-00A024BF0407}\{9B365890-165F-11D0-A195-0020AFD156E4})
[00128863] Enumerated Microsoft Kernel System Audio Renderer (SW\{A7C7A5B0-5AF3-11D1-9CED-00A024BF0407}\{9B365890-165F-11D0-A195-0020AFD156E4})
[00128D10] Enumerating Plug and Play Software Device Enumerator (ROOT\SWENUM\0000)
[00128D10] Enumerated Plug and Play Software Device Enumerator (ROOT\SWENUM\0000)
[00128D10] Loading PNP drivers of Microsoft Kernel Audio Mixer (SW\{B7EAFDC0-A680-11D0-96D8-00AA0051E51D}\{9B365890-165F-11D0-A195-0020AFD156E4})
[00128D10] Loaded PNP drivers of Microsoft Kernel Audio Mixer (SW\{B7EAFDC0-A680-11D0-96D8-00AA0051E51D}\{9B365890-165F-11D0-A195-0020AFD156E4})
[00128D10] Starting Microsoft Kernel Audio Mixer (SW\{B7EAFDC0-A680-11D0-96D8-00AA0051E51D}\{9B365890-165F-11D0-A195-0020AFD156E4})
[00128D10] Started Microsoft Kernel Audio Mixer (SW\{B7EAFDC0-A680-11D0-96D8-00AA0051E51D}\{9B365890-165F-11D0-A195-0020AFD156E4})
[00128D10] Enumerating Microsoft Kernel System Audio Renderer (SW\{A7C7A5B0-5AF3-11D1-9CED-00A024BF0407}\{9B365890-165F-11D0-A195-0020AFD156E4})
[00128D10] Enumerated Microsoft Kernel System Audio Renderer (SW\{A7C7A5B0-5AF3-11D1-9CED-00A024BF0407}\{9B365890-165F-11D0-A195-0020AFD156E4})
[00128D10] Enumerating Microsoft Kernel Audio Mixer (SW\{B7EAFDC0-A680-11D0-96D8-00AA0051E51D}\{9B365890-165F-11D0-A195-0020AFD156E4})
[00128D10] Enumerated Microsoft Kernel Audio Mixer (SW\{B7EAFDC0-A680-11D0-96D8-00AA0051E51D}\{9B365890-165F-11D0-A195-0020AFD156E4})
[0012A36D] Enumerating Plug and Play Software Device Enumerator (ROOT\SWENUM\0000)
[0012A36D] Removing Microsoft Kernel Audio Mixer (SW\{B7EAFDC0-A680-11D0-96D8-00AA0051E51D}\{9B365890-165F-11D0-A195-0020AFD156E4})
[0012A36D] Removed Microsoft Kernel Audio Mixer (SW\{B7EAFDC0-A680-11D0-96D8-00AA0051E51D}\{9B365890-165F-11D0-A195-0020AFD156E4})
[0012A36D] Enumerated Plug and Play Software Device Enumerator (ROOT\SWENUM\0000)
[0012A36D] Enumerating Microsoft Kernel System Audio Renderer (SW\{A7C7A5B0-5AF3-11D1-9CED-00A024BF0407}\{9B365890-165F-11D0-A195-0020AFD156E4})
[0012A36D] Enumerated Microsoft Kernel System Audio Renderer (SW\{A7C7A5B0-5AF3-11D1-9CED-00A024BF0407}\{9B365890-165F-11D0-A195-0020AFD156E4})
[0012AAAD] Enumerating Dial-Up Adapter (ROOT\NET\0000)
[0012AAAD] Enumerated Dial-Up Adapter (ROOT\NET\0000)
[0012AAAD] Enumerating TCP/IP (NETWORK\MSTCP\0000)
[0012AAAD] Enumerated TCP/IP (NETWORK\MSTCP\0000)
[0012AAAD] Enumerating Realtek RTL8139(A)-based PCI Fast Ethernet Adapter (PCI\VEN_1113&DEV_1211&SUBSYS_9207103C&REV_10\48F000)
[0012AAAD] Enumerated Realtek RTL8139(A)-based PCI Fast Ethernet Adapter (PCI\VEN_1113&DEV_1211&SUBSYS_9207103C&REV_10\48F000)
[0012AAAD] Enumerating TCP/IP (NETWORK\MSTCP\0001)
[0012AAAD] Enumerated TCP/IP (NETWORK\MSTCP\0001)
[0012AAAF] Enumerating Plug and Play Software Device Enumerator (ROOT\SWENUM\0000)
[0012AAAF] Enumerated Plug and Play Software Device Enumerator (ROOT\SWENUM\0000)
[0012AAAF] Loading PNP drivers of Microsoft Kernel Audio Mixer (SW\{B7EAFDC0-A680-11D0-96D8-00AA0051E51D}\{9B365890-165F-11D0-A195-0020AFD156E4})
[0012AAAF] Loaded PNP drivers of Microsoft Kernel Audio Mixer (SW\{B7EAFDC0-A680-11D0-96D8-00AA0051E51D}\{9B365890-165F-11D0-A195-0020AFD156E4})
[0012AAAF] Starting Microsoft Kernel Audio Mixer (SW\{B7EAFDC0-A680-11D0-96D8-00AA0051E51D}\{9B365890-165F-11D0-A195-0020AFD156E4})
[0012AAAF] Started Microsoft Kernel Audio Mixer (SW\{B7EAFDC0-A680-11D0-96D8-00AA0051E51D}\{9B365890-165F-11D0-A195-0020AFD156E4})
[0012AAAF] Enumerating Microsoft Kernel System Audio Renderer (SW\{A7C7A5B0-5AF3-11D1-9CED-00A024BF0407}\{9B365890-165F-11D0-A195-0020AFD156E4})
[0012AAAF] Enumerated Microsoft Kernel System Audio Renderer (SW\{A7C7A5B0-5AF3-11D1-9CED-00A024BF0407}\{9B365890-165F-11D0-A195-0020AFD156E4})
[0012AAAF] Enumerating Microsoft Kernel Audio Mixer (SW\{B7EAFDC0-A680-11D0-96D8-00AA0051E51D}\{9B365890-165F-11D0-A195-0020AFD156E4})
[0012AAAF] Enumerated Microsoft Kernel Audio Mixer (SW\{B7EAFDC0-A680-11D0-96D8-00AA0051E51D}\{9B365890-165F-11D0-A195-0020AFD156E4})
Terminate = User
Terminate = Query Drivers
EndTerminate = Query Drivers
Terminate = Unload Network
EndTerminate = Unload Network
Terminate = Reset Display
EndTerminate = Reset Display
EndTerminate = User
[0012AB09] Removing Unknown (HTREE\RESERVED\0)
[0012AB09] Removed Unknown (HTREE\RESERVED\0)
[0012AB09] Removing Microsoft Kernel System Audio Renderer (SW\{A7C7A5B0-5AF3-11D1-9CED-00A024BF0407}\{9B365890-165F-11D0-A195-0020AFD156E4})
[0012AB09] Removed Microsoft Kernel System Audio Renderer (SW\{A7C7A5B0-5AF3-11D1-9CED-00A024BF0407}\{9B365890-165F-11D0-A195-0020AFD156E4})
[0012AB09] Removing Microsoft Kernel Audio Mixer (SW\{B7EAFDC0-A680-11D0-96D8-00AA0051E51D}\{9B365890-165F-11D0-A195-0020AFD156E4})
[0012AB09] Removed Microsoft Kernel Audio Mixer (SW\{B7EAFDC0-A680-11D0-96D8-00AA0051E51D}\{9B365890-165F-11D0-A195-0020AFD156E4})
[0012AB09] Removing Plug and Play Software Device Enumerator (ROOT\SWENUM\0000)
[0012AB09] Removed Plug and Play Software Device Enumerator (ROOT\SWENUM\0000)
[0012AB09] Removing Unknown (NETWORK\FAMILY\0000)
[0012AB09] Removed Unknown (NETWORK\FAMILY\0000)
[0012AB09] Removing TCP/IP (NETWORK\MSTCP\0000)
[0012AB09] Removed TCP/IP (NETWORK\MSTCP\0000)
[0012AB09] Removing Dial-Up Adapter (ROOT\NET\0000)
[0012AB09] Removed Dial-Up Adapter (ROOT\NET\0000)
[0012AB09] Removing Composite Power Source (ACPI\COMPBATT\ROOT&*PNP0C08&0000)
[0012AB09] Removed Composite Power Source (ACPI\COMPBATT\ROOT&*PNP0C08&0000)
[0012AB09] Removing ACPI System Button (ACPI\BUTTON\ROOT&*PNP0C08&0000)
[0012AB09] Removed ACPI System Button (ACPI\BUTTON\ROOT&*PNP0C08&0000)
[0012AB09] Removing ACPI Power Button (ACPI\*PNP0C0C\00000001)
[0012AB09] Removed ACPI Power Button (ACPI\*PNP0C0C\00000001)
[0012AB09] Removing Intel(r) 82810e DC-133 System and Graphics Controller (PCI\VEN_8086&DEV_7124&SUBSYS_00000000&REV_03\BUS_00&DEV_00&FUNC_00)
[0012AB09] Removed Intel(r) 82810e DC-133 System and Graphics Controller (PCI\VEN_8086&DEV_7124&SUBSYS_00000000&REV_03\BUS_00&DEV_00&FUNC_00)
[0012AB09] Removing Plug and Play Monitor (MONITOR\SNY0290\PCI_VEN_8086&DEV_7125&SUBSYS_B1650E11&REV_03_BUS_00&DEV_01&FUNC_00)
[0012AB0A] Removed Plug and Play Monitor (MONITOR\SNY0290\PCI_VEN_8086&DEV_7125&SUBSYS_B1650E11&REV_03_BUS_00&DEV_01&FUNC_00)
[0012AB0A] Removing Unknown (NETWORK\FAMILY\0001)
[0012AB0A] Removed Unknown (NETWORK\FAMILY\0001)
[0012AB0A] Removing TCP/IP (NETWORK\MSTCP\0001)
[0012AB0A] Removed TCP/IP (NETWORK\MSTCP\0001)
[0012AB0A] Removing Realtek RTL8139(A)-based PCI Fast Ethernet Adapter (PCI\VEN_1113&DEV_1211&SUBSYS_9207103C&REV_10\48F000)
[0012AB0A] Removed Realtek RTL8139(A)-based PCI Fast Ethernet Adapter (PCI\VEN_1113&DEV_1211&SUBSYS_9207103C&REV_10\48F000)
[0012AB0A] Removing PCTEL Platinum V.90 Modem (WDM_MODEM\PCT0001\WDMMDM0)
[0012AB0A] Removed PCTEL Platinum V.90 Modem (WDM_MODEM\PCT0001\WDMMDM0)
[0012AB0A] Removing HSP56 WDM DEVICE (PCI\VEN_134D&DEV_7897&SUBSYS_0001134D&REV_02\50F000)
[0012AB0A] Removed HSP56 WDM DEVICE (PCI\VEN_134D&DEV_7897&SUBSYS_0001134D&REV_02\50F000)
[0012AB0A] Removing Generic USB Hub (USB\VID_0451&PID_2046\INST_0)
[0012AB0A] Removed Generic USB Hub (USB\VID_0451&PID_2046\INST_0)
[0012AB0A] Removing USB Root Hub (USB\ROOT_HUB\PCI&VEN_8086&DEV_2412&SUBSYS_24128086&REV_02&BUS_00&DEV_1F&FUNC_02)
[0012AB0A] Removed USB Root Hub (USB\ROOT_HUB\PCI&VEN_8086&DEV_2412&SUBSYS_24128086&REV_02&BUS_00&DEV_1F&FUNC_02)
[0012AB0A] Removing ECP Printer Port (LPT1) (ACPI\*PNP0401\00000001)
[0012AB0A] Removed ECP Printer Port (LPT1) (ACPI\*PNP0401\00000001)
[0012AB0A] Removing System board (ROOT\*PNP0C01\0000)
[0012AB0A] Removed System board (ROOT\*PNP0C01\0000)
[0012AB0A] Removing Processor support (ROOT\PROCESSOR_UPDATE\0000)
[0012AB0A] Removed Processor support (ROOT\PROCESSOR_UPDATE\0000)
