This file contains any messages produced by compilers while
running configure, to aid debugging if configure makes a mistake.

It was created by configure, which was
generated by GNU Autoconf 2.59.  Invocation command line was

  $ ./configure 

## --------- ##
## Platform. ##
## --------- ##

hostname = antix
uname -m = i686
uname -r = 2.4.26-co-0.6.1
uname -s = Linux
uname -v = #1 Sat May 29 15:30:37 IDT 2004

/usr/bin/uname -p = unknown
/bin/uname -X     = unknown

/bin/arch              = i686
/usr/bin/arch -k       = unknown
/usr/convex/getsysinfo = unknown
hostinfo               = unknown
/bin/machine           = unknown
/usr/bin/oslevel       = unknown
/bin/universe          = unknown

PATH: /usr/kerberos/bin
PATH: /usr/local/bin
PATH: /bin
PATH: /usr/bin
PATH: /usr/X11R6/bin
PATH: /home/lo/bin


## ----------- ##
## Core tests. ##
## ----------- ##

configure:1370: checking build system type
configure:1388: result: i686-pc-linux-gnu
configure:1396: checking host system type
configure:1410: result: i686-pc-linux-gnu
configure:1418: checking target system type
configure:1432: result: i686-pc-linux-gnu
configure:1472: checking for a BSD-compatible install
configure:1527: result: /usr/bin/install -c
configure:1538: checking whether build environment is sane
configure:1581: result: yes
configure:1614: checking for gawk
configure:1630: found /bin/gawk
configure:1640: result: gawk
configure:1650: checking whether make sets $(MAKE)
configure:1670: result: yes
configure:1941: checking for gcc
configure:1957: found /usr/bin/gcc
configure:1967: result: gcc
configure:2211: checking for C compiler version
configure:2214: gcc --version </dev/null >&5
gcc (GCC) 3.2.3 20030502 (Red Hat Linux 3.2.3-49)
Copyright (C) 2002 Free Software Foundation, Inc.
This is free software; see the source for copying conditions.  There is NO
warranty; not even for MERCHANTABILITY or FITNESS FOR A PARTICULAR PURPOSE.

configure:2217: $? = 0
configure:2219: gcc -v </dev/null >&5
Reading specs from /usr/lib/gcc-lib/i386-redhat-linux/3.2.3/specs
Configured with: ../configure --prefix=/usr --mandir=/usr/share/man --infodir=/usr/share/info --enable-shared --enable-threads=posix --disable-checking --with-system-zlib --enable-__cxa_atexit --host=i386-redhat-linux
Thread model: posix
gcc version 3.2.3 20030502 (Red Hat Linux 3.2.3-49)
configure:2222: $? = 0
configure:2224: gcc -V </dev/null >&5
gcc: argument to `-V' is missing
configure:2227: $? = 1
configure:2250: checking for C compiler default output file name
configure:2253: gcc    conftest.c  >&5
configure:2256: $? = 0
configure:2302: result: a.out
configure:2307: checking whether the C compiler works
configure:2313: ./a.out
configure:2316: $? = 0
configure:2333: result: yes
configure:2340: checking whether we are cross compiling
configure:2342: result: no
configure:2345: checking for suffix of executables
configure:2347: gcc -o conftest    conftest.c  >&5
configure:2350: $? = 0
configure:2375: result: 
configure:2381: checking for suffix of object files
configure:2402: gcc -c   conftest.c >&5
configure:2405: $? = 0
configure:2427: result: o
configure:2431: checking whether we are using the GNU C compiler
configure:2455: gcc -c   conftest.c >&5
configure:2461: $? = 0
configure:2464: test -z 			 || test ! -s conftest.err
configure:2467: $? = 0
configure:2470: test -s conftest.o
configure:2473: $? = 0
configure:2486: result: yes
configure:2492: checking whether gcc accepts -g
configure:2513: gcc -c -g  conftest.c >&5
configure:2519: $? = 0
configure:2522: test -z 			 || test ! -s conftest.err
configure:2525: $? = 0
configure:2528: test -s conftest.o
configure:2531: $? = 0
configure:2542: result: yes
configure:2559: checking for gcc option to accept ANSI C
configure:2629: gcc  -c -g -O2  conftest.c >&5
configure:2635: $? = 0
configure:2638: test -z 			 || test ! -s conftest.err
configure:2641: $? = 0
configure:2644: test -s conftest.o
configure:2647: $? = 0
configure:2665: result: none needed
configure:2683: gcc -c -g -O2  conftest.c >&5
conftest.c:2: syntax error before "me"
configure:2689: $? = 1
configure: failed program was:
| #ifndef __cplusplus
|   choke me
| #endif
configure:2830: checking for style of include used by make
configure:2858: result: GNU
configure:2886: checking dependency style of gcc
configure:2969: result: gcc3
configure:2990: checking for bison
configure:3006: found /usr/bin/bison
configure:3016: result: bison -y
configure:3032: checking for flex
configure:3061: result: no
configure:3032: checking for lex
configure:3061: result: no
configure:3071: checking for yywrap in -lfl
configure:3101: gcc -o conftest -g -O2   conftest.c -lfl   >&5
/usr/bin/ld: cannot find -lfl
collect2: ld returned 1 exit status
configure:3107: $? = 1
configure: failed program was:
| /* confdefs.h.  */
| 
| #define PACKAGE_NAME ""
| #define PACKAGE_TARNAME ""
| #define PACKAGE_VERSION ""
| #define PACKAGE_STRING ""
| #define PACKAGE_BUGREPORT ""
| #define PACKAGE "VisualBoyAdvance"
| #define VERSION "1.7.2"
| /* end confdefs.h.  */
| 
| /* Override any gcc2 internal prototype to avoid an error.  */
| #ifdef __cplusplus
| extern "C"
| #endif
| /* We use char because int might match the return type of a gcc2
|    builtin and then its argument prototype would still apply.  */
| char yywrap ();
| int
| main ()
| {
| yywrap ();
|   ;
|   return 0;
| }
configure:3132: result: no
configure:3137: checking for yywrap in -ll
configure:3167: gcc -o conftest -g -O2   conftest.c -ll   >&5
/usr/bin/ld: cannot find -ll
collect2: ld returned 1 exit status
configure:3173: $? = 1
configure: failed program was:
| /* confdefs.h.  */
| 
| #define PACKAGE_NAME ""
| #define PACKAGE_TARNAME ""
| #define PACKAGE_VERSION ""
| #define PACKAGE_STRING ""
| #define PACKAGE_BUGREPORT ""
| #define PACKAGE "VisualBoyAdvance"
| #define VERSION "1.7.2"
| /* end confdefs.h.  */
| 
| /* Override any gcc2 internal prototype to avoid an error.  */
| #ifdef __cplusplus
| extern "C"
| #endif
| /* We use char because int might match the return type of a gcc2
|    builtin and then its argument prototype would still apply.  */
| char yywrap ();
| int
| main ()
| {
| yywrap ();
|   ;
|   return 0;
| }
configure:3198: result: no
configure:3354: checking for g++
configure:3370: found /usr/bin/g++
configure:3380: result: g++
configure:3396: checking for C++ compiler version
configure:3399: g++ --version </dev/null >&5
g++ (GCC) 3.2.3 20030502 (Red Hat Linux 3.2.3-49)
Copyright (C) 2002 Free Software Foundation, Inc.
This is free software; see the source for copying conditions.  There is NO
warranty; not even for MERCHANTABILITY or FITNESS FOR A PARTICULAR PURPOSE.

configure:3402: $? = 0
configure:3404: g++ -v </dev/null >&5
Reading specs from /usr/lib/gcc-lib/i386-redhat-linux/3.2.3/specs
Configured with: ../configure --prefix=/usr --mandir=/usr/share/man --infodir=/usr/share/info --enable-shared --enable-threads=posix --disable-checking --with-system-zlib --enable-__cxa_atexit --host=i386-redhat-linux
Thread model: posix
gcc version 3.2.3 20030502 (Red Hat Linux 3.2.3-49)
configure:3407: $? = 0
configure:3409: g++ -V </dev/null >&5
g++: argument to `-V' missing

configure:3412: $? = 1
configure:3415: checking whether we are using the GNU C++ compiler
configure:3439: g++ -c   conftest.cc >&5
configure:3445: $? = 0
configure:3448: test -z 			 || test ! -s conftest.err
configure:3451: $? = 0
configure:3454: test -s conftest.o
configure:3457: $? = 0
configure:3470: result: yes
configure:3476: checking whether g++ accepts -g
configure:3497: g++ -c -g  conftest.cc >&5
configure:3503: $? = 0
configure:3506: test -z 			 || test ! -s conftest.err
configure:3509: $? = 0
configure:3512: test -s conftest.o
configure:3515: $? = 0
configure:3526: result: yes
configure:3568: g++ -c -g -O2  conftest.cc >&5
configure:3574: $? = 0
configure:3577: test -z 			 || test ! -s conftest.err
configure:3580: $? = 0
configure:3583: test -s conftest.o
configure:3586: $? = 0
configure:3612: g++ -c -g -O2  conftest.cc >&5
conftest.cc: In function `int main()':
conftest.cc:15: `exit' undeclared (first use this function)
conftest.cc:15: (Each undeclared identifier is reported only once for each 
   function it appears in.)
configure:3618: $? = 1
configure: failed program was:
| /* confdefs.h.  */
| 
| #define PACKAGE_NAME ""
| #define PACKAGE_TARNAME ""
| #define PACKAGE_VERSION ""
| #define PACKAGE_STRING ""
| #define PACKAGE_BUGREPORT ""
| #define PACKAGE "VisualBoyAdvance"
| #define VERSION "1.7.2"
| /* end confdefs.h.  */
| 
| int
| main ()
| {
| exit (42);
|   ;
|   return 0;
| }
configure:3568: g++ -c -g -O2  conftest.cc >&5
configure:3574: $? = 0
configure:3577: test -z 			 || test ! -s conftest.err
configure:3580: $? = 0
configure:3583: test -s conftest.o
configure:3586: $? = 0
configure:3612: g++ -c -g -O2  conftest.cc >&5
configure:3618: $? = 0
configure:3621: test -z 			 || test ! -s conftest.err
configure:3624: $? = 0
configure:3627: test -s conftest.o
configure:3630: $? = 0
configure:3655: checking dependency style of g++
configure:3738: result: gcc3
configure:3796: checking for ranlib
configure:3812: found /usr/bin/ranlib
configure:3823: result: ranlib
configure:3837: checking for nasm
configure:3855: found /usr/bin/nasm
configure:3867: result: /usr/bin/nasm
configure:3876: checking for gzopen in -lz
configure:3906: gcc -o conftest -g -O2   conftest.c -lz   >&5
configure:3912: $? = 0
configure:3915: test -z 			 || test ! -s conftest.err
configure:3918: $? = 0
configure:3921: test -s conftest
configure:3924: $? = 0
configure:3937: result: yes
configure:3953: checking for png_create_write_struct in -lpng
configure:3983: gcc -o conftest -g -O2   conftest.c -lpng -lz -lz  >&5
configure:3989: $? = 0
configure:3992: test -z 			 || test ! -s conftest.err
configure:3995: $? = 0
configure:3998: test -s conftest
configure:4001: $? = 0
configure:4014: result: yes
configure:4030: checking for pthread_yield in -lpthread
configure:4060: gcc -o conftest -g -O2   conftest.c -lpthread  -lpng -lz  >&5
configure:4066: $? = 0
configure:4069: test -z 			 || test ! -s conftest.err
configure:4072: $? = 0
configure:4075: test -s conftest
configure:4078: $? = 0
configure:4091: result: yes
configure:4108: checking how to run the C preprocessor
configure:4143: gcc -E  conftest.c
configure:4149: $? = 0
configure:4181: gcc -E  conftest.c
conftest.c:17:28: ac_nonexistent.h: No such file or directory
configure:4187: $? = 1
configure: failed program was:
| /* confdefs.h.  */
| 
| #define PACKAGE_NAME ""
| #define PACKAGE_TARNAME ""
| #define PACKAGE_VERSION ""
| #define PACKAGE_STRING ""
| #define PACKAGE_BUGREPORT ""
| #define PACKAGE "VisualBoyAdvance"
| #define VERSION "1.7.2"
| #ifdef __cplusplus
| extern "C" void std::exit (int) throw (); using std::exit;
| #endif
| #define HAVE_LIBZ 1
| #define HAVE_LIBPNG 1
| #define HAVE_LIBPTHREAD 1
| /* end confdefs.h.  */
| #include <ac_nonexistent.h>
configure:4226: result: gcc -E
configure:4250: gcc -E  conftest.c
configure:4256: $? = 0
configure:4288: gcc -E  conftest.c
conftest.c:17:28: ac_nonexistent.h: No such file or directory
configure:4294: $? = 1
configure: failed program was:
| /* confdefs.h.  */
| 
| #define PACKAGE_NAME ""
| #define PACKAGE_TARNAME ""
| #define PACKAGE_VERSION ""
| #define PACKAGE_STRING ""
| #define PACKAGE_BUGREPORT ""
| #define PACKAGE "VisualBoyAdvance"
| #define VERSION "1.7.2"
| #ifdef __cplusplus
| extern "C" void std::exit (int) throw (); using std::exit;
| #endif
| #define HAVE_LIBZ 1
| #define HAVE_LIBPNG 1
| #define HAVE_LIBPTHREAD 1
| /* end confdefs.h.  */
| #include <ac_nonexistent.h>
configure:4338: checking for X
configure:4567: result: libraries /usr/X11R6/lib, headers /usr/X11R6/include
configure:4571: checking for egrep
configure:4581: result: grep -E
configure:4586: checking for ANSI C header files
configure:4611: gcc -c -g -O2  conftest.c >&5
configure:4617: $? = 0
configure:4620: test -z 			 || test ! -s conftest.err
configure:4623: $? = 0
configure:4626: test -s conftest.o
configure:4629: $? = 0
configure:4715: gcc -o conftest -g -O2   conftest.c -lpthread -lpng -lz  >&5
configure:4718: $? = 0
configure:4720: ./conftest
configure:4723: $? = 0
configure:4738: result: yes
configure:4762: checking for sys/types.h
configure:4778: gcc -c -g -O2  conftest.c >&5
configure:4784: $? = 0
configure:4787: test -z 			 || test ! -s conftest.err
configure:4790: $? = 0
configure:4793: test -s conftest.o
configure:4796: $? = 0
configure:4807: result: yes
configure:4762: checking for sys/stat.h
configure:4778: gcc -c -g -O2  conftest.c >&5
configure:4784: $? = 0
configure:4787: test -z 			 || test ! -s conftest.err
configure:4790: $? = 0
configure:4793: test -s conftest.o
configure:4796: $? = 0
configure:4807: result: yes
configure:4762: checking for stdlib.h
configure:4778: gcc -c -g -O2  conftest.c >&5
configure:4784: $? = 0
configure:4787: test -z 			 || test ! -s conftest.err
configure:4790: $? = 0
configure:4793: test -s conftest.o
configure:4796: $? = 0
configure:4807: result: yes
configure:4762: checking for string.h
configure:4778: gcc -c -g -O2  conftest.c >&5
configure:4784: $? = 0
configure:4787: test -z 			 || test ! -s conftest.err
configure:4790: $? = 0
configure:4793: test -s conftest.o
configure:4796: $? = 0
configure:4807: result: yes
configure:4762: checking for memory.h
configure:4778: gcc -c -g -O2  conftest.c >&5
configure:4784: $? = 0
configure:4787: test -z 			 || test ! -s conftest.err
configure:4790: $? = 0
configure:4793: test -s conftest.o
configure:4796: $? = 0
configure:4807: result: yes
configure:4762: checking for strings.h
configure:4778: gcc -c -g -O2  conftest.c >&5
configure:4784: $? = 0
configure:4787: test -z 			 || test ! -s conftest.err
configure:4790: $? = 0
configure:4793: test -s conftest.o
configure:4796: $? = 0
configure:4807: result: yes
configure:4762: checking for inttypes.h
configure:4778: gcc -c -g -O2  conftest.c >&5
configure:4784: $? = 0
configure:4787: test -z 			 || test ! -s conftest.err
configure:4790: $? = 0
configure:4793: test -s conftest.o
configure:4796: $? = 0
configure:4807: result: yes
configure:4762: checking for stdint.h
configure:4778: gcc -c -g -O2  conftest.c >&5
configure:4784: $? = 0
configure:4787: test -z 			 || test ! -s conftest.err
configure:4790: $? = 0
configure:4793: test -s conftest.o
configure:4796: $? = 0
configure:4807: result: yes
configure:4762: checking for unistd.h
configure:4778: gcc -c -g -O2  conftest.c >&5
configure:4784: $? = 0
configure:4787: test -z 			 || test ! -s conftest.err
configure:4790: $? = 0
configure:4793: test -s conftest.o
configure:4796: $? = 0
configure:4807: result: yes
configure:4838: checking malloc.h usability
configure:4850: gcc -c -g -O2  conftest.c >&5
configure:4856: $? = 0
configure:4859: test -z 			 || test ! -s conftest.err
configure:4862: $? = 0
configure:4865: test -s conftest.o
configure:4868: $? = 0
configure:4878: result: yes
configure:4882: checking malloc.h presence
configure:4892: gcc -E  conftest.c
configure:4898: $? = 0
configure:4918: result: yes
configure:4953: checking for malloc.h
configure:4960: result: yes
configure:4829: checking for strings.h
configure:4834: result: yes
configure:4829: checking for unistd.h
configure:4834: result: yes
configure:4838: checking arpa/inet.h usability
configure:4850: gcc -c -g -O2  conftest.c >&5
configure:4856: $? = 0
configure:4859: test -z 			 || test ! -s conftest.err
configure:4862: $? = 0
configure:4865: test -s conftest.o
configure:4868: $? = 0
configure:4878: result: yes
configure:4882: checking arpa/inet.h presence
configure:4892: gcc -E  conftest.c
configure:4898: $? = 0
configure:4918: result: yes
configure:4953: checking for arpa/inet.h
configure:4960: result: yes
configure:4838: checking netinet/in.h usability
configure:4850: gcc -c -g -O2  conftest.c >&5
configure:4856: $? = 0
configure:4859: test -z 			 || test ! -s conftest.err
configure:4862: $? = 0
configure:4865: test -s conftest.o
configure:4868: $? = 0
configure:4878: result: yes
configure:4882: checking netinet/in.h presence
configure:4892: gcc -E  conftest.c
configure:4898: $? = 0
configure:4918: result: yes
configure:4953: checking for netinet/in.h
configure:4960: result: yes
configure:4838: checking zutil.h usability
configure:4850: gcc -c -g -O2  conftest.c >&5
configure:4856: $? = 0
configure:4859: test -z 			 || test ! -s conftest.err
configure:4862: $? = 0
configure:4865: test -s conftest.o
configure:4868: $? = 0
configure:4878: result: yes
configure:4882: checking zutil.h presence
configure:4892: gcc -E  conftest.c
configure:4898: $? = 0
configure:4918: result: yes
configure:4953: checking for zutil.h
configure:4960: result: yes
configure:4974: checking for an ANSI C-conforming const
configure:5041: gcc -c -g -O2  conftest.c >&5
configure:5047: $? = 0
configure:5050: test -z 			 || test ! -s conftest.err
configure:5053: $? = 0
configure:5056: test -s conftest.o
configure:5059: $? = 0
configure:5070: result: yes
configure:5080: checking for inline
configure:5101: gcc -c -g -O2  conftest.c >&5
configure:5107: $? = 0
configure:5110: test -z 			 || test ! -s conftest.err
configure:5113: $? = 0
configure:5116: test -s conftest.o
configure:5119: $? = 0
configure:5131: result: inline
configure:5150: checking for size_t
configure:5174: gcc -c -g -O2  conftest.c >&5
configure:5180: $? = 0
configure:5183: test -z 			 || test ! -s conftest.err
configure:5186: $? = 0
configure:5189: test -s conftest.o
configure:5192: $? = 0
configure:5203: result: yes
configure:5215: checking whether struct tm is in sys/time.h or time.h
configure:5238: gcc -c -g -O2  conftest.c >&5
configure:5244: $? = 0
configure:5247: test -z 			 || test ! -s conftest.err
configure:5250: $? = 0
configure:5253: test -s conftest.o
configure:5256: $? = 0
configure:5267: result: time.h
configure:5277: checking for socklen_t
configure:5299: gcc -c -g -O2  conftest.c >&5
configure:5305: $? = 0
configure:5308: test -z 			 || test ! -s conftest.err
configure:5311: $? = 0
configure:5314: test -s conftest.o
configure:5317: $? = 0
configure:5320: result: yes
configure:5394: checking whether byte ordering is bigendian
configure:5421: gcc -c -g -O2  conftest.c >&5
configure:5427: $? = 0
configure:5430: test -z 			 || test ! -s conftest.err
configure:5433: $? = 0
configure:5436: test -s conftest.o
configure:5439: $? = 0
configure:5463: gcc -c -g -O2  conftest.c >&5
conftest.c: In function `main':
conftest.c:40: `not' undeclared (first use in this function)
conftest.c:40: (Each undeclared identifier is reported only once
conftest.c:40: for each function it appears in.)
conftest.c:40: syntax error before "big"
configure:5469: $? = 1
configure: failed program was:
| /* confdefs.h.  */
| 
| #define PACKAGE_NAME ""
| #define PACKAGE_TARNAME ""
| #define PACKAGE_VERSION ""
| #define PACKAGE_STRING ""
| #define PACKAGE_BUGREPORT ""
| #define PACKAGE "VisualBoyAdvance"
| #define VERSION "1.7.2"
| #ifdef __cplusplus
| extern "C" void std::exit (int) throw (); using std::exit;
| #endif
| #define HAVE_LIBZ 1
| #define HAVE_LIBPNG 1
| #define HAVE_LIBPTHREAD 1
| #define STDC_HEADERS 1
| #define HAVE_SYS_TYPES_H 1
| #define HAVE_SYS_STAT_H 1
| #define HAVE_STDLIB_H 1
| #define HAVE_STRING_H 1
| #define HAVE_MEMORY_H 1
| #define HAVE_STRINGS_H 1
| #define HAVE_INTTYPES_H 1
| #define HAVE_STDINT_H 1
| #define HAVE_UNISTD_H 1
| #define HAVE_MALLOC_H 1
| #define HAVE_STRINGS_H 1
| #define HAVE_UNISTD_H 1
| #define HAVE_ARPA_INET_H 1
| #define HAVE_NETINET_IN_H 1
| #define HAVE_ZUTIL_H 1
| /* end confdefs.h.  */
| #include <sys/types.h>
| #include <sys/param.h>
| 
| int
| main ()
| {
| #if BYTE_ORDER != BIG_ENDIAN
|  not big endian
| #endif
| 
|   ;
|   return 0;
| }
configure:5602: result: no
configure:5687: checking for sdl-config
configure:5705: found /usr/bin/sdl-config
configure:5718: result: /usr/bin/sdl-config
configure:5726: checking for SDL - version >= 1.2.2
configure:5816: gcc -o conftest -g -O2 -I/usr/include/SDL -D_REENTRANT   conftest.c -lpthread -lpng -lz  -L/usr/lib -Wl,-rpath,/usr/lib -lSDL -lpthread >&5
configure:5819: $? = 0
configure:5821: ./conftest
configure:5824: $? = 0
configure:5842: result: yes
configure:8092: creating ./config.status

## ---------------------- ##
## Running config.status. ##
## ---------------------- ##

This file was extended by config.status, which was
generated by GNU Autoconf 2.59.  Invocation command line was

  CONFIG_FILES    = 
  CONFIG_HEADERS  = 
  CONFIG_LINKS    = 
  CONFIG_COMMANDS = 
  $ ./config.status 

on antix

config.status:783: creating Makefile
config.status:783: creating m4/Makefile
config.status:783: creating po/Makefile.in
config.status:783: creating src/Makefile
config.status:783: creating src/gb/Makefile
config.status:783: creating src/gtk/Makefile
config.status:783: creating src/gtk/images/Makefile
config.status:783: creating src/i386/Makefile
config.status:783: creating src/prof/Makefile
config.status:783: creating src/sdl/Makefile
config.status:783: creating win32/Makefile
config.status:928: executing depfiles commands

## ---------------- ##
## Cache variables. ##
## ---------------- ##

ac_cv_build=i686-pc-linux-gnu
ac_cv_build_alias=i686-pc-linux-gnu
ac_cv_c_bigendian=no
ac_cv_c_compiler_gnu=yes
ac_cv_c_const=yes
ac_cv_c_inline=inline
ac_cv_cxx_compiler_gnu=yes
ac_cv_env_CC_set=
ac_cv_env_CC_value=
ac_cv_env_CFLAGS_set=
ac_cv_env_CFLAGS_value=
ac_cv_env_CPPFLAGS_set=
ac_cv_env_CPPFLAGS_value=
ac_cv_env_CPP_set=
ac_cv_env_CPP_value=
ac_cv_env_CXXFLAGS_set=
ac_cv_env_CXXFLAGS_value=
ac_cv_env_CXX_set=
ac_cv_env_CXX_value=
ac_cv_env_LDFLAGS_set=
ac_cv_env_LDFLAGS_value=
ac_cv_env_build_alias_set=
ac_cv_env_build_alias_value=
ac_cv_env_host_alias_set=
ac_cv_env_host_alias_value=
ac_cv_env_target_alias_set=
ac_cv_env_target_alias_value=
ac_cv_exeext=
ac_cv_have_x='have_x=yes 		ac_x_includes=/usr/X11R6/include ac_x_libraries=/usr/X11R6/lib'
ac_cv_header_arpa_inet_h=yes
ac_cv_header_inttypes_h=yes
ac_cv_header_malloc_h=yes
ac_cv_header_memory_h=yes
ac_cv_header_netinet_in_h=yes
ac_cv_header_stdc=yes
ac_cv_header_stdint_h=yes
ac_cv_header_stdlib_h=yes
ac_cv_header_string_h=yes
ac_cv_header_strings_h=yes
ac_cv_header_sys_stat_h=yes
ac_cv_header_sys_types_h=yes
ac_cv_header_unistd_h=yes
ac_cv_header_zutil_h=yes
ac_cv_host=i686-pc-linux-gnu
ac_cv_host_alias=i686-pc-linux-gnu
ac_cv_lib_fl_yywrap=no
ac_cv_lib_l_yywrap=no
ac_cv_lib_png_png_create_write_struct=yes
ac_cv_lib_pthread_pthread_yield=yes
ac_cv_lib_z_gzopen=yes
ac_cv_objext=o
ac_cv_path_NASM=/usr/bin/nasm
ac_cv_path_SDL_CONFIG=/usr/bin/sdl-config
ac_cv_path_install='/usr/bin/install -c'
ac_cv_prog_AWK=gawk
ac_cv_prog_CPP='gcc -E'
ac_cv_prog_YACC='bison -y'
ac_cv_prog_ac_ct_CC=gcc
ac_cv_prog_ac_ct_CXX=g++
ac_cv_prog_ac_ct_RANLIB=ranlib
ac_cv_prog_cc_g=yes
ac_cv_prog_cc_stdc=
ac_cv_prog_cxx_g=yes
ac_cv_prog_egrep='grep -E'
ac_cv_prog_make_make_set=yes
ac_cv_struct_tm=time.h
ac_cv_target=i686-pc-linux-gnu
ac_cv_target_alias=i686-pc-linux-gnu
ac_cv_type_size_t=yes
am_cv_CC_dependencies_compiler_type=gcc3
am_cv_CXX_dependencies_compiler_type=gcc3

## ----------------- ##
## Output variables. ##
## ----------------- ##

ACLOCAL='${SHELL} /home/lo/gba/sw/tools/sim/vba/missing --run aclocal-1.7'
AMDEPBACKSLASH='\'
AMDEP_FALSE='#'
AMDEP_TRUE=''
AMTAR='${SHELL} /home/lo/gba/sw/tools/sim/vba/missing --run tar'
AUTOCONF='${SHELL} /home/lo/gba/sw/tools/sim/vba/missing --run autoconf'
AUTOHEADER='${SHELL} /home/lo/gba/sw/tools/sim/vba/missing --run autoheader'
AUTOMAKE='${SHELL} /home/lo/gba/sw/tools/sim/vba/missing --run automake-1.7'
AWK='gawk'
CC='gcc'
CCDEPMODE='depmode=gcc3'
CFLAGS='-g -O2'
CPP='gcc -E'
CPPFLAGS=''
CXX='g++'
CXXDEPMODE='depmode=gcc3'
CXXFLAGS='-g -O2 -DPROFILING -DMMX -DDEV_VERSION'
CYGPATH_W='echo'
DEFS='-DPACKAGE_NAME=\"\" -DPACKAGE_TARNAME=\"\" -DPACKAGE_VERSION=\"\" -DPACKAGE_STRING=\"\" -DPACKAGE_BUGREPORT=\"\" -DPACKAGE=\"VisualBoyAdvance\" -DVERSION=\"1.7.2\" -DHAVE_LIBZ=1 -DHAVE_LIBPNG=1 -DHAVE_LIBPTHREAD=1 -DSTDC_HEADERS=1 -DHAVE_SYS_TYPES_H=1 -DHAVE_SYS_STAT_H=1 -DHAVE_STDLIB_H=1 -DHAVE_STRING_H=1 -DHAVE_MEMORY_H=1 -DHAVE_STRINGS_H=1 -DHAVE_INTTYPES_H=1 -DHAVE_STDINT_H=1 -DHAVE_UNISTD_H=1 -DHAVE_MALLOC_H=1 -DHAVE_STRINGS_H=1 -DHAVE_UNISTD_H=1 -DHAVE_ARPA_INET_H=1 -DHAVE_NETINET_IN_H=1 -DHAVE_ZUTIL_H=1 '
DEPDIR='.deps'
ECHO_C=''
ECHO_N='-n'
ECHO_T=''
EGREP='grep -E'
EXEEXT=''
GETTEXT_PACKAGE=''
GMSGFMT=''
GTKMM_CFLAGS=''
GTKMM_CPPFLAGS=''
GTKMM_LIBS=''
INSTALL_DATA='${INSTALL} -m 644'
INSTALL_PROGRAM='${INSTALL}'
INSTALL_SCRIPT='${INSTALL}'
INSTALL_STRIP_PROGRAM='${SHELL} $(install_sh) -c -s'
INTLLIBS=''
LDFLAGS=''
LEX='${SHELL} /home/lo/gba/sw/tools/sim/vba/missing --run flex'
LEXLIB=''
LEX_OUTPUT_ROOT=''
LIBICONV=''
LIBINTL=''
LIBOBJS=''
LIBS='-lpthread -lpng -lz '
LTLIBICONV=''
LTLIBINTL=''
LTLIBOBJS=''
MAKEINFO='${SHELL} /home/lo/gba/sw/tools/sim/vba/missing --run makeinfo'
MKINSTALLDIRS=''
MSGFMT=''
MSGMERGE=''
NASM='/usr/bin/nasm'
OBJEXT='o'
PACKAGE='VisualBoyAdvance'
PACKAGE_BUGREPORT=''
PACKAGE_NAME=''
PACKAGE_STRING=''
PACKAGE_TARNAME=''
PACKAGE_VERSION=''
PATH_SEPARATOR=':'
PKG_CONFIG=''
POSUB=''
RANLIB='ranlib'
SDL_CFLAGS='-I/usr/include/SDL -D_REENTRANT'
SDL_CONFIG='/usr/bin/sdl-config'
SDL_LIBS='-L/usr/lib -Wl,-rpath,/usr/lib -lSDL -lpthread'
SET_MAKE=''
SHELL='/bin/sh'
STRIP=''
USE_NLS=''
VBA_EXTRA=''
VBA_LIBS='../gb/libgb.a ../prof/libprof.a ../i386/lib386.a'
VBA_SRC_EXTRA=' prof i386 sdl'
VERSION='1.7.2'
XGETTEXT=''
YACC='bison -y'
ac_ct_CC='gcc'
ac_ct_CXX='g++'
ac_ct_RANLIB='ranlib'
ac_ct_STRIP=''
am__fastdepCC_FALSE='#'
am__fastdepCC_TRUE=''
am__fastdepCXX_FALSE='#'
am__fastdepCXX_TRUE=''
am__include='include'
am__leading_dot='.'
am__quote=''
bindir='${exec_prefix}/bin'
build='i686-pc-linux-gnu'
build_alias=''
build_cpu='i686'
build_os='linux-gnu'
build_vendor='pc'
datadir='${prefix}/share'
exec_prefix='${prefix}'
host='i686-pc-linux-gnu'
host_alias=''
host_cpu='i686'
host_os='linux-gnu'
host_vendor='pc'
includedir='${prefix}/include'
infodir='${prefix}/info'
install_sh='/home/lo/gba/sw/tools/sim/vba/install-sh'
libdir='${exec_prefix}/lib'
libexecdir='${exec_prefix}/libexec'
localstatedir='${prefix}/var'
mandir='${prefix}/man'
oldincludedir='/usr/include'
prefix='/usr/local'
program_transform_name='s,x,x,'
sbindir='${exec_prefix}/sbin'
sharedstatedir='${prefix}/com'
sysconfdir='${prefix}/etc'
target='i686-pc-linux-gnu'
target_alias=''
target_cpu='i686'
target_os='linux-gnu'
target_vendor='pc'

## ----------- ##
## confdefs.h. ##
## ----------- ##

#define HAVE_ARPA_INET_H 1
#define HAVE_INTTYPES_H 1
#define HAVE_LIBPNG 1
#define HAVE_LIBPTHREAD 1
#define HAVE_LIBZ 1
#define HAVE_MALLOC_H 1
#define HAVE_MEMORY_H 1
#define HAVE_NETINET_IN_H 1
#define HAVE_STDINT_H 1
#define HAVE_STDLIB_H 1
#define HAVE_STRINGS_H 1
#define HAVE_STRINGS_H 1
#define HAVE_STRING_H 1
#define HAVE_SYS_STAT_H 1
#define HAVE_SYS_TYPES_H 1
#define HAVE_UNISTD_H 1
#define HAVE_UNISTD_H 1
#define HAVE_ZUTIL_H 1
#define PACKAGE "VisualBoyAdvance"
#define PACKAGE_BUGREPORT ""
#define PACKAGE_NAME ""
#define PACKAGE_STRING ""
#define PACKAGE_TARNAME ""
#define PACKAGE_VERSION ""
#define STDC_HEADERS 1
#define VERSION "1.7.2"
#endif
#ifdef __cplusplus
extern "C" void std::exit (int) throw (); using std::exit;

configure: exit 0
