----------------------------------------------------------------------------

                          [MJS Utility C Library]

MJSulib is portable library of general-purpose functions for C programs.

----------------------------------------------------------------------------

   * Which host platforms are supported?

   * Is it free? Copyright, Licence and Warranty.

   * Download

   * Installation Guide

----------------------------------------------------------------------------
 [prev] [up]  [next]      [this site powered by vi]      [home]  [mail me]

----------------------------------------------------------------------------
