;
; Reverse DNS map

$ORIGIN @@REVERSE_IP@@.in-addr.arpa.
@	IN	SOA	dns.@@DOMAIN_NAME@@. hostmaster (
                        2003082713 ; serial
                        3600 ; refresh
                        900 ; retry
                        1209600 ; expire
                        43200 ; default_ttl
                        )
@	IN	NS	dns.@@DOMAIN_NAME@@.

1       43200   IN      PTR     gw.@@DOMAIN_NAME@@.
16      43200   IN      PTR     rms.@@DOMAIN_NAME@@.
17      43200   IN      PTR     cds.@@DOMAIN_NAME@@.
18	43200   IN      PTR     xs.@@DOMAIN_NAME@@.
19      43200   IN      PTR     ems.@@DOMAIN_NAME@@.
20      43200   IN      PTR     ms.@@DOMAIN_NAME@@.
21      43200   IN      PTR     ops.@@DOMAIN_NAME@@.


144     43200   IN      PTR     db1.@@DOMAIN_NAME@@.
145     43200   IN      PTR     db2.@@DOMAIN_NAME@@.
146     43200   IN      PTR     signer1.@@DOMAIN_NAME@@.
147     43200   IN      PTR     signer2.@@DOMAIN_NAME@@.
148     43200   IN      PTR     db_rac1.@@DOMAIN_NAME@@.
149     43200   IN      PTR     db_rac2.@@DOMAIN_NAME@@.

;; DHCP addresses

64	43200	IN	PTR	server64.@@DOMAIN_NAME@@.
65	43200	IN	PTR	server65.@@DOMAIN_NAME@@.
66	43200	IN	PTR	server66.@@DOMAIN_NAME@@.
67	43200	IN	PTR	server67.@@DOMAIN_NAME@@.
68	43200	IN	PTR	server68.@@DOMAIN_NAME@@.
69	43200	IN	PTR	server69.@@DOMAIN_NAME@@.
70	43200	IN	PTR	server70.@@DOMAIN_NAME@@.
71	43200	IN	PTR	server71.@@DOMAIN_NAME@@.
72	43200	IN	PTR	server72.@@DOMAIN_NAME@@.
73	43200	IN	PTR	server73.@@DOMAIN_NAME@@.
74	43200	IN	PTR	server74.@@DOMAIN_NAME@@.
75	43200	IN	PTR	server75.@@DOMAIN_NAME@@.
76	43200	IN	PTR	server76.@@DOMAIN_NAME@@.
77	43200	IN	PTR	server77.@@DOMAIN_NAME@@.
78	43200	IN	PTR	server78.@@DOMAIN_NAME@@.
79	43200	IN	PTR	server79.@@DOMAIN_NAME@@.
80	43200	IN	PTR	server80.@@DOMAIN_NAME@@.
81	43200	IN	PTR	server81.@@DOMAIN_NAME@@.
82	43200	IN	PTR	server82.@@DOMAIN_NAME@@.
83	43200	IN	PTR	server83.@@DOMAIN_NAME@@.
84	43200	IN	PTR	server84.@@DOMAIN_NAME@@.
85	43200	IN	PTR	server85.@@DOMAIN_NAME@@.
86	43200	IN	PTR	server86.@@DOMAIN_NAME@@.
87	43200	IN	PTR	server87.@@DOMAIN_NAME@@.
88	43200	IN	PTR	server88.@@DOMAIN_NAME@@.
89	43200	IN	PTR	server89.@@DOMAIN_NAME@@.
90	43200	IN	PTR	server90.@@DOMAIN_NAME@@.
91	43200	IN	PTR	server91.@@DOMAIN_NAME@@.
92	43200	IN	PTR	server92.@@DOMAIN_NAME@@.
93	43200	IN	PTR	server93.@@DOMAIN_NAME@@.
94	43200	IN	PTR	server94.@@DOMAIN_NAME@@.
95	43200	IN	PTR	server95.@@DOMAIN_NAME@@.
96	43200	IN	PTR	server96.@@DOMAIN_NAME@@.
97	43200	IN	PTR	server97.@@DOMAIN_NAME@@.
98	43200	IN	PTR	server98.@@DOMAIN_NAME@@.
99	43200	IN	PTR	server99.@@DOMAIN_NAME@@.
100	43200	IN	PTR	server100.@@DOMAIN_NAME@@.
101	43200	IN	PTR	server101.@@DOMAIN_NAME@@.
102	43200	IN	PTR	server102.@@DOMAIN_NAME@@.
103	43200	IN	PTR	server103.@@DOMAIN_NAME@@.
104	43200	IN	PTR	server104.@@DOMAIN_NAME@@.
105	43200	IN	PTR	server105.@@DOMAIN_NAME@@.
106	43200	IN	PTR	server106.@@DOMAIN_NAME@@.
107	43200	IN	PTR	server107.@@DOMAIN_NAME@@.
108	43200	IN	PTR	server108.@@DOMAIN_NAME@@.
109	43200	IN	PTR	server109.@@DOMAIN_NAME@@.
110	43200	IN	PTR	server110.@@DOMAIN_NAME@@.
111	43200	IN	PTR	server111.@@DOMAIN_NAME@@.
112	43200	IN	PTR	server112.@@DOMAIN_NAME@@.
113	43200	IN	PTR	server113.@@DOMAIN_NAME@@.
114	43200	IN	PTR	server114.@@DOMAIN_NAME@@.
115	43200	IN	PTR	server115.@@DOMAIN_NAME@@.
116	43200	IN	PTR	server116.@@DOMAIN_NAME@@.
117	43200	IN	PTR	server117.@@DOMAIN_NAME@@.
118	43200	IN	PTR	server118.@@DOMAIN_NAME@@.
119	43200	IN	PTR	server119.@@DOMAIN_NAME@@.
120	43200	IN	PTR	server120.@@DOMAIN_NAME@@.
121	43200	IN	PTR	server121.@@DOMAIN_NAME@@.
122	43200	IN	PTR	server122.@@DOMAIN_NAME@@.
123	43200	IN	PTR	server123.@@DOMAIN_NAME@@.
124	43200	IN	PTR	server124.@@DOMAIN_NAME@@.
125	43200	IN	PTR	server125.@@DOMAIN_NAME@@.
126	43200	IN	PTR	server126.@@DOMAIN_NAME@@.


192	43200	IN	PTR	server192.@@DOMAIN_NAME@@.
193	43200	IN	PTR	server193.@@DOMAIN_NAME@@.
194	43200	IN	PTR	server194.@@DOMAIN_NAME@@.
195	43200	IN	PTR	server195.@@DOMAIN_NAME@@.
196	43200	IN	PTR	server196.@@DOMAIN_NAME@@.
197	43200	IN	PTR	server197.@@DOMAIN_NAME@@.
198	43200	IN	PTR	server198.@@DOMAIN_NAME@@.
199	43200	IN	PTR	server199.@@DOMAIN_NAME@@.
200	43200	IN	PTR	server200.@@DOMAIN_NAME@@.
201	43200	IN	PTR	server201.@@DOMAIN_NAME@@.
202	43200	IN	PTR	server202.@@DOMAIN_NAME@@.
203	43200	IN	PTR	server203.@@DOMAIN_NAME@@.
204	43200	IN	PTR	server204.@@DOMAIN_NAME@@.
205	43200	IN	PTR	server205.@@DOMAIN_NAME@@.
206	43200	IN	PTR	server206.@@DOMAIN_NAME@@.
207	43200	IN	PTR	server207.@@DOMAIN_NAME@@.
208	43200	IN	PTR	server208.@@DOMAIN_NAME@@.
209	43200	IN	PTR	server209.@@DOMAIN_NAME@@.
210	43200	IN	PTR	server210.@@DOMAIN_NAME@@.
211	43200	IN	PTR	server211.@@DOMAIN_NAME@@.
212	43200	IN	PTR	server212.@@DOMAIN_NAME@@.
213	43200	IN	PTR	server213.@@DOMAIN_NAME@@.
214	43200	IN	PTR	server214.@@DOMAIN_NAME@@.
215	43200	IN	PTR	server215.@@DOMAIN_NAME@@.
216	43200	IN	PTR	server216.@@DOMAIN_NAME@@.
217	43200	IN	PTR	server217.@@DOMAIN_NAME@@.
218	43200	IN	PTR	server218.@@DOMAIN_NAME@@.
219	43200	IN	PTR	server219.@@DOMAIN_NAME@@.
220	43200	IN	PTR	server220.@@DOMAIN_NAME@@.
221	43200	IN	PTR	server221.@@DOMAIN_NAME@@.
222	43200	IN	PTR	server222.@@DOMAIN_NAME@@.
223	43200	IN	PTR	server223.@@DOMAIN_NAME@@.
224	43200	IN	PTR	server224.@@DOMAIN_NAME@@.
225	43200	IN	PTR	server225.@@DOMAIN_NAME@@.
226	43200	IN	PTR	server226.@@DOMAIN_NAME@@.
227	43200	IN	PTR	server227.@@DOMAIN_NAME@@.
228	43200	IN	PTR	server228.@@DOMAIN_NAME@@.
229	43200	IN	PTR	server229.@@DOMAIN_NAME@@.
230	43200	IN	PTR	server230.@@DOMAIN_NAME@@.
231	43200	IN	PTR	server231.@@DOMAIN_NAME@@.
232	43200	IN	PTR	server232.@@DOMAIN_NAME@@.
233	43200	IN	PTR	server233.@@DOMAIN_NAME@@.
234	43200	IN	PTR	server234.@@DOMAIN_NAME@@.
235	43200	IN	PTR	server235.@@DOMAIN_NAME@@.
236	43200	IN	PTR	server236.@@DOMAIN_NAME@@.
237	43200	IN	PTR	server237.@@DOMAIN_NAME@@.
238	43200	IN	PTR	server238.@@DOMAIN_NAME@@.
239	43200	IN	PTR	server239.@@DOMAIN_NAME@@.
240	43200	IN	PTR	server240.@@DOMAIN_NAME@@.
241	43200	IN	PTR	server241.@@DOMAIN_NAME@@.
242	43200	IN	PTR	server242.@@DOMAIN_NAME@@.
243	43200	IN	PTR	server243.@@DOMAIN_NAME@@.
244	43200	IN	PTR	server244.@@DOMAIN_NAME@@.
245	43200	IN	PTR	server245.@@DOMAIN_NAME@@.
246	43200	IN	PTR	server246.@@DOMAIN_NAME@@.
247	43200	IN	PTR	server247.@@DOMAIN_NAME@@.
248	43200	IN	PTR	server248.@@DOMAIN_NAME@@.
249	43200	IN	PTR	server249.@@DOMAIN_NAME@@.
250	43200	IN	PTR	server250.@@DOMAIN_NAME@@.
251	43200	IN	PTR	server251.@@DOMAIN_NAME@@.
252	43200	IN	PTR	server252.@@DOMAIN_NAME@@.
253	43200	IN	PTR	server253.@@DOMAIN_NAME@@.
254	43200	IN	PTR	server254.@@DOMAIN_NAME@@.
