*PADS-PCB*
*PART*
BT1    Thru Hole
C1     0603
C10    0603
C100   0603
C103   0603
C104   0603
C105   0603
C106   0603
C109   0603
C11    0603
C110   0603
C111   0603
C112   0603
C113   0603
C114   0603
C115   0603
C116   0603
C117   0603
C118   A CASE
C119   0603
C12    0603
C120   A CASE
C121   0603
C122   A CASE
C123   0603
C124   A CASE
C125   0603
C126   0603
C127   0603
C128   0603
C129   0603
C13    0603
C130   0603
C131   0603
C132   0603
C133   0603
C134   0603
C135   0603
C136   0603
C139   A CASE
C14    0603
C140   A CASE
C141   A CASE
C142   A CASE
C143   A CASE
C144   0603
C145   A CASE
C146   0603
C147   0603
C148   0603
C149   0603
C15    0603
C150   0603
C151   0603
C152   0603
C153   0603
C154   0603
C155   0603
C156   0603
C157   0603
C158   0603
C159   0603
C16    0603
C160   0603
C161   0603
C162   B CASE
C163   0603
C164   0603
C165   0603
C166   0603
C167   0603
C168   0603
C169   0603
C17    0603
C170   0603
C171   0603
C172   0603
C173   0603
C174   0603
C175   B CASE
C176   B CASE
C178   B CASE
C179   B CASE
C18    0603
C180   B CASE
C181   B CASE
C182   0603
C183   0603
C184   0805
C185   B CASE
C186   D CASE
C187   0603
C188   B CASE
C189   B CASE
C19    0603
C190   0603
C191   B CASE
C192   B CASE
C193   D CASE
C194   0603
C195   0603
C196   D CASE
C197   D CASE
C198   0603
C199   B CASE
C2     0603
C20    0603
C200   0603
C201   0603
C202   D CASE
C203   0603
C204   0805
C205   B CASE
C206   D CASE
C207   0603
C208   0603
C209   D CASE
C21    0603
C210   D CASE
C211   0603
C212   0603
C213   D CASE
C214   0603
C215   B CASE
C216   D CASE
C217   0603
C218   0603
C219   C CASE
C22    0603
C220   0603
C221   B CASE
C222   0603
C223   0603
C224   0603
C225   0603
C226   0603
C227   0603
C228   0603
C229   0603
C23    0603
C230   0603
C231   0603
C232   0603
C233   0603
C234   0603
C235   B CASE
C236   0603
C237   0603
C238   0603
C239   0603
C24    0603
C240   0603
C241   0603
C242   0603
C243   0603
C244   0603
C245   0603
C246   0603
C247   0603
C248   0603
C249   0603
C25    0603
C250   0603
C251   0603
C252   0603
C255   D CASE
C256   1808
C257   1808
C258   1808
C259   1808
C26    0603
C260   1808
C261   0603
C262   0603
C263   0805
C264   0603
C265   0603
C266   0603
C267   0603
C268   0603
C269   0603
C27    0603
C270   0603
C271   0603
C272   0603
C273   0603
C274   0603
C275   0603
C276   0603
C277   0603
C278   0603
C279   0603
C28    0603
C280   0603
C281   0603
C282   0603
C283   0603
C284   0603
C285   0603
C286   0603
C287   0603
C288   0603
C289   0603
C29    0603
C290   0603
C291   D CASE
C3     0603
C30    0603
C31    0603
C32    0603
C33    0603
C34    0603
C35    0603
C36    0603
C37    0603
C38    0603
C39    0603
C4     0603
C40    0603
C41    0603
C42    0603
C43    0603
C44    0603
C45    0603
C46    0603
C47    0603
C48    0603
C49    0603
C5     0603
C50    0603
C51    0603
C52    0603
C53    0603
C54    0603
C55    0603
C56    0603
C57    0603
C59    0603
C6     0603
C60    0603
C61    0603
C62    0603
C63    0603
C64    0603
C65    C CASE
C66    0603
C67    0603
C68    0603
C69    0603
C7     0603
C70    0603
C71    0603
C72    0603
C73    0603
C74    0603
C75    0603
C76    0603
C77    0603
C78    0603
C79    0603
C8     0603
C80    0603
C81    0805
C82    A CASE
C83    0805
C84    0603
C85    A CASE
C86    0603
C87    0603
C88    0603
C89    0603
C9     0603
C90    0603
C91    0603
C92    0603
C93    0603
C94    0603
C95    0603
C96    0603
C97    0603
C98    0603
C99    0603
D1     1206
D2     DO-214AA
D3     1206
D4     1206
D5     1206
D6     SMC
D7     SMC
D8     1206
F1     1812
J1     Thru Hole
J10    Thru Hole
J11    Thru Hole
J2     USBCON
J3     IDE CON.
J4     Thru Hole
J5     CON_MINIPCI-NO STUFF
J6     Thru Hole
J7     THD
J8     Thru Hole
J9     Thru Hole
JP1    HEADER 5X2-NO STUFF
JP2    HEADER 5X2
JP3    HEADER 30X2-NO STUFF
JP4    HEADER 2
JP5    HEADER 2
JP6    HEADER 2
JP7    HEADER 8X2-NO STUFF
L1     0805
L2     0805
L3     0805
L4     1210
L5     TOKO_D124C
L6     TOKO_D124C
L7     1210
L8     TOKO_D124C
Q1     SOT23
Q10    SO-8
Q11    SO-8
Q12    SO-8
Q2     SOT23
Q3     SOT23
Q4     SOT23
Q5     SOT23
Q6     SOT23
Q7     SOT23
Q8     SOT23
Q9     SO-8
R1     0603
R10    0603
R100   0603
R101   0603
R102   0603
R103   0603
R104   0603
R105   0603
R106   0603
R107   0603
R108   0603
R109   0603
R11    0603
R110   0603
R112   0603
R113   0603
R114   0603
R115   0603
R116   0603
R117   0603
R118   0603
R119   0603
R12    0603
R120   0603
R121   0603
R122   0603
R123   0603
R124   0603
R125   0603
R126   0603
R127   0603
R128   0603
R129   0603
R13    0603
R130   0603
R131   0603
R132   0603
R133   0603
R134   0603
R135   0603
R136   0603
R137   0603
R138   0603
R139   0603
R14    0603
R140   0603
R141   0603
R142   0603
R143   0603
R144   0603
R145   0603
R146   0603
R147   0603
R148   0603
R149   0603
R15    0603
R150   0603
R151   0603
R152   0603
R153   0603
R154   0603
R155   0603
R156   0603
R157   0603
R158   0603
R159   0603
R16    0603
R160   0603
R161   0603
R162   0603
R163   0603
R164   0603
R165   0603
R166   0603
R167   0603
R168   0603
R169   0603
R17    0603
R170   0603
R171   0603
R172   0603
R173   0603
R174   0603
R175   0603
R176   0603
R177   0603
R178   0603
R179   0603
R18    0603
R180   0603
R181   0603
R182   0603
R183   0603
R184   0603
R185   0603
R186   0603
R187   0603
R188   0603
R189   0603
R19    0603
R190   0603
R191   0603
R192   0603
R193   0603
R194   0603
R195   0603
R196   0603
R197   0603
R198   0603
R199   0603
R2     0603
R20    0603
R200   0603
R201   0603
R202   0603
R203   0603
R204   0603
R205   0603
R206   0603
R207   0603
R208   0603
R209   0603
R21    0603
R210   0603
R211   0603
R212   0603
R213   0603
R214   0603
R215   0603
R216   0603
R217   0603
R218   0603
R219   0603
R22    0603
R221   0603
R222   0603
R223   0603
R224   0603
R225   0603
R226   0603
R227   0603
R228   0603
R229   0603
R23    0603
R230   0603
R232   0603
R233   0603
R234   0603
R235   0603
R236   0603
R237   0603
R238   0603
R239   0603
R24    0603
R240   0603
R241   0603
R242   0603
R243   0603
R244   0603
R245   0603
R246   0603
R247   0603
R248   0603
R249   0603
R25    0603
R250   0603
R251   0603
R252   0603
R253   0603
R254   0603
R255   0603
R256   0603
R257   0603
R258   0603
R259   0603
R26    0603
R260   0603
R261   0603
R262   0603
R263   0603
R264   0603
R265   0603
R266   0603
R267   0603
R268   0603
R269   0603
R27    0603
R270   0603
R271   0603
R272   0603
R273   0603
R274   0603
R275   0603
R276   0603
R277   0603
R278   0603
R279   0603
R28    0603
R280   0603
R281   0603
R282   0603
R283   0603
R284   0603
R285   0603
R286   0603
R287   0603
R288   0603
R289   0603
R29    0603
R290   0603
R291   0603
R292   0603
R293   0603
R294   0603
R295   0603
R296   0603
R297   0603
R298   0603
R299   0603
R3     0603
R30    0603
R300   0603
R301   0603
R302   0603
R303   0603
R304   0603
R305   0603
R306   0603
R307   0603
R308   0603
R309   0603
R31    0603
R310   0603
R311   0603
R312   0603
R313   0603
R314   0603
R315   0603
R316   0603
R317   0603
R318   0603
R319   0603
R32    0603
R320   0603
R321   0603
R322   0603
R323   0603
R324   0603
R325   0603
R326   0603
R327   0603
R328   0603
R329   0603
R33    0603
R330   0603
R331   0603
R332   0603
R333   0603
R334   0603
R335   0603
R336   0603
R337   0603
R338   0603
R339   0603
R34    0603
R340   0603
R341   0603
R342   0603
R343   0603
R344   0603
R345   0603
R346   0603
R347   0603
R348   0603
R349   0603
R35    0603
R350   0603
R351   0603
R352   0603
R353   0603
R354   0603
R355   0603
R356   0603
R357   0603
R358   0603
R359   0603
R36    0603
R360   0603
R361   0603
R362   0603
R363   0603
R364   0603
R365   0603
R366   0603
R367   0603
R368   0603
R369   0603
R37    0603
R370   0603
R371   0603
R372   0603
R373   0603
R374   0603
R375   0603
R376   0603
R377   0603
R378   0603
R379   0603
R38    0603
R380   0603
R381   0603
R382   0603
R383   0603
R384   0603
R385   0603
R386   0603
R387   0603
R388   0603
R389   0603
R39    0603
R390   0603
R391   0603
R392   0603
R393   0603
R394   0603
R395   0603
R396   0603
R397   0603
R398   0603
R399   0603
R4     0603
R40    0603
R400   0603
R401   0603
R402   0603
R403   0603
R404   0603
R405   0603
R406   0603
R407   0603
R408   0603
R409   0603
R41    0603
R410   0603
R411   0603
R412   0603
R413   0603
R414   0603
R415   0603
R416   0603
R417   0603
R418   0603
R419   0603
R42    0603
R420   0603
R421   0603
R422   0603
R423   0603
R424   0603
R425   0603
R426   0603
R427   0603
R428   0603
R429   0603
R43    0603
R430   0603
R431   0603
R432   0603
R433   0603
R434   0603
R435   0603
R436   0603
R437   0603
R438   0603
R44    0603
R440   0603
R441   0603
R442   0603
R443   0603
R444   0603
R445   0603
R446   0603
R447   0603
R448   0603
R449   0603
R45    0603
R450   0603
R451   0603
R452   0603
R453   0603
R454   0603
R455   0603
R456   0603
R457   0603
R458   0603
R459   0603
R46    0603
R460   0603
R461   0603
R462   0603
R463   0603
R464   0603
R465   0603
R466   0603
R467   0603
R468   0603
R469   0603
R47    0603
R470   0603
R471   0603
R472   0603
R473   0603
R474   0603
R475   0603
R476   0603
R477   0603
R478   0603
R479   0603
R48    0603
R480   0603
R481   0603
R482   0603
R483   0603
R484   0603
R485   0603
R486   0603
R487   0603
R488   0603
R489   0603
R49    0603
R490   0603
R491   0603
R492   0603
R493   0603
R494   0603
R495   0603
R496   0603
R497   0603
R498   0603
R499   0603
R5     0603
R50    0603
R500   0603
R501   0603
R502   0603
R503   0603
R504   0603
R505   0603
R506   0603
R507   0603
R508   0603
R509   0603
R51    0603
R510   2512
R511   0603
R512   0603
R513   0603
R514   0603
R515   0603
R517   0603
R518   1206
R519   0603
R52    0603
R520   1206
R521   0603
R522   0603
R523   2512
R524   1206
R525   0603
R526   0603
R527   1206
R528   0603
R529   0603
R53    0603
R530   1206
R531   0603
R532   0603
R533   0603
R534   0603
R535   0603
R536   0603
R537   0603
R538   0603
R539   0603
R54    0603
R540   0603
R541   0603
R542   0603
R543   0603
R544   0603
R545   0603
R546   0603
R547   0603
R548   0603
R549   0603
R55    0603
R550   0603
R551   0603
R552   0603
R553   0603
R554   0603
R555   0603
R556   0603
R557   0603
R558   0603
R559   0603
R56    0603
R560   0603
R561   0603
R562   0603
R563   0603
R564   0603
R565   0603
R566   0603
R567   0603
R568   0603
R569   0603
R57    0603
R570   0603
R571   0603
R572   1206
R573   0603
R574   0603
R575   0603
R576   0603
R577   0603
R578   0603
R579   0603
R58    0603
R580   0603
R581   0603
R582   0603
R583   0603
R584   0603
R585   0603
R59    0603
R6     0603
R60    0603
R61    0603
R62    0603
R63    0603
R64    0603
R65    0603
R66    0603
R67    0603
R68    0603
R69    0603
R7     0603
R70    0603
R71    0603
R72    0603
R73    0603
R74    0603
R75    0603
R76    0603
R77    0603
R78    0603
R79    0603
R8     0603
R80    0603
R81    0603
R82    0603
R83    0603
R84    0603
R85    0603
R86    0603
R87    0603
R88    0603
R89    0603
R9     0603
R90    0603
R91    0603
R92    0603
R93    0603
R94    0603
R95    0603
R96    0603
R97    0603
R98    0603
R99    0603
RN1    SOE8
RN2    SOE8
RN3    SOE8
RN4    SOE8
RV1    SMB
S1     SMT
S2     SMT
T1     16P-SMT
T2     16P-SMT
T3     16P-SMT
T4     16P-SMT
U1     54-PIN TSOP
U10    20P-SOIC
U11    8-SOIC
U12    28P-SSOP
U13    28P-SSOP
U14    100_LQFP
U15    14P-SOIC
U16    14P-SOIC
U17    328P-BGA
U18    SMT
U19    IR_MODULE-NO STUFF
U2     54-PIN TSOP
U20    24P-SOP
U21    SO-8
U22    128P-QFP
U23    SO-8
U24    128P-QFP
U25    100P-TQFP
U26    144P-PBGA
U27    16P-SSOP
U28    14P-SOIC
U29    14P-SOIC
U3     456-PBGA
U30    SOT-223
U31    14P-SOIC
U32    14P-SOIC
U33    48P-SSOP
U34    SO-8
U35    MSOP-8
U36    TO-252 Dpack
U37    MSOP-8
U38    SOT223-5
U39    32P-TSOP2
U4     54-PIN TSOP
U40    SLB28A
U41    14P-SOIC
U42    SO-8
U43    SO-8
U44    SOT-23
U5     54-PIN TSOP
U6     54-PIN TSOP
U8     32P-PLCC
U9     20P-SOIC
Y1     SMT
Y2     SMT
Y3     SMT
Y4     SMT
Y5     SMT
Y6     SMT
Y7     SMT

*NET*
*SIGNAL* N28764961
R19.2 U2.37
*SIGNAL* N1942530
J8.B44 U28.3
*SIGNAL* N1939380
U15.8 J8.B7 J8.B42
*SIGNAL* N1942487
J8.B58 U29.4
*SIGNAL* CD2
J8.B67 U3.AF5 R425.2
*SIGNAL* INT_CARD
J8.B16 U3.Y24 R430.2
*SIGNAL* CD1
J8.B36 U3.AE8 R426.2
*SIGNAL* N1942537
J8.B45 U28.11
*SIGNAL* N1942851
U29.2 U28.13 U28.2
*SIGNAL* N678998
R452.2 R461.2 U33.7 R466.1
*SIGNAL* N694969
U33.21 R451.1
*SIGNAL* N677911
U33.17 R448.1
*SIGNAL* N1559231
U33.14 R458.2
*SIGNAL* N694247
R456.2 U33.12
*SIGNAL* N677917
U33.20 R450.1
*SIGNAL* N1559228
U33.13 R457.2
*SIGNAL* N677932
U33.8 R462.2 R453.2 R465.1
*SIGNAL* N677914
U33.18 R449.1
*SIGNAL* N1954970
Q4.2 R387.1
*SIGNAL* HPNA_LINK
U25.65 U15.5 R571.1
*SIGNAL* N1954973
R387.2 D3.1
*SIGNAL* P_OE
R109.2 U3.C2 U8.24 U28.1 U28.10 U39.24 U40.20
*SIGNAL* P_WE
R112.2 U3.D2 U8.31 U28.12 U28.5 U39.31 U40.21
*SIGNAL* P_CS2
U3.C5 R116.2 R543.1
*SIGNAL* MSYS_BSY
R119.2 U3.E3 J8.B59 U39.23
*SIGNAL* P_CS0
U3.B3 R118.2 R545.1 R544.1
*SIGNAL* GPIO1
U3.D18 R480.2 R499.1
*SIGNAL* PWR_GD
U16.9 U30.2 U44.2 R438.1 U39.29
*SIGNAL* PCI_GNT3
J5.14 U22.117 U3.H26
*SIGNAL* N2602044
J5.32 R344.1
*SIGNAL* MSYS_CS
U39.22 R543.2 R544.2
*SIGNAL* INT_PHY
R218.1 R219.1 U3.V25
*SIGNAL* INT_24611
R216.2 R219.2 U25.25
*SIGNAL* INT_9131
U14.63 R218.2 R217.2
*SIGNAL* N2552007
J6.14 J6.12 U24.87
*SIGNAL* N2000353
R356.2 U24.74
*SIGNAL* N2012554
R358.2 U24.81
*SIGNAL* N1993900
R354.2 U24.85
*SIGNAL* N1614828
R431.2 U31.1 R438.2 C164.1 S2.2
*SIGNAL* N1627960
R541.2 U31.12
*SIGNAL* N1628259
U31.4 R534.1
*SIGNAL* N1627957
R538.2 U31.9
*SIGNAL* N1628265
U31.13 R540.1
*SIGNAL* N1628262
U31.10 R537.1
*SIGNAL* N1628250
U31.6 R536.1
*SIGNAL* N1627954
R535.2 U31.5
*SIGNAL* N1628256
U31.11 R542.1
*SIGNAL* N1628253
U31.8 R539.1
*SIGNAL* N2687024
R176.2 U12.7
*SIGNAL* N2685513
C38.2 U12.28
*SIGNAL* N2685506
C38.1 U12.26
*SIGNAL* N2683914
C35.2 U12.1
*SIGNAL* N2685534
C40.1 U12.24
*SIGNAL* N2685527
C39.2 U12.2
*SIGNAL* N2689327
U12.16 JP1.2
*SIGNAL* N2687027
R178.2 U12.9
*SIGNAL* N2685520
U12.4 C39.1
*SIGNAL* N2689131
U12.22 JP1.7
*SIGNAL* N2689174
U12.20 JP1.4
*SIGNAL* N2689199
U12.18 JP1.6
*SIGNAL* N2689211
U12.17 JP1.3
*SIGNAL* N2689149
U12.21 JP1.5
*SIGNAL* N2685541
U12.6 C40.2
*SIGNAL* N2683893
U12.25 C41.2
*SIGNAL* N13271
D2.1 BT1.1
*SIGNAL* N13274
C85.1 D2.2 C86.1 R578.2
*SIGNAL* N12878
R278.2 R280.1 C88.1 U20.2 Y3.1
*SIGNAL* N12860
C87.1 R278.1 U20.3 Y3.4
*SIGNAL* N107925
U16.8 U16.11
*SIGNAL* OSC32KII
C78.1 R257.1 Y2.4 U17.N19
*SIGNAL* N122188
U17.D17 R266.2
*SIGNAL* IRQ7
U17.W20 R289.2
*SIGNAL* XD1
U17.C15 U20.5
*SIGNAL* IRQ10
U17.N18 R297.2
*SIGNAL* IOR
U17.V15 R291.2
*SIGNAL* N13162
U20.13 U16.10 R302.1 Q3.1 Q2.1
*SIGNAL* N452112
U17.D15 R267.2
*SIGNAL* N11031
U17.K20 R270.2
*SIGNAL* IRQ14
U17.G17 R301.2
*SIGNAL* XD7
U17.C17 U20.11
*SIGNAL* XD2
U17.A16 U20.6
*SIGNAL* IRQ6
U17.V19 R290.2
*SIGNAL* DREQ7
U17.B19 R312.1
*SIGNAL* XD4
U17.C16 U20.8
*SIGNAL* RTCAS
U17.C14 U20.14
*SIGNAL* IOW
U17.Y15 R287.2
*SIGNAL* IRQ4
U17.U20 R293.2
*SIGNAL* SBHE
U17.P18 R296.2
*SIGNAL* IO16
U17.P17 R286.2
*SIGNAL* N450977
R258.2 U17.L20
*SIGNAL* IRRXH
U18.3 U17.U13
*SIGNAL* OSC32KI
U17.N20 C80.1 Y2.1 R257.2 R262.1 R279.2
*SIGNAL* N44998
U17.A15 R276.2
*SIGNAL* RTCDS
U17.A14 U20.17
*SIGNAL* DREQ0
U17.F18 R306.1
*SIGNAL* IRQ3
U17.U16 R295.2 U40.22
*SIGNAL* IOCHK
U17.Y10 R288.2
*SIGNAL* NOWS
U17.V13 R284.2
*SIGNAL* XD0
U17.B15 U20.4
*SIGNAL* DIN3
R181.1 JP2.4 U13.20
*SIGNAL* ROUT4
R187.1 JP2.2 U13.16
*SIGNAL* ROUT5
R188.1 U13.15 JP2.1
*SIGNAL* ROUT2
R185.1 JP2.6 U13.18
*SIGNAL* ROUT1
R184.1 JP2.8 U13.19
*SIGNAL* ROUT3
R186.1 U13.17 JP2.3
*SIGNAL* N11161
R259.2 U17.Y5
*SIGNAL* N99138
U17.E17 R264.2
*SIGNAL* N11112
U17.R17 R268.2
*SIGNAL* DREQ2
U17.V12 R308.1
*SIGNAL* IRQ11
U17.N16 R298.2
*SIGNAL* REFSH
U17.Y19 R283.2
*SIGNAL* IRQ5
U17.U17 R294.2
*SIGNAL* RTCRW
U17.B14 U20.15
*SIGNAL* IRQ9
U17.V11 R292.2
*SIGNAL* N1954959
R389.1 Q4.1 R380.2 R388.1
*SIGNAL* N2694580
L4.2 C135.1
*SIGNAL* DIN1
R177.1 U13.22 JP2.7
*SIGNAL* DIN2
R179.1 U13.21 JP2.5
*SIGNAL* N11168
U17.W3 R269.1
*SIGNAL* N11182
U17.V4 R260.2
*SIGNAL* IRQ8
U17.L19 R281.2 R299.2
*SIGNAL* XD5
U17.A17 U20.9
*SIGNAL* DREQ6
U17.C20 R311.1
*SIGNAL* DREQ1
U17.V17 R307.1
*SIGNAL* IRQ15
U17.H17 R300.2
*SIGNAL* DREQ5
U17.E18 R310.1
*SIGNAL* N1772364
U26.M11 R416.1
*SIGNAL* N01320
U17.F2 R245.2
*SIGNAL* N712726
U17.G1 R242.2
*SIGNAL* N712991
D1.2 R255.1
*SIGNAL* N101385
R275.1 U17.M19
*SIGNAL* M16
U17.P19 R285.2
*SIGNAL* DREQ3
U17.W16 R309.1
*SIGNAL* XD6
U17.B17 U20.10
*SIGNAL* XD3
U17.B16 U20.7
*SIGNAL* IOCHRDY
U17.Y14 R282.2
*SIGNAL* N1772329
U26.K9 R412.1
*SIGNAL* N1772357
R415.1 U26.N11
*SIGNAL* N1772336
R413.1 U26.N10
*SIGNAL* N1772343
U26.L10 R414.1
*SIGNAL* N1772299
U26.N9 R411.1
*SIGNAL* N722948
L1.2 F1.1 R226.2
*SIGNAL* N01539
RN4.4 U17.G4
*SIGNAL* N01602
RN2.3 U17.J3
*SIGNAL* N01588
RN3.1 U17.J1
*SIGNAL* N01581
U17.H5 RN3.2
*SIGNAL* N01567
RN3.4 U17.H3
*SIGNAL* N712737
R239.2 R235.2 U17.F5
*SIGNAL* N07646
C62.1 U17.A13 R221.2
*SIGNAL* N01546
RN4.3 U17.G5
*SIGNAL* N01553
U17.H1 RN4.2
*SIGNAL* N01637
RN1.2 U17.K3
*SIGNAL* N01630
RN1.3 U17.K2
*SIGNAL* N01616
RN2.1 U17.J5
*SIGNAL* N712762
U17.F3 R243.2
*SIGNAL* N07639
C61.1 R222.2 U17.E12
*SIGNAL* N17695
R233.2 U17.N15
*SIGNAL* N01308
R241.2 U17.F1
*SIGNAL* USBOVC
R225.1 U17.C12 C67.1 R226.1
*SIGNAL* N05071
U17.E5 R253.2
*SIGNAL* N05064
R254.2 U17.E4
*SIGNAL* N05078
U17.E6 R252.2
*SIGNAL* N712701
R238.2 U17.G2
*SIGNAL* N05085
U17.F4 R251.2
*SIGNAL* N05050
U17.A6 R248.2
*SIGNAL* N3203087
R575.2 J6.13
*SIGNAL* N3203080
J6.11 R361.2
*SIGNAL* GPIO2
U3.C20 R481.2 R500.1
*SIGNAL* N3204033
R577.2 J1.13
*SIGNAL* N01560
RN4.1 U17.H2
*SIGNAL* N01623
U17.K1 RN1.4
*SIGNAL* N01644
U17.K4 RN1.1
*SIGNAL* N01609
U17.J4 RN2.2
*SIGNAL* N01595
RN2.4 U17.J2
*SIGNAL* N01574
U17.H4 RN3.3
*SIGNAL* N01272
R240.2 U17.G3
*SIGNAL* N07632
C60.1 U17.C13 R223.2
*SIGNAL* N17652
R232.2 U17.P15
*SIGNAL* N712865
U17.E3 R236.1
*SIGNAL* N07625
C59.1 R224.2 U17.B13
*SIGNAL* N712862
U17.E1 R237.1
*SIGNAL* N712708
R238.1 J3.23
*SIGNAL* N01284
R244.2 U17.E2
*SIGNAL* N17642
R234.2 U17.G15
*SIGNAL* N712719
R242.1 J3.25
*SIGNAL* N107715
U20.22 Q2.2 R277.1 R578.1
*SIGNAL* N3203526
R576.2 J4.13
*SIGNAL* N3005864
T2.16 R339.2 U22.109 C284.2
*SIGNAL* N3005872
R340.2 T2.15 U22.110 C285.2
*SIGNAL* N3005888
T2.2 U22.106 R342.1
*SIGNAL* N3005880
T2.1 R341.1 U22.105
*SIGNAL* N2705147
R550.1 U32.8
*SIGNAL* N2705113
U32.10 R546.1
*SIGNAL* N722557
J2.B1 L1.1 C66.1 C65.1 J2.A1
*SIGNAL* PIDE_D14
RN4.7 J3.16 R324.1
*SIGNAL* PIDE_D13
RN3.5 J3.14 R323.1
*SIGNAL* PIDE_D3
J3.11 RN3.8 R313.1
*SIGNAL* PIDE_D12
J3.12 RN3.7 R322.1
*SIGNAL* PIDE_D11
J3.10 RN2.5 R321.1
*SIGNAL* USB1P
R228.1 J2.B3 R222.1 U42.2
*SIGNAL* USB1N
J2.B2 R227.1 R221.1 U42.4
*SIGNAL* USB0P
R230.1 R224.1 J2.A3 U42.8
*SIGNAL* USB0N
R223.1 R229.1 J2.A2 U42.6
*SIGNAL* N722516
J2.B4 L3.1 C64.1
*SIGNAL* N722740
J2.A4 C63.1 L2.1
*SIGNAL* N713055
J3.28 R247.1
*SIGNAL* N712837
R241.1 J3.35
*SIGNAL* N712780
R240.1 J3.21 R246.1
*SIGNAL* N712797
R244.1 J3.37
*SIGNAL* N2723990
R183.2 JP2.10
*SIGNAL* PIDE_D10
RN2.7 J3.8 R320.1
*SIGNAL* PIDE_D8
RN1.7 J3.4 R318.1
*SIGNAL* PIDE_D15
RN4.5 J3.18 R325.1
*SIGNAL* PIDE_D0
RN4.6 J3.17 R303.1
*SIGNAL* PIDE_D6
RN1.6 J3.5 R316.1
*SIGNAL* N712868
R237.2 J3.38
*SIGNAL* N712880
J3.36 R236.2
*SIGNAL* N712744
R239.1 J3.27
*SIGNAL* N05216
U17.H20 U16.3
*SIGNAL* N712851
R245.1 J3.33
*SIGNAL* SIRQI
J3.31 U17.D12
*SIGNAL* RSTDRV
U16.5 U17.T10
*SIGNAL* N712965
J3.1 U16.6
*SIGNAL* N712984
J3.39 R255.2
*SIGNAL* N712755
R243.1 J3.29
*SIGNAL* N1994021
R353.2 U24.84
*SIGNAL* N568780
U5.45 R95.1
*SIGNAL* N568774
U5.42 R90.1
*SIGNAL* N568765
U5.10 R83.1
*SIGNAL* N568789
U5.50 R101.1
*SIGNAL* N568750
U5.2 R73.1
*SIGNAL* N568786
U5.48 R99.1
*SIGNAL* N568759
U5.7 R79.1
*SIGNAL* N568777
U5.44 R93.1
*SIGNAL* N568768
U5.11 R85.1
*SIGNAL* N568795
U5.53 R105.1
*SIGNAL* PIDE_D5
RN2.8 J3.7 R315.1
*SIGNAL* PIDE_D1
J3.15 RN4.8 R304.1
*SIGNAL* PIDE_D7
RN1.8 J3.3 R317.1
*SIGNAL* PIDE_D4
J3.9 RN2.6 R314.1
*SIGNAL* PIDE_D9
J3.6 RN1.5 R319.1
*SIGNAL* PIDE_D2
J3.13 RN3.6 R305.1
*SIGNAL* N568723
U6.13 R88.1
*SIGNAL* N568762
U5.8 R81.1
*SIGNAL* N568741
U6.50 R102.1
*SIGNAL* N568705
U6.4 R76.1
*SIGNAL* N568756
U5.5 R77.1
*SIGNAL* N568771
U5.13 R87.1
*SIGNAL* N568717
U6.10 R84.1
*SIGNAL* N568783
U5.47 R97.1
*SIGNAL* N568714
U6.8 R82.1
*SIGNAL* N568747
U6.53 R106.1
*SIGNAL* N568729
U6.44 R94.1
*SIGNAL* N568735
U6.47 R98.1
*SIGNAL* N568708
U6.5 R78.1
*SIGNAL* N568792
U5.51 R103.1
*SIGNAL* N568720
U6.11 R86.1
*SIGNAL* N568753
U5.4 R75.1
*SIGNAL* N491474
U4.42 R64.1
*SIGNAL* N491492
U4.51 R71.1
*SIGNAL* N491453
U4.4 R49.1
*SIGNAL* N491462
U4.8 R55.1
*SIGNAL* N568744
U6.51 R104.1
*SIGNAL* N568738
U6.48 R100.1
*SIGNAL* N568732
U6.45 R96.1
*SIGNAL* N568711
U6.7 R80.1
*SIGNAL* N568726
U6.42 R92.1
*SIGNAL* N568702
U6.2 R74.1
*SIGNAL* N491450
U4.2 R47.1
*SIGNAL* N491483
U4.47 R67.1
*SIGNAL* N491540
U1.51 R31.1
*SIGNAL* N491456
U4.5 R51.1
*SIGNAL* N491525
U1.44 R21.1
*SIGNAL* N491498
U1.2 R1.1
*SIGNAL* N491510
U1.8 R9.1
*SIGNAL* N491534
U1.48 R27.1
*SIGNAL* N497496
U2.5 R6.1
*SIGNAL* N491411
U2.11 R14.1
*SIGNAL* N491414
U2.13 R16.1
*SIGNAL* N491495
U4.53 R72.1
*SIGNAL* N491468
U4.11 R59.1
*SIGNAL* N491486
U4.48 R68.1
*SIGNAL* N497465
U2.53 R34.1
*SIGNAL* N491465
U4.10 R57.1
*SIGNAL* N491477
U4.44 R65.1
*SIGNAL* N491420
U2.44 R22.1
*SIGNAL* N491480
U4.45 R66.1
*SIGNAL* N491471
U4.13 R61.1
*SIGNAL* N491528
U1.45 R23.1
*SIGNAL* N491489
U4.50 R70.1
*SIGNAL* N491459
U4.7 R53.1
*SIGNAL* N491417
U2.42 R20.1
*SIGNAL* MD15
U3.AE5 R33.2 R105.2
*SIGNAL* N491531
U1.47 R25.1
*SIGNAL* N491537
U1.50 R29.1
*SIGNAL* MD3
R7.2 U3.AC11 R79.2
*SIGNAL* N491504
U1.5 R5.1
*SIGNAL* N491408
U2.10 R12.1
*SIGNAL* N491507
U1.7 R7.1
*SIGNAL* N491516
U1.11 R13.1
*SIGNAL* N491522
U1.42 R18.1
*SIGNAL* MD5
R11.2 U3.AE11 R83.2
*SIGNAL* N491501
U1.4 R3.1
*SIGNAL* N491543
U1.53 R33.1
*SIGNAL* MD2
U3.AD11 R5.2 R77.2
*SIGNAL* MA11
U1.35 U3.AD18 U4.35 U2.35 U5.35 U6.35
*SIGNAL* N491519
U1.13 R15.1
*SIGNAL* N491513
U1.10 R11.1
*SIGNAL* N2765968
R110.2 U8.1
*SIGNAL* IRDY
U17.A5 U22.23 J5.45 U24.23 U3.J23 U26.K1 R395.2 JP3.35
*SIGNAL* GPIO5_LINK
R388.2 U3.AC9
*SIGNAL* MDQM0
U1.15 R62.2 U5.15
*SIGNAL* N497474
U2.48 R28.1
*SIGNAL* N491405
U2.8 R10.1
*SIGNAL* N497499
U2.4 R4.1
*SIGNAL* N497468
U2.51 R32.1
*SIGNAL* N497502
U2.2 R2.1
*SIGNAL* N491402
U2.7 R8.1
*SIGNAL* MD28
R68.2 U3.W3 R100.2
*SIGNAL* MECC5
R30.2 U3.AF12 R12.2 R40.2
*SIGNAL* MECC0
R2.2 R20.2 U3.AE14 R35.2
*SIGNAL* N491423
U2.45 R24.1
*SIGNAL* N497471
U2.50 R30.1
*SIGNAL* N497477
U2.47 R26.1
*SIGNAL* MECC4
R10.2 U3.AF13 R28.2 R39.2
*SIGNAL* MECC3
R26.2 R8.2 U3.AD13 R38.2
*SIGNAL* MDQM2
U4.15 R58.2 U6.15
*SIGNAL* MD8
U3.AD9 R18.2 R90.2
*SIGNAL* MD14
R31.2 U3.AE6 R103.2
*SIGNAL* MA2
U3.AE21 U4.25 U1.25 U2.25 U5.25 U6.25
*SIGNAL* MD20
U3.AD1 R55.2 R82.2
*SIGNAL* MA10
U4.22 U1.22 U3.AF19 U2.22 U5.22 U6.22
*SIGNAL* M_WE_N
U2.16 U1.16 R54.1 U4.16 U6.16 U5.16
*SIGNAL* MA5
U2.30 U1.30 U3.AE20 U4.30 U5.30 U6.30
*SIGNAL* MECC1
R22.2 R4.2 U3.AF15 R36.2
*SIGNAL* MA9
U2.34 U4.34 U3.AC18 U1.34 U5.34 U6.34
*SIGNAL* MA1
U3.AC21 U2.24 U4.24 U1.24 U5.24 U6.24
*SIGNAL* MA6
U1.31 U3.AC19 U2.31 U4.31 U5.31 U6.31
*SIGNAL* MA7
U2.32 U1.32 U3.AE19 U4.32 U5.32 U6.32
*SIGNAL* MA0
U2.23 U1.23 U4.23 U3.AE22 U5.23 U6.23
*SIGNAL* MD21
U3.AB2 R57.2 R84.2
*SIGNAL* MECC7
R34.2 R16.2 U3.AD12 R42.2
*SIGNAL* MBA1
U2.21 U1.21 U4.21 U3.AC24 U5.21 U6.21
*SIGNAL* MD0
R1.2 U3.AC13 R73.2
*SIGNAL* MD30
R71.2 U3.W1 R104.2
*SIGNAL* MD6
R13.2 U3.AD10 R85.2
*SIGNAL* MD12
U3.AC8 R27.2 R99.2
*SIGNAL* M_RAS_N
U4.18 R50.1 U2.18 U1.18 U6.18 U5.18
*SIGNAL* MA4
U3.AF22 U2.29 U1.29 U4.29 U5.29 U6.29
*SIGNAL* MD25
R65.2 U3.Y2 R94.2
*SIGNAL* MD27
U3.W2 R67.2 R98.2
*SIGNAL* MD26
U3.W4 R66.2 R96.2
*SIGNAL* MD11
U3.AF7 R25.2 R97.2
*SIGNAL* MD18
U3.AD4 R51.2 R78.2
*SIGNAL* MD13
U3.AD7 R29.2 R101.2
*SIGNAL* MA3
U2.26 U4.26 U1.26 U3.AD21 U5.26 U6.26
*SIGNAL* MD1
R3.2 U3.AE12 R75.2
*SIGNAL* MDQM1
U1.39 R60.2 U5.39
*SIGNAL* MBA0
U2.20 U1.20 U3.AB24 U4.20 U5.20 U6.20
*SIGNAL* M_CAS_N
R52.1 U1.17 U4.17 U2.17 U5.17 U6.17
*SIGNAL* M_BANK_SEL1_N
R69.2 U5.19 U6.19
*SIGNAL* MD7
R15.2 U3.AF9 R87.2
*SIGNAL* MA8
U4.33 U1.33 U3.AD19 U2.33 U5.33 U6.33
*SIGNAL* N686765
R44.1 U2.15 U2.39
*SIGNAL* N523868
U2.19 R43.1 U4.19 U1.19
*SIGNAL* MD10
U3.AD8 R23.2 R95.2
*SIGNAL* MD23
R61.2 U3.AA2 R88.2
*SIGNAL* MD22
U3.AA4 R59.2 R86.2
*SIGNAL* MD31
U3.V3 R72.2 R106.2
*SIGNAL* MD19
U3.AC5 R53.2 R80.2
*SIGNAL* MECC6
R32.2 R14.2 U3.AE13 R41.2
*SIGNAL* N2777586
Q2.3 U20.20 Q3.3 R277.2
*SIGNAL* MD16
U3.AE4 R47.2 R74.2
*SIGNAL* MD4
R9.2 U3.AF10 R81.2
*SIGNAL* MD24
R64.2 U3.AB1 R92.2
*SIGNAL* MD29
R70.2 U3.V4 R102.2
*SIGNAL* MECC2
U3.AF14 R24.2 R6.2 R37.2
*SIGNAL* MD17
U3.AD5 R49.2 R76.2
*SIGNAL* MDQM3
U4.39 R56.2 U6.39
*SIGNAL* MD9
U3.AE9 R21.2 R93.2
*SIGNAL* N3295229
T3.3 C106.1
*SIGNAL* N3280927
J9.1 C261.1 C262.1 C263.1 R521.2 L7.1 L8.1
*SIGNAL* N3280955
J9.2 R521.1
*SIGNAL* N2789469
R180.2 U12.11
*SIGNAL* N2789472
R182.2 U12.13
*SIGNAL* N2003409
R355.2 U24.69
*SIGNAL* N3315899
U22.64 R580.2
*SIGNAL* N3316403
R581.2 U22.91
*SIGNAL* N3316832
R582.2 U24.63
*SIGNAL* N3316828
R584.2 U24.91
*SIGNAL* N3316840
R583.2 U24.64
*SIGNAL* N2801219
R376.1 T4.16 RV1.1 J7.2 C260.1
*SIGNAL* N862542
U26.D5 J8.A33 R421.2
*SIGNAL* N862279
U26.B5 J8.A62
*SIGNAL* A_AD1
J8.A3 U26.K12
*SIGNAL* A_AD16
J8.A46 U26.E12
*SIGNAL* A_CBE3
J8.A61 U26.B7
*SIGNAL* N862365
U26.B12 J8.A19
*SIGNAL* N862450
U26.D11 J8.A48
*SIGNAL* A_AD15
J8.A45 U26.F10
*SIGNAL* N1598457
U32.12 R551.2 R546.2 R545.2
*SIGNAL* N3315892
U22.63 R579.2
*SIGNAL* N2991529
J4.12 U22.87 J4.14
*SIGNAL* N862414
U26.J13 J8.A40
*SIGNAL* N862426
U26.E10 J8.A47
*SIGNAL* N863534
U26.B11 J8.A54
*SIGNAL* A_AD13
J8.A44 U26.F13
*SIGNAL* N868685
J8.A13 U26.D13
*SIGNAL* N862390
U26.B9 J8.A58
*SIGNAL* A_AD4
J8.A38 U26.K13
*SIGNAL* A_AD28
J8.A64 U26.A3
*SIGNAL* A_AD27
J8.A30 U26.C4
*SIGNAL* N862581
U26.C12 J8.A49
*SIGNAL* A_AD12
J8.A10 U26.F11
*SIGNAL* A_AD14
J8.A11 U26.E13
*SIGNAL* A_AD25
J8.A28 U26.D7
*SIGNAL* A_AD26
J8.A29 U26.A6
*SIGNAL* N2830171
U15.3 R212.1 Q1.1
*SIGNAL* N2830146
U14.35 U15.1
*SIGNAL* A_AD29
J8.A31 U26.B3
*SIGNAL* A_AD5
J8.A5 U26.J12
*SIGNAL* A_AD3
J8.A4 U26.J10
*SIGNAL* A_CBE0
J8.A7 U26.H13
*SIGNAL* N862239
U26.A2 J8.A32
*SIGNAL* A_AD2
J8.A37 U26.K10
*SIGNAL* N863492
U26.C13 J8.A14
*SIGNAL* A_AD17
J8.A55 U26.D10
*SIGNAL* A_AD19
J8.A56 U26.A10
*SIGNAL* A_AD9
J8.A8 U26.G12
*SIGNAL* N862316
U26.C11 J8.A15
*SIGNAL* A_AD23
J8.A26 U26.A8
*SIGNAL* N863558
U26.A12 J8.A20
*SIGNAL* N862487
U26.C6 J8.A43
*SIGNAL* N862402
J8.A57 U26.D9
*SIGNAL* A_CBE1
J8.A12 U26.E11
*SIGNAL* N863522
U26.B13 J8.A50
*SIGNAL* A_AD0
J8.A2 U26.L13
*SIGNAL* A_AD30
J8.A65 U26.C3
*SIGNAL* A_AD31
J8.A66 U26.B2
*SIGNAL* N863546
U26.A13 J8.A53
*SIGNAL* N2705119
R548.1 U32.9
*SIGNAL* MII_TRF
U16.1 U14.34 R215.2 U15.4
*SIGNAL* N2693631
U15.6 R380.1
*SIGNAL* A_AD20
J8.A23 U26.C9
*SIGNAL* A_AD22
J8.A25 U26.D8
*SIGNAL* N863510
U26.A5 J8.A59
*SIGNAL* A_AD24
J8.A27 U26.C7
*SIGNAL* A_AD18
J8.A22 U26.B10
*SIGNAL* A_AD21
J8.A24 U26.A9
*SIGNAL* A_CBE2
J8.A21 U26.A11
*SIGNAL* A_AD8
J8.A41 U26.H12
*SIGNAL* N862291
U26.D6 J8.A16
*SIGNAL* N862462
U26.A4 J8.A67
*SIGNAL* N862530
U26.C5 J8.A63
*SIGNAL* N862569
U26.B8 J8.A60
*SIGNAL* A_AD11
J8.A9 U26.G10
*SIGNAL* N862500
U26.L12 J8.A36
*SIGNAL* A_AD10
J8.A42 U26.G11
*SIGNAL* N2857527
Q10.5 Q10.6 Q10.7 Q10.8 R518.1
*SIGNAL* PWR_ON
Q10.4 Q12.4 Q8.3 R509.2
*SIGNAL* A_AD7
J8.A6 U26.H10
*SIGNAL* A_AD6
J8.A39 U26.J11
*SIGNAL* N804856
U37.1 R523.2 C208.2 Q11.5 Q11.6 Q11.7 Q11.8
*SIGNAL* N806608
U35.2 R517.2 C194.1
*SIGNAL* N806512
U35.1 R510.2 C190.2 Q9.5 Q9.6 Q9.7 Q9.8
*SIGNAL* N806568
R519.1 R522.2 U35.3 C203.1 C201.2
*SIGNAL* N839966
R517.1 C200.1
*SIGNAL* N806540
U35.7 C195.1
*SIGNAL* N806556
U35.6 R515.1
*SIGNAL* N839969
R526.1 C217.1
*SIGNAL* N804924
R528.1 R533.2 U37.3 C220.1 C218.2
*SIGNAL* N810754
R525.2 Q11.4
*SIGNAL* N804914
U37.6 R525.1
*SIGNAL* N804890
U37.7 C212.1
*SIGNAL* N804970
U37.2 R526.2 C211.1
*SIGNAL* N2877244
R63.2 U4.37
*SIGNAL* N2877436
R17.2 U1.37
*SIGNAL* UART1_RTS
U3.AD2 R178.1 R176.1 R485.2 R504.1
*SIGNAL* N678439
R444.2 D4.1
*SIGNAL* N952543
U3.AE26 R443.1
*SIGNAL* N6941680
Q5.2 R444.1
*SIGNAL* N6941720
Q6.2 R445.1
*SIGNAL* N952602
U3.AD22 R442.1
*SIGNAL* N953622
U3.AB26 R422.2
*SIGNAL* N952620
U3.D26 R432.1
*SIGNAL* N804878
Q11.1 Q11.2 Q11.3 C212.2 U37.5 L6.1 D7.2
*SIGNAL* N810751
R515.2 Q9.4
*SIGNAL* N806532
Q9.1 Q9.2 Q9.3 C195.2 U35.5 L5.1 D6.2
*SIGNAL* RAM_CLK2
U4.38 R48.1 U1.38 R450.2
*SIGNAL* N2879516
R89.2 U5.37
*SIGNAL* N2879519
R91.2 U6.37
*SIGNAL* PCI_CLK1
U17.E8 R453.1
*SIGNAL* OSC14M
U17.P20 U33.48
*SIGNAL* N678472
R445.2 D5.1
*SIGNAL* N677843
C165.2 U33.4 R447.1 Y7.3
*SIGNAL* N678442
Q5.1 R436.2 U3.AC7
*SIGNAL* N952562
U3.AE24 R440.1
*SIGNAL* N678476
Q6.1 R437.2 U3.AB3
*SIGNAL* N952584
R441.1 U3.AC22
*SIGNAL* N952906
R428.2 U3.D24
*SIGNAL* N952627
R433.1 U3.C25
*SIGNAL* N952647
U3.E23 R435.1
*SIGNAL* N679401
U3.V23 R429.2 S1.2
*SIGNAL* RAM_CLK1
R46.1 U2.38 R449.2
*SIGNAL* RAM_CLK3
R45.1 U5.38 U6.38 R451.2
*SIGNAL* N815136
R123.2 U9.3 R124.1
*SIGNAL* N2882814
U10.1 R162.1
*SIGNAL* N815200
R130.1 U9.6 R129.2
*SIGNAL* N2881164
U9.1 R137.1
*SIGNAL* N814418
R138.2 R139.1 U10.2
*SIGNAL* N815168
R126.1 R125.2 U9.4
*SIGNAL* USBCLK
U17.B12 U33.26 R460.2 R467.1
*SIGNAL* INT_1543
U16.4 U3.W25
*SIGNAL* PCI_CLK5
U22.115 J5.9 R457.1
*SIGNAL* N835337
R463.2 U33.2 R464.1
*SIGNAL* N677862
C166.2 R447.2 Y7.1 U33.5
*SIGNAL* PCI_CLK6
R458.1 JP3.4
*SIGNAL* N952634
R434.1 U3.E24
*SIGNAL* P_DAT8
U3.R1 U10.18 J8.B6
*SIGNAL* P_DAT10
U10.16 U3.N3 J8.B4
*SIGNAL* P_DAT12
U3.M1 U10.14 J8.B2
*SIGNAL* N814368
R151.1 U10.3 R150.2
*SIGNAL* N815140
R122.1 R121.2 U9.2
*SIGNAL* N814527
R154.2 R155.1 U10.5
*SIGNAL* N814558
U10.6 R157.1 R156.2
*SIGNAL* N815184
U9.5 R127.2 R128.1
*SIGNAL* N814511
R152.2 R153.1 U10.4
*SIGNAL* N814589
U10.7 R159.1 R158.2
*SIGNAL* P_DAT14
U10.12 U3.M3 J8.B31
*SIGNAL* P_DAT6
U9.12 U8.14 U3.R4 J8.B65 U39.14 JP7.4 U40.27
*SIGNAL* N814687
R163.2 U10.9 R164.1
*SIGNAL* N815216
R131.2 U9.7 R132.1
*SIGNAL* N815248
R136.1 R135.2 U9.9
*SIGNAL* N815232
R133.2 U9.8 R134.1
*SIGNAL* N670089
U3.Y4 R113.2
*SIGNAL* N673232
U3.Y1 R147.1
*SIGNAL* N673287
U3.C11 R142.1
*SIGNAL* N814656
R160.2 U10.8 R161.1
*SIGNAL* P_DMA_ACK2
U3.B14 R514.1 R512.2
*SIGNAL* N670105
U3.B1 R149.1
*SIGNAL* P_DAT3
U9.15 U8.18 U3.T4 J8.B38 U39.18 JP7.10 U40.2
*SIGNAL* P_DAT15
U3.M4 U10.11 J8.B30
*SIGNAL* P_DAT5
U3.P4 U8.15 U9.13 J8.B66 U39.15 JP7.6 U40.28
*SIGNAL* P_DAT9
U10.17 U3.P1 J8.B5
*SIGNAL* P_DAT0
U3.U4 U9.18 U8.21 J8.B41 JP7.16 U39.21 U40.5
*SIGNAL* N673294
U3.D14 R141.1
*SIGNAL* VCC5_SEN
R528.2 C214.1 C213.1 L6.2 C215.1 U34.2 Q12.1 Q12.2
Q12.3 C218.1
*SIGNAL* VCC3.3_SEN
C199.1 L5.2 C197.1 C198.1 R519.2 Q10.1 Q10.2 Q10.3
U34.6 C201.1
*SIGNAL* N2891983
U34.1 R469.1 Q7.1
*SIGNAL* N2892017
R468.1 R489.2 U34.3 C183.1
*SIGNAL* N2893795
Q7.3 Q8.2
*SIGNAL* P_DAT13
U3.N2 U10.13 J8.B32
*SIGNAL* P_DAT7
U9.11 U8.13 U3.P2 J8.B64 U39.13 JP7.2 U40.26
*SIGNAL* P_DAT2
U8.19 U3.U1 U9.16 J8.B39 JP7.12 U39.19 U40.3
*SIGNAL* P_DAT1
U3.U3 U8.20 U9.17 J8.B40 JP7.14 U39.20 U40.4
*SIGNAL* N673434
R120.2 U3.F2
*SIGNAL* N673259
U3.V2 R146.1
*SIGNAL* N673280
U3.A7 R143.1
*SIGNAL* N670119
U3.V1 R148.1
*SIGNAL* N673273
U3.F3 R144.1
*SIGNAL* P_DMA_ACK0
U3.D16 R474.2 R493.1 U40.24 U29.9
*SIGNAL* P_HOLD_ACK
U3.U2 R486.2 R505.1
*SIGNAL* P_DAT11
U3.N1 U10.15 J8.B3
*SIGNAL* P_DAT4
U8.17 U9.14 U3.R2 J8.B37 JP7.8 U39.17 U40.1
*SIGNAL* P_ADDR15
U3.A8 U8.2 J8.B19
*SIGNAL* P_ADDR22
U8.26 U3.D13 J8.B11
*SIGNAL* P_ADDR11
U3.D8 J8.B49
*SIGNAL* P_ADDR31
U3.D15 U8.12 J8.B29 U39.12 JP7.1 U40.25
*SIGNAL* P_ADDR16
U3.C9 U8.3 J8.B20
*SIGNAL* P_ADDR30
U8.11 U3.C15 J8.B28 U39.11 JP7.3
*SIGNAL* N670098
U3.T2 R114.2
*SIGNAL* N673266
U3.G2 R145.1
*SIGNAL* P_EXT_ACK
U3.Y3 R487.2 R506.1
*SIGNAL* N2891995
U34.7 R470.1 Q8.1
*SIGNAL* P_ADDR27
U3.C14 U8.8 J8.B25 U39.8 JP7.9
*SIGNAL* P_ADDR14
U3.D9 U8.30 J8.B46
*SIGNAL* P_ADDR26
U8.7 U3.A13 J8.B24 U29.1 U28.9 U28.4 U39.7 JP7.11
*SIGNAL* P_ADDR18
U3.C10 U8.28 J8.B13
*SIGNAL* P_ADDR19
U8.4 U3.A10 J8.B21 U39.4
*SIGNAL* P_ADDR10
U3.C7 J8.B50 R547.2
*SIGNAL* P_ADDR23
U3.D12 U8.27 J8.B12 U39.27
*SIGNAL* P_ADDR20
U3.D11 U8.25 J8.B10 U39.25
*SIGNAL* P_ADDR25
U8.6 U3.A12 J8.B23 U39.6 JP7.13
*SIGNAL* P_DMA_ACK1
U3.B15 R475.2 R494.1
*SIGNAL* P_DMA_ACK3
U3.C12 R511.2 R513.1
*SIGNAL* N2905670
R529.1 R527.1 Q12.5 Q12.6 Q12.7 Q12.8
*SIGNAL* N9558110
R529.2 D8.1
*SIGNAL* N2893805
R489.1 U34.5 R508.1 C182.1
*SIGNAL* P_ADDR12
U3.B8 J8.B48
*SIGNAL* P_ADDR21
U8.23 U3.B12 J8.B8
*SIGNAL* P_ADDR17
U3.D10 U8.29 J8.B14
*SIGNAL* P_ADDR29
U8.10 U3.A15 J8.B27 U39.10 JP7.5
*SIGNAL* P_ADDR13
U3.C8 R110.1 J8.B47
*SIGNAL* P_ADDR24
U3.B13 U8.5 J8.B22 U39.5 JP7.15
*SIGNAL* P_ADDR28
U3.A14 U8.9 J8.B26 U39.9 JP7.7
*SIGNAL* PHY_RST
U14.73 U25.55 U15.11
*SIGNAL* N1848152
U25.23 R390.2 R392.2
*SIGNAL* N953852
R175.1 U11.7
*SIGNAL* TIP
J5.99 R376.2
*SIGNAL* RING
J5.100 R377.2
*SIGNAL* GPIO4_RST
U3.AF18 U15.13 R488.2 R507.1
*SIGNAL* N801569
R173.1 U11.2
*SIGNAL* N801429
U11.1 R172.2
*SIGNAL* N801572
R174.1 U11.3
*SIGNAL* N654460
C44.2 U13.24
*SIGNAL* N654474
U13.4 C43.2
*SIGNAL* N654453
C44.1 U13.6
*SIGNAL* N2939552
U15.2 U16.2
*SIGNAL* N654758
R168.2 U3.AE17
*SIGNAL* N654612
R188.2 U3.AE18 U13.14
*SIGNAL* N654662
U13.11 U3.AB4 R185.2
*SIGNAL* N654467
C43.1 U13.2
*SIGNAL* N654488
U13.26 C42.2
*SIGNAL* IIC_SCL
R170.2 U3.AD6 U11.6 U33.24
*SIGNAL* N654956
R166.2 U3.AC3 R180.1 R182.1
*SIGNAL* IIC_SDA
U3.AE7 R169.2 U11.5 U33.23
*SIGNAL* UART0_RTS
R181.2 U13.9 U3.AD16 R473.2 R492.1
*SIGNAL* N654636
R186.2 U13.12 U3.AE16
*SIGNAL* N654520
C45.1 U13.25
*SIGNAL* N654503
C37.1 U13.1
*SIGNAL* N654481
C42.1 U13.28
*SIGNAL* TX_EN
U3.K23 U14.43 U25.43 R483.2 R502.1
*SIGNAL* N654624
R187.2 U3.AE3 U13.13
*SIGNAL* UART0_TX
R179.2 U3.AF3 U13.8 R471.2 R490.1
*SIGNAL* N654674
U3.AD15 R184.2 U13.10
*SIGNAL* UART0_DTR
R177.2 U3.AF2 U13.7 R472.2 R491.1
*SIGNAL* N654949
U3.AC1 R167.2 U12.12
*SIGNAL* TX_ERR
U3.K25 U14.38 R482.2 R501.1
*SIGNAL* UART1_TX
U3.AC2 U12.8 R484.2 R503.1
*SIGNAL* AVCC_3.3
U14.99 U14.17 U14.16 U14.6 U14.5 R199.1 R200.1 C52.1
C55.1 C54.1 C53.1 C282.1 C283.1 C288.1 T1.14 C291.1
U22.112 U22.103 U22.111 R340.1 T2.14 U22.104 C93.1 C92.1
R339.1 C285.1 C284.1 C289.1 R363.1 C287.1 C286.1 C109.1
R362.1 U24.111 C110.1 T3.14 U24.104 U24.103 U24.112 C290.1
C132.1 C129.1 U25.6 U25.87 U25.94 U25.74 C131.1 C130.1
U25.66 R524.2 U40.8 R552.1 C252.1
*SIGNAL* RXD2
U3.AC20 U14.59 U25.27
*SIGNAL* RXD3
U3.AD20 U14.58 U25.26
*SIGNAL* RXD1
U3.AF23 U14.60 U25.28
*SIGNAL* TXD0
U3.J26 U14.42 U25.47 R479.2 R498.1
*SIGNAL* TXD1
U3.L25 U14.41 U25.48 R478.2 R497.1
*SIGNAL* TXD2
U3.L24 U14.40 U25.51 R477.2 R496.1
*SIGNAL* TXD3
U3.P25 U14.39 U25.52 R476.2 R495.1
*SIGNAL* RXD0
U3.AE23 U14.61 U25.29
*SIGNAL* SYS_RST
U29.3 R427.2 U31.3 U3.D22 U15.12 U40.6 U29.5
*SIGNAL* PCI_GNT1
U17.B11 R250.2 U3.T23
*SIGNAL* PCI_REQ1
R249.2 U17.A11 U3.C21
*SIGNAL* PERR
U22.30 J5.55 U24.30 U3.G25 U26.L3 R400.2 JP3.10
*SIGNAL* PCI_REQ5
U3.J25 R406.1
*SIGNAL* N1103751
U26.L11 R409.2
*SIGNAL* INT_SLOT
U26.K8 R410.2 U3.AA24
*SIGNAL* PCI_CLK0
R402.2 U3.A25 R452.1 R459.1
*SIGNAL* N1124969
R403.2 R401.2 U26.M10
*SIGNAL* N614380
U3.B20 R402.1 R407.1
*SIGNAL* PCI_REQ4
U3.G23 R405.1
*SIGNAL* N898146
U26.N12 U27.15
*SIGNAL* PCI_REQ0
U3.C19 U26.A1
*SIGNAL* VCC_5
R235.1 F1.2 U17.G6 D1.1 U17.F14 U17.R15 U17.P6 U17.R6
C70.1 C73.1 U17.R7 C68.1 C72.1 C69.1 R232.1 C71.1
R233.1 U19.3 R263.2 C82.1 R265.1 C81.2 R287.1 R301.1
R300.1 R299.1 R298.1 R297.1 R296.1 R295.1 R294.1 R293.1
R292.1 R291.1 R290.1 R289.1 R288.1 R285.1 R284.1 R283.1
R286.1 R282.1 R324.2 R303.2 R304.2 R305.2 R313.2 R314.2
R315.2 R316.2 R317.2 R318.2 R319.2 R320.2 R321.2 R322.2
R323.2 R325.2 J5.81 J5.2 J5.5 J5.27 J5.6 J5.77
J5.20 J5.96 U27.6 U27.5 C160.1 R418.2 J10.4 U36.3
R527.2
*SIGNAL* PCIRST
U17.K18 U17.M20 J5.10 U22.114 U24.114 R403.1 U26.G4 U3.B24
JP3.7
*SIGNAL* SERR
U22.31 J5.51 U24.31 U3.G24 U26.M1 R399.2 JP3.32
*SIGNAL* N901507
R408.2 U26.F4
*SIGNAL* N898170
U26.N13 U27.1
*SIGNAL* AVPP
U27.10 J8.A18 J8.A52 R420.2
*SIGNAL* PCI_GNT0
U3.U23 U26.B1
*SIGNAL* PCI_CLK4
U26.H1 R456.1
*SIGNAL* N898158
U26.M13 U27.2
*SIGNAL* VCC_12
C159.1 C209.1 J10.1 C216.1 C255.1 C187.1 R510.1 C185.1
R469.2 U35.8 R468.2 U34.8 C190.1 C184.1 R470.2 Q7.2
C186.1 C196.1 C193.1 R523.1 C208.1 U37.8 C202.1 C206.1
C207.1 C205.1 C204.1 L7.2 L8.2
*SIGNAL* AVCC
U27.13 U27.12 U26.G13 U27.11 U26.A7 J8.A17 J8.A51 R419.2
*SIGNAL* VCC_3.3
C17.1 C16.1 U2.9 C10.1 C11.1 R41.1 R40.1 U4.27
R42.1 C2.1 U4.49 C7.1 U1.14 C14.1 U1.49 R39.1
U4.14 U4.43 R63.1 R36.1 U2.3 U4.3 U1.27 U2.1
C3.1 U2.49 U2.27 U4.9 U2.43 R38.1 U1.1 U4.1
C15.1 U1.43 C6.1 R37.1 R17.1 C5.1 C13.1 U1.9
U1.3 C4.1 C9.1 R35.1 C8.1 R19.1 U2.14 C12.1
C1.1 U5.27 U5.1 U5.14 U5.49 U5.43 U5.9 U5.3
U6.27 U6.1 U6.14 U6.49 U6.3 U6.9 U6.43 C18.1
C22.1 C21.1 C20.1 C19.1 C23.1 C27.1 C26.1 C25.1
C24.1 R91.1 R89.1 U9.20 U10.20 R125.1 R123.1 R120.1
C28.1 C29.1 R107.1 C31.1 C30.1 R109.1 R116.1 R152.1
R150.1 R133.1 R135.1 R115.1 R117.1 R138.1 U8.32 R119.1
R163.1 R162.2 R129.1 R131.1 R160.1 R158.1 R114.1 R112.1
C33.1 R127.1 R154.1 R156.1 R121.1 R118.1 R108.1 R113.1
C32.1 R137.2 R165.1 R170.1 R183.1 C36.2 R166.1 C34.2
U12.3 R168.1 R167.1 R169.1 U11.8 C37.2 R172.1 C35.1
U13.3 U15.14 U16.14 R215.1 U14.89 R216.1 C49.1 R577.1
R198.1 U14.71 U14.30 C47.1 R217.1 U14.56 C46.1 R201.1
R194.1 U14.45 C48.1 R256.1 R250.1 R251.1 C76.2 R248.1
R249.1 C77.2 C75.2 R253.1 R254.1 R252.1 U17.F15 C74.2
R234.1 U17.R14 U17.F6 R264.1 R276.1 R268.1 R258.1 R266.1
R267.1 R259.1 R260.1 C79.1 R261.1 R328.1 J5.3 J5.15
J5.47 J5.73 J5.8 J5.12 J5.24 J5.54 J5.72 R329.1
U22.96 U22.82 U22.4 U22.12 U21.8 R343.2 U22.25 R326.1
U22.61 U22.19 U22.5 U22.53 U22.70 U22.18 U22.32 U22.52
U22.42 U22.120 R330.1 R327.1 C94.2 C95.2 C91.1 C90.1
C89.1 C96.2 R576.1 R371.1 U24.12 U24.42 U24.25 C115.2
R351.1 C116.2 U24.18 U24.4 C113.1 C112.1 R366.2 U24.61
U24.96 R352.1 U24.19 C111.1 C114.2 U24.82 U24.53 U24.52
U24.5 U24.70 U24.120 U23.8 R361.1 R575.1 U24.32 Q4.3
R374.1 R379.1 U25.9 C125.1 U25.70 U25.34 U25.50 U25.77
C127.1 U25.21 U25.57 U25.15 U25.41 U25.7 U25.63 U25.38
C126.1 C128.1 R393.1 C161.1 R409.1 R406.2 U26.K2 C157.2
C156.2 R405.2 U26.G1 C158.2 C153.1 U26.F3 U26.L9 R394.1
C155.2 U26.N4 R399.1 R396.1 R395.1 C149.1 R398.1 U26.L6
C150.1 R400.1 C151.1 U26.B4 U27.4 U26.D12 R401.1 U26.H11
R404.1 C152.1 U26.C8 R397.1 U27.3 C154.2 R410.1 U29.14
U28.14 R421.1 R417.2 U31.14 R422.1 U44.3 R428.1 R431.1
R427.1 U33.15 R463.1 U33.27 U30.3 R429.1 C172.2 R437.1
U33.6 U33.19 C173.2 U33.1 R435.2 U33.42 C171.2 R442.2
R462.1 C168.1 R441.2 R440.2 R436.1 C174.2 C170.1 R426.1
R425.1 C169.1 Q5.3 U33.36 R433.2 R434.2 R461.1 R460.1
U33.30 Q6.3 C167.1 R446.2 C180.1 C181.1 R472.1 C227.1
U3.E7 R487.1 U3.N24 U3.G22 C189.1 C188.1 U38.2 U3.AD14
C175.1 C176.1 U3.B17 R513.2 C192.1 U3.P3 U3.AE10 R483.1
R471.1 U3.U25 U3.C13 U3.AA22 R531.2 R477.1 C223.1 R476.1
U3.AA5 U3.AB21 U3.E8 U3.H22 R475.1 C228.1 C240.2 R485.1
R488.1 C237.2 C221.1 R478.1 U3.AB6 U3.K2 R482.1 C179.1
C178.1 R484.1 R481.1 C242.2 C238.2 U3.AB7 U3.E21 R480.1
R479.1 U3.E6 U3.AB8 U3.W5 C222.1 U3.F5 U3.G5 C225.1
C191.1 R514.2 C224.1 U3.F22 U3.E19 U3.E20 U3.Y5 R474.1
R486.1 C236.2 U3.AB19 R518.2 R473.1 C226.1 C239.2 U3.AB20
U3.W22 U3.Y22 U3.H5 C241.2 C235.1 U32.14 U41.14 JP3.22
JP3.19 R540.2 R534.2 R537.2 R564.1 R566.1 R565.1 C249.1
C250.1 U39.30 U39.32 R551.1 U40.12 C251.1 R570.1
*SIGNAL* CBE2
U17.C5 U22.20 J5.43 U24.20 U3.K24 U26.J3 JP3.26
*SIGNAL* CBE1
U17.C7 J5.57 U22.34 U24.34 U3.F24 U26.N1 JP3.43
*SIGNAL* AD27
U17.D3 J5.23 U22.126 U24.126 U3.R25 U26.D1 JP3.12
*SIGNAL* AD1
U17.A10 J5.83 U22.59 U24.59 U3.B16 U26.K7 JP3.58
*SIGNAL* AD8
U17.D9 J5.69 U22.49 U24.49 U3.B21 U26.M5 JP3.45
*SIGNAL* AD24
U17.C3 J5.30 U22.1 U24.1 U3.R24 U26.E2 JP3.15
*SIGNAL* CBE0
U17.C9 J5.70 U22.48 U24.48 U3.D19 U26.N5 JP3.57
*SIGNAL* TRDY
U17.D6 J5.50 U22.24 U24.24 U3.G26 U26.K3 R396.2 JP3.42
*SIGNAL* N2958209
U20.19 R281.1
*SIGNAL* N2957543
U16.12 R392.1
*SIGNAL* VCC_2.5
R423.1 C163.1 C162.1 U3.E17 U3.AB15 U3.K22 U3.K5 C243.2
U3.U5 U3.T22 U3.L5 U3.T5 U3.M5 C248.2 U3.R5 U3.E10
U3.AB16 C229.1 U3.M22 C231.1 C232.1 U3.E16 U3.AB12 U3.AB17
C234.1 U3.E11 U3.AB11 U3.E15 U3.AB10 U3.L22 U3.U22 U3.E12
U3.R22 C230.1 C233.1 C244.2 C245.2 C246.2 C247.2 R530.2
*SIGNAL* AD11
U17.B8 J5.64 U22.43 U24.43 U3.B22 U26.M4 JP3.38
*SIGNAL* AD13
U17.D8 J5.62 U22.40 U24.40 U3.C22 U26.N3 R408.1 JP3.34
*SIGNAL* AD16
U17.A4 J5.44 U22.17 U24.17 R373.2 U3.K26 U26.J2 JP3.29
*SIGNAL* AD2
U17.B10 J5.78 U22.57 U24.57 U3.C17 U26.L7 JP3.53
*SIGNAL* AD22
U17.B3 J5.36 U22.7 U24.7 U3.N26 U26.F1 JP3.17
*SIGNAL* CBE3
U17.B1 U22.2 J5.29 U24.2 U3.R26 U26.E1 JP3.8
*SIGNAL* AD21
U17.A1 J5.35 U22.10 U24.10 U3.M26 U26.G2 JP3.20
*SIGNAL* AD28
U17.D2 J5.26 U22.124 U24.124 U3.T24 U26.D2 JP3.9
*SIGNAL* N1996957
T3.6 J6.2
*SIGNAL* N1998705
R365.2 R364.2 C105.1
*SIGNAL* N1998592
U24.105 R364.1 T3.1
*SIGNAL* N1990217
U24.80 U23.1
*SIGNAL* AD12
U17.C8 J5.63 U22.41 U24.41 U3.B23 U26.K4 JP3.36
*SIGNAL* PAR
U17.D7 J5.40 U22.33 U24.33 U3.E26 U26.M2 JP3.39
*SIGNAL* AD23
U17.B2 J5.31 U22.6 U24.6 U3.P24 U26.F2 JP3.18
*SIGNAL* AD31
U17.D5 J5.17 U22.121 U24.121 U3.V26 U26.C2 JP3.3
*SIGNAL* AD15
U17.B7 J5.60 U22.38 U24.38 U3.F25 U26.N2 JP3.30
*SIGNAL* STOP
U17.B6 J5.52 U22.27 U24.27 U3.H23 U26.L2 R397.2 JP3.37
*SIGNAL* AD10
U17.A8 J5.65 U22.44 U24.44 U3.D21 U26.K5 JP3.46
*SIGNAL* FRAME
U17.B5 J5.48 U22.21 U24.21 U3.J24 U26.J4 R394.2 JP3.33
*SIGNAL* N1996969
T3.5 R368.1
*SIGNAL* N1998389
R370.1 J6.7 J6.8
*SIGNAL* N1998382
J6.4 J6.5 R369.1
*SIGNAL* N1998580
R363.2 U24.110 T3.15 C287.2
*SIGNAL* N1998450
R367.2 R370.2 R369.2 C258.1 R368.2
*SIGNAL* N1997023
T3.12 R367.1
*SIGNAL* N1995829
R357.2 U24.75
*SIGNAL* N1995832
R352.2 U24.71
*SIGNAL* N2980237
U3.AD17 R43.2
*SIGNAL* N2980104
R62.1 U3.AC12
*SIGNAL* DEVSEL
U17.C6 J5.56 U22.26 U24.26 U26.L1 U3.H25 R398.2 JP3.44
*SIGNAL* AD20
U17.A2 J5.38 U22.11 U24.11 U3.N25 U26.G3 JP3.21
*SIGNAL* AD4
U17.D10 J5.76 U22.55 U24.55 U3.D17 U26.M7 JP3.51
*SIGNAL* AD29
U17.D1 J5.19 U22.123 U24.123 U3.U26 U26.D4 JP3.6
*SIGNAL* AD0
U17.E11 J5.80 U22.60 U24.60 U3.A17 U26.N8 JP3.55
*SIGNAL* AD25
U17.C2 J5.25 U22.128 U24.128 U3.R23 U26.E3 JP3.14
*SIGNAL* AD9
U17.E9 J5.68 U22.47 U24.47 U3.A23 U26.L5 JP3.48
*SIGNAL* AD30
U17.D4 J5.22 U22.122 U24.122 U3.T25 U26.C1 JP3.5
*SIGNAL* AD14
U17.A7 J5.59 R344.2 U22.39 R350.2 U24.39 U3.C26 U26.M3
JP3.31
*SIGNAL* N1988390
U24.3 R373.1
*SIGNAL* N1990102
U24.98 Y5.1 R359.1 C103.1
*SIGNAL* N1988769
R360.2 U24.101
*SIGNAL* N1990249
U24.78 U23.3
*SIGNAL* N1990242
U24.77 U23.4
*SIGNAL* N2982389
R54.2 U3.AC16
*SIGNAL* N2980029
U3.AA3 R56.1
*SIGNAL* N686899
U3.AC15 R44.2
*SIGNAL* N2982383
R50.2 U3.AF24
*SIGNAL* N2980054
R58.1 U3.AC6
*SIGNAL* N2982386
R52.2 U3.AB23
*SIGNAL* N2980079
R60.1 U3.AC10
*SIGNAL* N686170
U3.AF17 R69.1
*SIGNAL* AD26
U17.C1 J5.28 U22.127 U24.127 U3.P23 U26.E4 JP3.11
*SIGNAL* AD6
U17.A9 J5.74 U22.51 U24.51 U3.B18 U26.M6 JP3.47
*SIGNAL* AD7
U17.B9 J5.71 U22.50 U24.50 U3.A20 U26.K6 JP3.50
*SIGNAL* AD19
U17.A3 J5.37 U22.13 U24.13 U3.M23 U26.H3 JP3.23
*SIGNAL* AD17
U17.B4 J5.41 U22.16 U24.16 U3.L23 U26.J1 JP3.28
*SIGNAL* AD18
U17.C4 J5.42 U22.14 U24.14 U3.M25 U26.H4 JP3.27
*SIGNAL* N1988701
R366.1 U24.116
*SIGNAL* N1991672
U24.36 R372.1
*SIGNAL* N1990087
Y5.3 U24.97 R359.2 C104.1
*SIGNAL* N1990224
U24.79 U23.2
*SIGNAL* AD3
U17.C10 J5.79 U22.56 U24.56 U3.A18 U26.N7 JP3.56
*SIGNAL* AD5
U17.E10 J5.75 U22.54 U24.54 U3.C18 U26.N6 JP3.52
*SIGNAL* N1998568
T3.16 U24.109 R362.2 C286.2
*SIGNAL* N1998604
U24.106 T3.2 R365.1
*SIGNAL* N1988766
U24.102 R360.1
*SIGNAL* N2008593
U23.6 R351.2
*SIGNAL* INT_9102
U24.113 R371.2 U3.Y25
*SIGNAL* PCI_CLK2
U24.115 R454.1
*SIGNAL* N1823564
T1.6 J1.2
*SIGNAL* N1823800
J1.12 J1.14 Q1.3
*SIGNAL* N1823552
T1.7 J1.1
*SIGNAL* N1823592
T1.10 J1.3
*SIGNAL* N1823595
T1.11 J1.6
*SIGNAL* N1825702
Y1.1 U14.92 R196.1 C50.1
*SIGNAL* N1817942
R189.2 U14.77
*SIGNAL* N1823617
J1.11 R198.2
*SIGNAL* N1819983
U14.14 R200.2 C283.2 T1.15
*SIGNAL* N1817939
R192.2 U14.78
*SIGNAL* N1821835
R203.2 R204.2 C56.1
*SIGNAL* N1823657
J1.4 R207.1 J1.5
*SIGNAL* N1823781
R208.1 J1.7 J1.8
*SIGNAL* N1823643
T1.12 R206.1
*SIGNAL* N1818200
U14.86 R195.2
*SIGNAL* N1825948
U14.23 R210.1
*SIGNAL* N1823650
T1.5 R205.1
*SIGNAL* N1825945
U14.22 R209.1
*SIGNAL* N1817933
R193.2 U14.80
*SIGNAL* N1817930
R191.2 U14.81
*SIGNAL* N1821828
T1.3 C57.1
*SIGNAL* N1817936
R190.2 U14.79
*SIGNAL* PCI_GNT2
U24.117 U3.F23
*SIGNAL* PCI_REQ2
U24.118 U3.B19
*SIGNAL* N1818319
U14.13 R199.2 C282.2 T1.16
*SIGNAL* N1817883
R194.2 U14.82
*SIGNAL* N1818304
U14.2 R197.1
*SIGNAL* N1818307
R197.2 U14.3
*SIGNAL* N1821792
U14.8 R204.1 T1.2
*SIGNAL* N1821735
U14.7 R203.1 T1.1
*SIGNAL* N1825951
U14.24 R211.1
*SIGNAL* N1825690
Y1.3 U14.91 R196.2 C51.1
*SIGNAL* N1939414
J8.B15 U28.6
*SIGNAL* N1939402
J8.B9 U28.8
*SIGNAL* N2062296
R265.2 U18.10
*SIGNAL* N2062253
C83.2 U18.1 R263.1
*SIGNAL* N2063960
U18.9 R272.1 C84.1
*SIGNAL* IRRTX
R272.2 C84.2 U17.T13
*SIGNAL* IRRXL
R271.2 U17.W13 U19.1
*SIGNAL* N2080849
R261.2 U17.A12
*SIGNAL* N2062560
U18.8 R271.1
*SIGNAL* N1827750
U14.28 R213.1
*SIGNAL* N1827753
U14.27 R214.1
*SIGNAL* N2991077
U21.6 R326.2
*SIGNAL* N2990977
U22.77 U21.4
*SIGNAL* N2990961
R332.2 U22.85
*SIGNAL* N3005896
R341.2 R342.2 C99.1
*SIGNAL* N2990821
U22.3 R350.1
*SIGNAL* N2991069
R333.2 U22.69
*SIGNAL* N2990957
U22.36 R349.1
*SIGNAL* N2991061
R335.2 U22.75
*SIGNAL* N2990917
Y4.3 U22.97 R337.2 C98.1
*SIGNAL* N2990965
U22.80 U21.1
*SIGNAL* N2991501
R336.2 U22.81
*SIGNAL* N2990969
U22.78 U21.3
*SIGNAL* N2990929
Y4.1 U22.98 R337.1 C97.1
*SIGNAL* N2990901
R338.2 U22.101
*SIGNAL* N2990981
R331.2 U22.84
*SIGNAL* N3005900
C100.1 T2.3
*SIGNAL* N2990897
U22.102 R338.1
*SIGNAL* N2990985
R330.2 U22.71
*SIGNAL* N2990893
R343.1 U22.116
*SIGNAL* N2991065
R334.2 U22.74
*SIGNAL* N1838571
T4.2 U25.89 C140.1
*SIGNAL* N1838555
U25.88 T4.1 C139.1
*SIGNAL* N1842317
R384.1 U25.96 C140.2
*SIGNAL* N1842314
R383.1 U25.95 C139.2
*SIGNAL* N1840550
C142.1 U25.93
*SIGNAL* N1844061
R386.1 U25.99 C141.2
*SIGNAL* N1844080
C144.1 C143.1 R381.1 U25.98
*SIGNAL* N1844064
R385.1 U25.100 C142.2
*SIGNAL* N1844050
C141.1 U25.92
*SIGNAL* N1847778
R378.2 Y6.3 C134.1 U25.76 L4.1
*SIGNAL* N1847768
R378.1 Y6.1 C133.1 U25.78
*SIGNAL* N1848166
U25.24 R391.1
*SIGNAL* N1848227
U25.3 C146.1
*SIGNAL* N1848239
C147.1 U25.2
*SIGNAL* N1848224
U25.4 C145.1
*SIGNAL* N1848251
C148.1 U25.1
*SIGNAL* N3010828
R347.2 R346.2 R348.2 C257.1 R345.2
*SIGNAL* N3015770
T2.12 R345.1
*SIGNAL* N3015944
R346.1 T2.5
*SIGNAL* N3017581
J4.4 R347.1 J4.5
*SIGNAL* N1851928
C122.1 C121.1 U25.72
*SIGNAL* N1852185
C118.1 U25.67 C117.1
*SIGNAL* N1850164
C119.1 U25.71 C120.1
*SIGNAL* N1851953
C124.1 U25.73 C123.1
*SIGNAL* N3017523
J4.7 J4.8 R348.1
*SIGNAL* N3017556
T2.6 J4.6
*SIGNAL* N3017489
R327.2 J4.11
*SIGNAL* INT_MPCI
J5.4 U22.113 R328.2 J5.1 U3.W24
*SIGNAL* N1854274
C259.1 R377.1 T4.15 J7.3 RV1.2
*SIGNAL* N1854288
T4.3 C136.1
*SIGNAL* N2990973
U22.79 U21.2
*SIGNAL* PCI_REQ3
J5.13 R329.2 U22.118 U3.A24
*SIGNAL* N3069295
U4.36 R558.2
*SIGNAL* N3069281
R557.2 U2.36
*SIGNAL* MA12
U3.AC17 R557.1 R556.1 R558.1 R560.1 R559.1
*SIGNAL* N3069288
U1.36 R556.2
*SIGNAL* N3071217
R559.2 U5.36
*SIGNAL* N3071214
R560.2 U6.36
*SIGNAL* N3080850
U41.5 R569.1
*SIGNAL* N3081238
U32.6 R561.1
*SIGNAL* N3080871
R564.2 U41.3
*SIGNAL* N3080878
U41.4 R566.2
*SIGNAL* N3080857
U41.2 R567.1
*SIGNAL* N3081106
U41.6 R568.1
*SIGNAL* N3077415
U41.12 R570.2 U41.10
*SIGNAL* N3077301
U32.3 U29.11
*SIGNAL* N3077321
U29.6 U32.2
*SIGNAL* N3077339
U32.1 U29.8
*SIGNAL* N2312838
U40.23 U41.11
*SIGNAL* N3077294
U29.10 U41.13
*SIGNAL* N3080864
R565.2 U41.1
*SIGNAL* N3080897
U32.4 R562.1
*SIGNAL* N3080904
U32.5 R563.1
*SIGNAL* N923576
U20.21 R279.1
*SIGNAL* N2288674
U29.13 R547.1 R549.1 R548.2
*SIGNAL* N2288620
U32.13 U29.12
*SIGNAL* FLASH_CS1
U8.22 U32.11
*SIGNAL* N3017838
J4.3 T2.7
*SIGNAL* N3017939
J4.2 T2.11
*SIGNAL* N3017913
J4.1 T2.10
*SIGNAL* N2297080
U3.AD25 R424.1
*SIGNAL* GND_POWER
C17.2 C16.2 C10.2 U2.28 U1.28 U2.6 C8.2 U4.6
U4.41 U1.41 C6.2 C13.2 C11.2 U1.52 U2.54 C5.2
C9.2 U4.54 C12.2 U1.6 U2.12 C3.2 C15.2 U2.46
C7.2 C4.2 U4.28 U1.54 U4.46 U1.46 U4.52 U1.12
C1.2 U4.12 C2.2 U2.52 U2.41 C14.2 U6.28 U6.41
U6.54 U6.6 U6.52 U6.46 U6.12 U5.28 U5.41 U5.54
U5.6 U5.52 U5.46 U5.12 C18.2 C22.2 C21.2 C20.2
C19.2 C23.2 C27.2 C26.2 C25.2 C24.2 U9.10 U10.10
U8.16 R124.2 R126.2 R134.2 R132.2 R153.2 R155.2 R141.2
R157.2 R159.2 R136.2 R164.2 R161.2 C32.2 R144.2 C29.2
C31.2 R139.2 R151.2 R142.2 R148.2 R147.2 R130.2 R128.2
R145.2 R143.2 R146.2 C33.2 R149.2 C28.2 C30.2 R122.2
R140.2 R175.2 R171.2 C36.1 U12.27 U13.5 U12.19 R173.2
C41.1 JP2.9 C45.2 C34.1 U12.23 R174.2 U13.23 U13.27
U12.15 JP1.9 U12.5 U11.4 U15.7 U16.7 R202.2 R211.2
R209.2 R210.2 C49.2 Q1.2 C47.2 U14.84 R214.2 C46.2
C50.2 C48.2 R191.1 U14.20 U14.49 U14.36 R193.1 Y1.2
R189.1 U14.94 R192.1 R195.1 R213.2 R190.1 C51.2 R212.2
Y1.4 R246.2 J3.24 J3.19 C62.2 J3.26 R225.2 C60.2
R227.2 C67.2 C59.2 C63.2 L3.2 C61.2 L2.2 C68.2
R230.2 C65.2 J3.22 C74.1 C72.2 R247.2 C70.2 C73.2
C77.1 C64.2 C76.1 C69.2 J3.30 J3.2 R229.2 R228.2
C75.1 C66.2 C71.2 U17.K10 U17.K12 U17.J12 U17.L12 U17.M11
U17.M9 U17.L9 U17.J9 U17.K11 U17.L11 U17.L10 U17.J10 U17.M10
U17.K9 U17.J11 U17.M12 R275.2 U19.2 C79.2 R269.2 C78.2
R262.2 R270.1 C80.2 C83.1 C82.2 C81.1 U18.2 U18.7
R274.2 R273.2 R302.2 U20.12 C87.2 R280.2 C88.2 BT1.2
C86.2 C85.2 R306.2 R312.2 R311.2 R310.2 R309.2 R308.2
R307.2 U20.16 Q3.2 U21.5 J5.39 J5.46 Y4.4 J5.21
J5.7 J5.66 R335.1 U22.99 R333.1 R334.1 C89.2 J5.34
U22.86 J5.11 C90.2 U22.29 C96.1 J5.58 J5.67 J5.33
C95.1 U22.15 J5.86 U22.9 U22.46 R331.1 C97.2 C91.2
Y4.2 J5.61 R332.1 C98.2 U22.37 R336.1 U22.8 U22.45
U22.125 J5.98 J5.16 C94.1 U22.22 U22.28 U22.58 U22.76
J5.85 J5.53 U22.35 U22.100 R349.2 R579.1 R580.1 R581.1
U23.5 R357.1 C104.2 C112.2 U24.35 U24.99 U24.46 C111.2
U24.8 U24.22 U24.28 C114.1 U24.45 R372.2 R355.1 R356.1
C103.2 U24.9 C113.2 U24.58 U24.86 C115.1 U24.15 U24.29
U24.125 U24.76 R354.1 R353.1 U24.37 C116.1 U24.100 R358.1
Y5.4 Y5.2 R584.1 R583.1 R582.1 R375.2 R382.2 D3.2
U25.33 C133.2 U25.37 C135.2 U25.14 U25.62 U25.40 U25.8
U25.69 C134.2 C128.2 C127.2 R391.2 U25.49 U25.56 U25.20
C126.2 U25.10 R389.2 U25.80 U25.79 C125.2 Y6.2 Y6.4
R571.2 C161.2 U27.7 C152.2 U3.N11 U3.R14 U3.L13 U26.C10
C158.1 U3.M12 U3.P11 C151.2 U3.L14 U3.R12 U3.L16 U26.L4
U26.H2 R413.2 U26.M8 U3.L15 U3.N13 U3.L11 C157.1 U3.R15
U3.P15 C155.1 U3.L12 U3.T16 U3.R16 U3.T14 U3.R11 U3.T15
U26.F12 U3.M15 U3.P12 U3.P14 U3.P13 R414.2 U3.M11 U26.B6
C150.2 R415.2 C153.2 U3.P16 U26.K11 R411.2 R412.2 U3.T13
C154.1 C149.2 U3.N15 U3.N12 U3.T12 U3.M14 U3.M13 U3.P26
U26.D3 U3.R13 U3.M16 U3.N14 U3.T11 R416.2 U3.N16 C156.1
R407.2 C160.2 C159.2 U29.7 U28.7 J8.B34 J8.A68 J8.A34
J8.B1 J8.B35 J8.A1 J8.A35 J8.B68 U31.7 U44.1 D5.2
R443.2 R432.2 R464.2 C173.1 C167.2 C172.1 C166.1 U31.2
R467.2 S1.1 U30.4 U33.3 U33.33 U33.22 C162.2 C174.1
C170.2 C168.2 U33.39 R465.2 D4.2 U33.16 S2.1 R430.1
C169.2 C165.1 Y7.4 C164.2 C163.2 R466.2 U33.10 Y7.2
U33.44 U30.1 C171.1 C213.2 C214.2 D7.1 C197.2 C198.2
D6.1 C219.2 U38.5 C199.2 C215.2 R509.1 U34.4 C209.2
C193.2 C255.2 C196.2 R499.2 R490.2 C241.1 C188.2 U3.C24
U3.B26 J10.3 C232.2 C192.2 C224.2 U3.F1 U3.L1 C234.2
U3.A11 C186.2 C184.2 U3.AB9 C221.2 C200.2 R512.1 U3.D4
C175.2 C236.1 U3.N5 C180.2 C238.1 R505.2 R506.2 U3.E14
U3.N22 U3.AB13 R508.2 C182.2 U3.P22 R511.1 R491.2 U3.J22
U3.E5 U37.4 U3.A21 U3.W26 U3.A26 C220.2 U3.T26 R504.2
C185.2 R495.2 C189.2 C242.1 U3.H1 U3.V5 U3.J5 U3.D23
C226.2 C216.2 U3.AD3 U3.F26 U3.AA26 U3.AE1 U3.T1 U3.AE2
C194.2 R572.1 R502.2 R496.2 C229.2 U3.E13 U3.AF26 U3.C3
R520.1 C240.1 U3.A2 R503.2 C191.2 U3.A6 U3.E9 U3.AF11
U3.AE25 C239.1 C233.2 U35.4 C246.1 C248.1 R522.1 U3.V22
R498.2 U3.AB18 U3.A19 R507.2 C181.2 U3.L26 U3.B25 C228.2
C237.1 R492.2 U3.AF1 U3.B2 D8.2 U3.AA1 R500.2 U3.AF21
C178.2 C179.2 U3.AB5 U3.AF6 U3.AC23 C222.2 C217.2 R501.2
U3.AF16 C243.1 C245.1 U3.AF25 R493.2 R497.2 U3.E18 U3.AC4
U3.P5 C230.2 C187.2 U3.AB14 U3.AB22 C211.2 C183.2 R494.2
C247.1 R533.1 C235.2 U3.A16 U3.A1 U3.AF8 J10.2 C244.1
C203.2 U3.E22 C223.2 U3.AD24 C227.2 C176.2 C225.2 C231.2
J9.3 C261.2 C262.2 C263.2 C202.2 C204.2 C205.2 C207.2
C206.2 U32.7 U41.7 JP3.40 JP3.24 JP3.2 JP3.13 JP3.60
JP3.54 JP3.59 JP3.16 JP3.1 JP3.49 JP3.41 JP3.25 R535.1
R541.1 R538.1 JP4.1 JP4.2 JP5.1 JP5.2 JP6.1 JP6.2
R563.2 R562.2 R569.2 R567.2 R568.2 C264.2 C272.2 C271.2
C270.2 C269.2 C268.2 C267.2 C266.2 C265.2 C274.2 C275.2
C276.2 C277.2 C278.2 C279.2 C280.2 C281.2 C273.2 C249.2
U39.2 U39.3 U39.1 C250.2 U39.16 U40.13 U40.11 R555.2
R554.2 C251.2
*SIGNAL* AGND_3.3
U14.95 U14.12 U14.19 U14.11 U14.10 U14.9 C57.2 C56.2
C52.2 C55.2 C54.2 C53.2 C288.2 C291.2 C93.2 C100.2
U22.107 U22.108 C92.2 C99.2 C289.2 U24.108 C105.2 C109.2
C110.2 C106.2 U24.107 C290.2 C136.2 C148.2 C118.2 C124.2
U25.5 C117.2 U25.68 C146.2 C130.2 R386.2 R384.2 U25.97
C129.2 R383.2 C123.2 U25.91 C132.2 C122.2 C147.2 C145.2
C120.2 U25.90 C144.2 C143.2 U25.75 R385.2 R381.2 C121.2
C131.2 C119.2 R520.2 U36.1 C210.2 U40.7 C252.2
*SIGNAL* CHASSIS
J1.9 J1.10 C256.2 J2.B6 J2.A6 U42.1 U42.7 U42.5
U42.3 U18.11 C257.2 J4.10 J4.9 C258.2 J6.9 J6.10
C260.2 C259.2 R572.2 C272.1 C281.1 C264.1 C265.1 C266.1
C267.1 C268.1 C269.1 C270.1 C271.1 C280.1 C279.1 C278.1
C277.1 C276.1 C275.1 C274.1 C273.1 J11.5 J11.6 U43.7
U43.1 U43.3 U43.5
*SIGNAL* SA1
U17.R19 U20.23
*SIGNAL* N3117047
U40.9 R573.1
*SIGNAL* N3117044
U40.10 R574.1
*SIGNAL* N2307832
J11.3 R573.2 R552.2
*SIGNAL* N2307848
J11.2 U43.4 U43.2 U43.6 U43.8 R574.2
*SIGNAL* MDIO
U3.AD26 R165.2 U14.54 U25.22
*SIGNAL* RX_ERR
U3.U24 R171.1 U14.68
*SIGNAL* COL
U3.AA25 U14.66 U25.53 R374.2 R375.1
*SIGNAL* RX_DV
U3.V24 U14.67 U25.31 R379.2 R382.1
*SIGNAL* CRS
U3.W23 U14.65 R202.1 U25.54
*SIGNAL* TX_CLK
U3.E25 U14.47 U25.39
*SIGNAL* RX_CLK
U3.AF20 U14.64 U25.32
*SIGNAL* N1884120
R201.2 U14.69
*SIGNAL* MD_CLK
U3.H24 U14.53 U16.13 R390.1
*SIGNAL* P_CS5
U3.B10 R115.2 U40.19
*SIGNAL* P_DMA_REQ0
U3.C16 R140.1 U41.9
*SIGNAL* N2309319
U40.15 R555.1
*SIGNAL* N2309326
U40.14 R554.1
*SIGNAL* N816668
U10.19 U9.19 R117.2 U3.C4
*SIGNAL* N1895881
R455.2 U33.11
*SIGNAL* N1895878
R454.2 U33.9
*SIGNAL* N2349479
U18.5 R274.1
*SIGNAL* N2064028
U18.4 R273.1
*SIGNAL* N2367828
U3.D25 R423.2
*SIGNAL* N1996998
J6.6 T3.11
*SIGNAL* N2357381
T3.10 J6.3
*SIGNAL* N2357374
T3.7 J6.1
*SIGNAL* OSC24M
U33.25 R553.1
*SIGNAL* N2400539
R393.2 U3.AF4
*SIGNAL* N1913891
R404.2 U27.16
*SIGNAL* N1912458
U26.M12 U27.14
*SIGNAL* N807424
R530.1 C219.1 U38.3 R532.2
*SIGNAL* N2395779
R553.2 U40.16
*SIGNAL* N858563
R420.1 J8.B18 J8.B52 R417.1 R585.2
*SIGNAL* N858556
J8.B17 R419.1 J8.B51 R418.1 R585.1
*SIGNAL* N2493783
U3.AA23 R45.2 R46.2
*SIGNAL* N2493797
R48.2 U3.AC26
*SIGNAL* N2496968
R459.2 U33.46
*SIGNAL* N2497326
R446.1 U33.47
*SIGNAL* N1823695
R205.2 R208.2 R207.2 R206.2 C256.1
*SIGNAL* IOGP4
J3.34 U17.W12
*SIGNAL* N808145
C210.1 U36.2 R524.1
*SIGNAL* P_ADDR8
U3.A5 J8.B54
*SIGNAL* P_ADDR9
U3.B7 J8.B53 R549.2
*SIGNAL* P_ADDR6
U3.C6 J8.B56
*SIGNAL* P_ADDR7
U3.D7 J8.B55
*SIGNAL* P_CS3
U3.A4 R107.2 U15.9
*SIGNAL* P_CS4
U3.B9 R108.2 J8.B61 U15.10
*SIGNAL* N2540615
U38.1 R531.1
*SIGNAL* N2537171
U38.4 R532.1
*SIGNAL* IDE_DET
J3.40 R256.2 U3.A22
*END*
