GET /want/39 HTTP/1.1
Range: bytes=20-
User-Agent: curl/7.7-beta4 (sparc-sun-solaris2.7) libcurl 7.7-beta4 (SSL 0.9.6) (krb4 enabled)
Host: 127.0.0.1:8999
Pragma: no-cache
Accept: image/gif, image/x-xbitmap, image/jpeg, image/pjpeg, */*

GET /want/data/390002.txt?coolsite=yes HTTP/1.1
Range: bytes=20-
User-Agent: curl/7.7-beta4 (sparc-sun-solaris2.7) libcurl 7.7-beta4 (SSL 0.9.6) (krb4 enabled)
Host: 127.0.0.1:8999
Pragma: no-cache
Accept: image/gif, image/x-xbitmap, image/jpeg, image/pjpeg, */*

