GET /29 HTTP/1.1
Range: bytes=200-
User-Agent: curl/7.6 (i686-pc-linux-gnu) libcurl 7.6 (SSL 0.9.5) (ipv6 enabled)
Host: 127.0.0.1:8999
Pragma: no-cache
Accept: image/gif, image/x-xbitmap, image/jpeg, image/pjpeg, */*

