GET /want/25 HTTP/1.1
Host: 127.0.0.1:8999
Pragma: no-cache
Accept: image/gif, image/x-xbitmap, image/jpeg, image/pjpeg, */*

GET /want/24 HTTP/1.1
Host: 127.0.0.1:8999
Pragma: no-cache
Accept: image/gif, image/x-xbitmap, image/jpeg, image/pjpeg, */*

GET /want/22 HTTP/1.1
Host: 127.0.0.1:8999
Pragma: no-cache
Accept: image/gif, image/x-xbitmap, image/jpeg, image/pjpeg, */*

