*PADS-PCB*
*PART*
BT1    THM 1066
C1     0805
C10    0805
C100   0805
C101   0805
C102   0805
C103   0805
C104   0805
C105   0805
C106   0805
C107   0805
C108   0805
C109   0805
C11    0805
C110   0805
C111   0805
C112   0805
C113   0805
C114   0805
C115   C CASE
C116   0805
C117   C CASE
C118   0805
C119   C CASE
C12    0805
C120   0805
C121   C CASE
C122   0805
C123   0805
C124   0805
C125   0805
C126   0805
C127   0805
C128   0805
C129   0805
C13    0805
C130   0805
C131   0805
C132   0805
C133   0805
C134   0805
C135   0805
C136   A CASE
C137   A CASE
C138   A CASE
C139   A CASE
C14    0805
C140   A CASE
C141   0805
C142   A CASE
C143   0805
C144   0805
C145   0805
C146   0805
C147   0805
C148   0805
C149   0805
C15    0805
C150   0805
C151   0805
C152   0805
C153   0805
C154   0805
C155   0805
C156   0805
C157   0805
C158   0805
C159   D CASE
C16    0805
C160   0805
C161   0805
C162   0805
C163   0805
C164   0805
C165   0805
C166   0805
C167   0805
C168   0805
C169   0805
C17    0805
C170   0805
C171   0805
C172   D CASE
C173   D CASE
C174   D CASE
C175   D CASE
C176   D CASE
C177   D CASE
C178   0805
C179   B CASE
C18    0805
C180   D CASE
C181   0805
C182   D CASE
C183   D CASE
C184   0805
C185   D CASE
C186   D CASE
C187   0805
C188   0805
C189   D CASE
C19    0805
C190   0805
C191   B CASE
C192   0805
C193   0805
C194   0805
C195   0805
C196   B CASE
C197   D CASE
C198   0805
C199   0805
C2     0805
C20    0805
C200   D CASE
C201   0805
C202   0805
C203   D CASE
C204   0805
C205   B CASE
C206   D CASE
C207   0805
C208   0805
C209   D CASE
C21    0805
C210   0805
C211   D CASE
C212   0805
C213   0805
C214   0805
C215   0805
C216   0805
C217   0805
C218   0805
C219   0805
C22    0805
C220   0805
C221   0805
C222   0805
C223   0805
C224   0805
C225   D CASE
C226   0805
C227   0805
C228   0805
C229   0805
C23    0805
C230   0805
C231   0805
C232   0805
C233   0805
C234   0805
C235   0805
C236   0805
C237   0805
C238   0805
C239   0805
C24    0805
C240   0805
C241   0805
C242   0805
C243   0805
C244   0805
C25    0805
C26    0805
C27    0805
C28    0805
C29    0805
C3     0805
C30    0805
C31    0805
C32    0805
C33    0805
C34    0805
C35    0805
C36    0805
C37    0805
C38    0805
C39    0805
C4     0805
C40    0805
C41    0805
C42    0805
C43    0805
C44    0805
C45    0805
C46    0805
C47    0805
C48    0805
C49    0805
C5     0805
C50    0805
C51    0805
C52    0805
C53    0805
C54    0805
C55    0805
C56    0805
C57    0805
C58    0805
C59    0805
C6     0805
C60    0805
C61    0805
C62    0805
C63    0805
C64    0805
C65    D CASE
C66    0805
C67    0805
C68    0805
C69    0805
C7     0805
C70    0805
C71    0805
C72    0805
C73    0805
C74    0805
C75    0805
C76    0805
C77    0805
C78    0805
C79    0805
C8     0805
C80    0805
C81    0805
C82    C CASE
C83    0805
C84    0805
C85    C CASE
C86    0805
C87    0805
C88    0805
C89    0805
C9     0805
C90    0805
C91    0805
C92    0805
C93    0805
C94    0805
C95    0805
C96    0805
C97    0805
C98    0805
C99    0805
D1     1206
D2     DO-214BA
D3     1206
D4     1206
D5     1206
D6     SMC
D7     SMC
D8     1206
F1     1.5A
J1     THM
J10    SMT
J11    THD
J2     USBCON
J3     IDE CON.
J4     CON_MINIPCI
J5     THM
J6     THM
J7     THD
J8     THM
J9     PWR CON
JP1    HEADER 5X2
JP2    HEADER 5X2
JP3    HEADER 30X2-NO STUFF
JP4    HEADER 2
JP5    HEADER 2
JP6    HEADER 2
JP7    HEADER 8X2-NO STUFF
L1     0805
L2     0805
L3     0805
L4     1210
L5     TOKO_D124C
L6     TOKO_D124C
Q1     SOT23
Q10    SO-8
Q11    SO-8
Q12    SO-8
Q13    SO-8
Q2     SOT23
Q3     SOT23
Q4     SOT23
Q5     SOT23
Q6     SOT23
Q7     SOT23
Q8     SOT23
Q9     SOT23
R1     0805
R10    0805
R100   0805
R101   0805
R102   0805
R103   0805
R104   0805
R105   0805
R106   0805
R107   0805
R108   0805
R109   0805
R11    0805
R110   0805
R111   0805
R112   0805
R113   0805
R114   0805
R115   0805
R116   0805
R117   0805
R118   0805
R119   0805
R12    0805
R120   0805
R121   0805
R122   0805
R123   0805
R124   0805
R125   0805
R126   0805
R127   0805
R128   0805
R129   0805
R13    0805
R130   0805
R131   0805
R132   0805
R133   0805
R134   0805
R135   0805
R136   0805
R137   0805
R138   0805
R139   0805
R14    0805
R140   0805
R141   0805
R142   0805
R143   0805
R144   0805
R145   0805
R146   0805
R147   0805
R148   0805
R149   0805
R15    0805
R150   0805
R151   0805
R152   0805
R153   0805
R154   0805
R155   0805
R156   0805
R157   0805
R158   0805
R159   0805
R16    0805
R160   0805
R161   0805
R162   0805
R163   0805
R164   0805
R165   0805
R166   0805
R167   0805
R168   0805
R169   0805
R17    0805
R170   0805
R171   0805
R172   0805
R173   0805
R174   0805
R175   0805
R176   0805
R177   0805
R178   0805
R179   0805
R18    0805
R180   0805
R181   0805
R182   0805
R183   0805
R184   0805
R185   0805
R186   0805
R187   0805
R188   0805
R189   0805
R19    0805
R190   0805
R191   0805
R192   0805
R193   0805
R194   0805
R195   0805
R196   0805
R197   0805
R198   0805
R199   0805
R2     0805
R20    0805
R200   0805
R201   0805
R202   0805
R203   0805
R204   0805
R205   0805
R206   0805
R207   0805
R208   0805
R209   SOE16
R21    0805
R210   0805
R211   0805
R212   0805
R213   0805
R214   0805
R215   0805
R216   0805
R217   0805
R218   0805
R219   0805
R22    0805
R220   SOE16
R221   0805
R222   0805
R223   0805
R224   0805
R225   0805
R226   0805
R227   0805
R228   0805
R229   0805
R23    0805
R230   0805
R231   0805
R232   0805
R233   0805
R234   0805
R235   0805
R236   0805
R237   0805
R238   0805
R239   0805
R24    0805
R240   0805
R241   0805
R242   0805
R243   0805
R244   0805
R245   0805
R246   0805
R247   0805
R248   0805
R249   0805
R25    0805
R250   0805
R251   0805
R252   0805
R253   0805
R254   0805
R255   0805
R256   0805
R257   0805
R258   0805
R259   0805
R26    0805
R260   0805
R261   0805
R262   0805
R263   0805
R264   0805
R265   0805
R266   0805
R267   0805
R268   0805
R269   0805
R27    0805
R270   0805
R271   0805
R272   0805
R273   0805
R274   0805
R275   0805
R276   0805
R277   0805
R278   0805
R279   0805
R28    0805
R280   0805
R281   0805
R282   0805
R283   0805
R284   0805
R285   0805
R286   0805
R287   0805
R288   0805
R289   0805
R29    0805
R290   0805
R291   0805
R292   0805
R293   0805
R294   0805
R295   0805
R296   0805
R297   0805
R298   0805
R299   0805
R3     0805
R30    0805
R300   0805
R301   0805
R302   0805
R303   0805
R304   0805
R305   0805
R306   0805
R307   0805
R308   0805
R309   0805
R31    0805
R310   0805
R311   0805
R312   0805
R313   0805
R314   0805
R315   0805
R316   0805
R317   0805
R318   0805
R319   0805
R32    0805
R320   0805
R321   0805
R322   0805
R323   0805
R324   0805
R325   0805
R326   0805
R327   0805
R328   0805
R329   0805
R33    0805
R330   0805
R331   0805
R332   0805
R333   0805
R334   0805
R335   0805
R336   0805
R337   0805
R338   0805
R339   0805
R34    0805
R340   0805
R341   0805
R342   0805
R343   0805
R344   0805
R345   0805
R346   0805
R347   0805
R348   0805
R349   0805
R35    0805
R350   0805
R351   0805
R352   0805
R353   0805
R354   0805
R355   0805
R356   0805
R357   0805
R358   0805
R359   0805
R36    0805
R360   0805
R361   0805
R362   0805
R363   0805
R364   0805
R365   0805
R366   0805
R367   0805
R368   0805
R369   0805
R37    0805
R370   0805
R371   0805
R372   0805
R373   0805
R374   0805
R375   0805
R376   0805
R377   0805
R378   0805
R379   0805
R38    0805
R380   0805
R381   0805
R382   0805
R383   0805
R384   0805
R385   0805
R386   0805
R387   0805
R388   0805
R389   0805
R39    0805
R390   0805
R391   0805
R392   0805
R393   0805
R394   0805
R395   0805
R396   0805
R397   0805
R398   0805
R399   0805
R4     0805
R40    0805
R400   0805
R401   0805
R402   0805
R403   0805
R404   0805
R405   0805
R406   0805
R407   0805
R408   0805
R409   0805
R41    0805
R410   0805
R411   0805
R412   0805
R413   0805
R414   0805
R415   0805
R416   0805
R417   0805
R418   0805
R419   0805
R42    0805
R420   0805
R421   0805
R422   0805
R423   0805
R424   0805
R425   0805
R426   0805
R427   0805
R428   0805
R429   0805
R43    0805
R430   0805
R431   0805
R432   0805
R433   0805
R434   0805
R435   0805
R436   0805
R437   0805
R438   0805
R439   0805
R44    0805
R440   0805
R441   0805
R442   0805
R443   0805
R444   0805
R445   0805
R446   0805
R447   0805
R448   0805
R449   0805
R45    0805
R450   0805
R451   0805
R452   0805
R453   0805
R454   0805
R455   0805
R456   0805
R457   0805
R458   0805
R459   0805
R46    0805
R460   0805
R461   0805
R462   0805
R463   0805
R464   0805
R465   0805
R466   0805
R467   0805
R468   0805
R469   0805
R47    0805
R470   0805
R471   0805
R472   0805
R473   0805
R474   0805
R475   0805
R476   0805
R477   0805
R478   0805
R479   0805
R48    0805
R480   0805
R481   0805
R482   0805
R483   2512
R484   0805
R485   0805
R486   0805
R487   0805
R488   0805
R489   0805
R49    0805
R490   0805
R491   1206
R492   0805
R493   0805
R494   0805
R495   0805
R496   2512
R497   1206
R498   0805
R499   0805
R5     0805
R50    0805
R500   1206
R501   0805
R502   0805
R503   1206
R504   0805
R505   0805
R506   0805
R507   0805
R508   0805
R509   0805
R51    0805
R510   0805
R511   0805
R512   0805
R513   0805
R514   0805
R515   0805
R516   0805
R517   0805
R518   0805
R519   0805
R52    0805
R520   0805
R521   0805
R522   0805
R523   0805
R524   0805
R525   0805
R526   0805
R527   0805
R528   0805
R53    0805
R54    0805
R55    0805
R56    0805
R57    0805
R58    0805
R59    0805
R6     0805
R60    0805
R61    0805
R62    0805
R63    0805
R64    0805
R65    0805
R66    0805
R67    0805
R68    0805
R69    0805
R7     0805
R70    0805
R71    0805
R72    0805
R73    0805
R74    0805
R75    0805
R76    0805
R77    0805
R78    0805
R79    0805
R8     0805
R80    0805
R81    0805
R82    0805
R83    0805
R84    0805
R85    0805
R86    0805
R87    0805
R88    0805
R89    0805
R9     0805
R90    0805
R91    0805
R92    0805
R93    0805
R94    0805
R95    0805
R96    0805
R97    0805
R98    0805
R99    0805
RV1    SMB
S1     SW PUSHBUTTON
S2     SW PUSHBUTTON
T1     16P-SMT
T2     16P DIP
T3     16P-SMT
T4     16P-SMT
U1     54P_TSOP
U10    20P-SOIC
U11    8-SOIC
U12    28P-SSOP
U13    28P-SSOP
U14    100_LQFP
U15    14P-SOIC
U16    14P-SOIC
U17    328P-BGA
U18    SMT
U19    IR_MODULE-NO STUFF
U2     54P_TSOP
U20    24P-SOP
U21    100P-QFP
U22    SO-8
U23    SO-8
U24    128P-QFP
U25    100P-TQFP
U26    144P-PBGA
U27    16P-SSOP
U28    14P-SOIC
U29    14P-SOIC
U3     456-PBGA
U30    SOT-223
U31    14P-SOIC
U32    14P-SOIC
U33    48P-SSOP
U34    SO-8
U35    MSOP-8
U36    TO-252 Dpack
U37    MSOP-8
U38    SOT223-5
U39    32P-TSOP2
U4     54P_TSOP
U40    SLB
U5     54P_TSOP
U6     54P_TSOP
U7     40P_TSOP
U8     32P-PLCC
U9     20P-SOIC
Y1     SMT_FPX
Y2     SMT_FSM
Y3     SMT_FSM
Y4     SMT_FPX
Y5     SMT_FPX
Y6     SMT_FPX
Y7     SMT_FPX

*NET*
*SIGNAL* N1942487
J8.B58 U29.4
*SIGNAL* N1939380
U15.8 J8.B7 J8.B42
*SIGNAL* N1942530
J8.B44 U28.3
*SIGNAL* N1942851
U29.2 U28.13 U28.2
*SIGNAL* INT_CARD
J8.B16 U3.Y24 R403.2
*SIGNAL* N1942537
J8.B45 U28.11
*SIGNAL* CD1
J8.B36 U3.AE8 R399.2
*SIGNAL* CD2
J8.B67 U3.AF5 R398.2
*SIGNAL* N677911
U33.17 R421.1
*SIGNAL* N677917
U33.20 R423.1
*SIGNAL* N678998
R425.2 R434.2 U33.7 R439.1
*SIGNAL* N1559228
U33.13 R430.2
*SIGNAL* N677914
U33.18 R422.1
*SIGNAL* N694247
R429.2 U33.12
*SIGNAL* N694969
U33.21 R424.1
*SIGNAL* N677932
U33.8 R435.2 R426.2 R438.1
*SIGNAL* N1559231
U33.14 R431.2
*SIGNAL* HPNA_LINK
U25.65 U15.5
*SIGNAL* N1954970
Q5.2 R360.1
*SIGNAL* N1954973
R360.2 D3.1
*SIGNAL* P_OE
R99.2 U7.24 U8.24 U3.C2 U28.1 U28.10 U39.24 U40.20
*SIGNAL* P_WE
U8.31 R102.2 U3.D2 U7.9 U28.12 U28.5 U39.31 U40.21
*SIGNAL* P_CS2
U3.C5 R106.2 R516.1
*SIGNAL* MSYS_BSY
R109.2 U3.E3 J8.B59 U32.5 U39.23
*SIGNAL* P_CS0
U3.B3 R108.2 R518.1 R517.1
*SIGNAL* GPIO1
U3.D18 R453.2 R472.1
*SIGNAL* PWR_GD
U16.9 U29.5 U30.2 R411.1 U39.29
*SIGNAL* N2602044
J4.32 R320.1
*SIGNAL* PCI_GNT3
J4.14 U3.H26
*SIGNAL* MSYS_CS
U39.22 R516.2 R517.2
*SIGNAL* INT_9131
U14.63 R207.2 R206.2
*SIGNAL* INT_PHY
R207.1 R208.1 U3.V25
*SIGNAL* INT_24611
R205.2 R208.2 U25.25
*SIGNAL* N1993900
R327.2 U24.85
*SIGNAL* N2012554
R331.2 U24.81
*SIGNAL* N2552007
J6.12 U24.87
*SIGNAL* N2000353
R329.2 U24.74
*SIGNAL* N1614828
R404.2 U31.1 R411.2 C161.1 S2.2 R412.2
*SIGNAL* N1620814
U32.3 U29.11
*SIGNAL* N1620808
U29.10 U32.4
*SIGNAL* N1620805
U32.2 U29.8
*SIGNAL* N1620802
U29.6 U32.1
*SIGNAL* N1620836
U32.6 U29.9 R412.1
*SIGNAL* N1628262
U31.10 R510.1
*SIGNAL* N1628259
U31.4 R507.1
*SIGNAL* N1627957
R511.2 U31.9
*SIGNAL* N1628250
U31.6 R509.1
*SIGNAL* N1628265
U31.13 R513.1
*SIGNAL* N1627954
R508.2 U31.5
*SIGNAL* N1627960
R514.2 U31.12
*SIGNAL* N1628253
U31.8 R512.1
*SIGNAL* N1628256
U31.11 R515.1
*SIGNAL* N2685534
C40.1 U12.24
*SIGNAL* N2685506
C38.1 U12.26
*SIGNAL* N2685513
C38.2 U12.28
*SIGNAL* N2685527
C39.2 U12.2
*SIGNAL* N2683914
C35.2 U12.1
*SIGNAL* N2687024
R166.2 U12.7
*SIGNAL* N2685541
U12.6 C40.2
*SIGNAL* N2689199
JP1.6 U12.18
*SIGNAL* N2683893
U12.25 C41.2
*SIGNAL* N2689149
U12.21 JP1.5
*SIGNAL* N2689327
JP1.2 U12.16
*SIGNAL* N2689131
U12.22 JP1.7
*SIGNAL* N2689174
U12.20 JP1.4
*SIGNAL* N2687027
R168.2 U12.9
*SIGNAL* N2685520
U12.4 C39.1
*SIGNAL* N2689211
JP1.3 U12.17
*SIGNAL* N12878
R267.2 R269.1 C88.1 Y3.1 Y3.4 U20.2
*SIGNAL* N13274
U20.22 C85.1 D2.2 C86.1 Q2.2 R266.1
*SIGNAL* N13271
D2.1 BT1.1
*SIGNAL* N107925
U16.8 U16.11
*SIGNAL* N12860
C87.1 R267.1 U20.3 Y3.2 Y3.3
*SIGNAL* OSC32KII
C78.1 Y2.3 R246.1 Y2.2 U17.N19
*SIGNAL* XD1
U17.C15 U20.5
*SIGNAL* N122188
U17.D17 R255.2
*SIGNAL* IRQ7
U17.W20 R278.2
*SIGNAL* IRQ10
U17.N18 R286.2
*SIGNAL* IOR
U17.V15 R280.2
*SIGNAL* N13162
U20.13 U16.10 R291.1 Q3.1 Q2.1
*SIGNAL* XD2
U17.A16 U20.6
*SIGNAL* N11031
U17.K20 R259.2
*SIGNAL* IOW
U17.Y15 R276.2
*SIGNAL* IRQ14
U17.G17 R290.2
*SIGNAL* XD7
U17.C17 U20.11
*SIGNAL* IRQ6
U17.V19 R279.2
*SIGNAL* DREQ7
U17.B19 R301.1
*SIGNAL* XD4
U17.C16 U20.8
*SIGNAL* RTCAS
U17.C14 U20.14
*SIGNAL* IRQ4
U17.U20 R282.2
*SIGNAL* N452112
U17.D15 R256.2
*SIGNAL* SBHE
U17.P18 R285.2
*SIGNAL* IO16
U17.P17 R275.2
*SIGNAL* OSC32KI
U17.N20 C80.1 Y2.1 R246.2 R251.1 Y2.4 R268.2
*SIGNAL* N450977
R247.2 U17.L20
*SIGNAL* IRRXH
U18.3 U17.U13
*SIGNAL* RTCDS
U17.A14 U20.17
*SIGNAL* DREQ0
U17.F18 R295.1
*SIGNAL* IRQ3
U17.U16 R284.2 U40.22
*SIGNAL* IOCHK
U17.Y10 R277.2
*SIGNAL* NOWS
U17.V13 R273.2
*SIGNAL* XD0
U17.B15 U20.4
*SIGNAL* N44998
U17.A15 R265.2
*SIGNAL* ROUT2
JP2.6 R175.1 U13.18
*SIGNAL* ROUT4
JP2.2 R177.1 U13.16
*SIGNAL* DIN3
JP2.4 R171.1 U13.20
*SIGNAL* ROUT1
JP2.8 R174.1 U13.19
*SIGNAL* ROUT3
JP2.3 R176.1 U13.17
*SIGNAL* ROUT5
JP2.1 R178.1 U13.15
*SIGNAL* REFSH
U17.Y19 R272.2
*SIGNAL* DREQ2
U17.V12 R297.1
*SIGNAL* IRQ5
U17.U17 R283.2
*SIGNAL* RTCRW
U17.B14 U20.15
*SIGNAL* IRQ11
U17.N16 R287.2
*SIGNAL* N11112
U17.R17 R257.2
*SIGNAL* N11161
R248.2 U17.Y5
*SIGNAL* N99138
U17.E17 R253.2
*SIGNAL* IRQ9
U17.V11 R281.2
*SIGNAL* N2694271
U21.69 Q4.1
*SIGNAL* N1954959
R362.1 Q5.1 R353.2 R361.1
*SIGNAL* N2694580
L4.2 C132.1
*SIGNAL* DIN2
JP2.5 R169.1 U13.21
*SIGNAL* DIN1
JP2.7 R167.1 U13.22
*SIGNAL* DREQ6
U17.C20 R300.1
*SIGNAL* DREQ1
U17.V17 R296.1
*SIGNAL* IRQ8
U17.L19 R288.2 R270.2
*SIGNAL* N11182
U17.V4 R249.2
*SIGNAL* IRQ15
U17.H17 R289.2
*SIGNAL* XD5
U17.A17 U20.9
*SIGNAL* N11168
U17.W3 R258.1
*SIGNAL* DREQ5
U17.E18 R299.1
*SIGNAL* N1772364
U26.M11 R389.1
*SIGNAL* N712991
D1.2 R244.1
*SIGNAL* N712726
U17.G1 R231.2
*SIGNAL* N01320
U17.F2 R234.2
*SIGNAL* M16
U17.P19 R274.2
*SIGNAL* DREQ3
U17.W16 R298.1
*SIGNAL* N101385
R264.1 U17.M19
*SIGNAL* XD6
U17.B17 U20.10
*SIGNAL* XD3
U17.B16 U20.7
*SIGNAL* IOCHRDY
U17.Y14 R271.2
*SIGNAL* N1772357
R388.1 U26.N11
*SIGNAL* N1772329
U26.K9 R385.1
*SIGNAL* N1772299
U26.N9 R384.1
*SIGNAL* N1772343
U26.L10 R387.1
*SIGNAL* N1772336
R386.1 U26.N10
*SIGNAL* N01567
U17.H3 R220.4
*SIGNAL* N01602
U17.J3 R209.7
*SIGNAL* N01539
U17.G4 R220.8
*SIGNAL* N01581
U17.H5 R220.2
*SIGNAL* N07646
U17.A13 C62.1 R210.2
*SIGNAL* N01588
U17.J1 R220.1
*SIGNAL* N712737
U17.F5 R228.2 R224.2
*SIGNAL* N722948
L1.2 F1.1 R215.2
*SIGNAL* N05078
U17.E6 R241.2
*SIGNAL* USBOVC
U17.C12 R214.1 C67.1 R215.1
*SIGNAL* N17695
R222.2 U17.N15
*SIGNAL* N01637
U17.K3 R209.2
*SIGNAL* N05050
U17.A6 R237.2
*SIGNAL* N05085
U17.F4 R240.2
*SIGNAL* N01616
U17.J5 R209.5
*SIGNAL* N07639
U17.E12 C61.1 R211.2
*SIGNAL* N01553
U17.H1 R220.6
*SIGNAL* N05064
U17.E4 R243.2
*SIGNAL* N01546
U17.G5 R220.7
*SIGNAL* N712701
U17.G2 R227.2
*SIGNAL* N712762
U17.F3 R232.2
*SIGNAL* N05071
U17.E5 R242.2
*SIGNAL* N01308
U17.F1 R230.2
*SIGNAL* N01630
U17.K2 R209.3
*SIGNAL* GPIO2
U3.C20 R454.2 R473.1
*SIGNAL* N712719
R231.1 J3.25
*SIGNAL* N712708
R227.1 J3.23
*SIGNAL* N712862
U17.E1 R226.1
*SIGNAL* N17652
R221.2 U17.P15
*SIGNAL* N07625
R213.2 C59.1 U17.B13
*SIGNAL* N01595
U17.J2 R209.8
*SIGNAL* N712865
U17.E3 R225.1
*SIGNAL* N17642
R223.2 U17.G15
*SIGNAL* N07632
U17.C13 C60.1 R212.2
*SIGNAL* N01574
U17.H4 R220.3
*SIGNAL* N01560
U17.H2 R220.5
*SIGNAL* N01609
U17.J4 R209.6
*SIGNAL* N01284
U17.E2 R233.2
*SIGNAL* N01272
U17.G3 R229.2
*SIGNAL* N01623
U17.K1 R209.4
*SIGNAL* N01644
U17.K4 R209.1
*SIGNAL* N2705147
R523.1 U32.8
*SIGNAL* N2705113
U32.10 R519.1
*SIGNAL* PIDE_D12
R220.15 J3.12 R311.1
*SIGNAL* PIDE_D13
R220.13 J3.14 R312.1
*SIGNAL* PIDE_D14
R220.11 J3.16 R313.1
*SIGNAL* PIDE_D3
R220.16 J3.11 R302.1
*SIGNAL* PIDE_D11
R209.9 J3.10 R310.1
*SIGNAL* N712780
R229.1 J3.21 R235.1
*SIGNAL* N713055
J3.28 R236.1
*SIGNAL* N712797
R233.1 J3.37
*SIGNAL* N712837
R230.1 J3.35
*SIGNAL* USB1P
R217.1 J2.B3 R211.1
*SIGNAL* N722740
J2.A4 C63.1 L2.1
*SIGNAL* USB0P
R219.1 R213.1 J2.A3
*SIGNAL* USB1N
J2.B2 R216.1 R210.1
*SIGNAL* N722516
J2.B4 L3.1 C64.1
*SIGNAL* N722557
J2.B1 L1.1 J2.A1 C66.1 C65.1
*SIGNAL* USB0N
R212.1 R218.1 J2.A2
*SIGNAL* N2723990
R173.2 JP2.10
*SIGNAL* PIDE_D0
R220.10 J3.17 R292.1
*SIGNAL* N05216
U17.H20 U16.3
*SIGNAL* N712965
J3.1 U16.6
*SIGNAL* PIDE_D10
R209.11 J3.8 R309.1
*SIGNAL* PIDE_D6
R209.14 J3.5 R305.1
*SIGNAL* PIDE_D8
R209.15 J3.4 R307.1
*SIGNAL* PIDE_D15
R220.9 J3.18 R314.1
*SIGNAL* N712880
J3.36 R225.2
*SIGNAL* N712851
R234.1 J3.33
*SIGNAL* SIRQI
J3.31 U17.D12
*SIGNAL* N712744
J3.27 R228.1
*SIGNAL* RSTDRV
U16.5 U17.T10
*SIGNAL* N712984
J3.39 R244.2
*SIGNAL* N712868
R226.2 J3.38
*SIGNAL* N712755
R232.1 J3.29
*SIGNAL* N1994021
R326.2 U24.84
*SIGNAL* N568789
U5.50 R91.1
*SIGNAL* N568768
U5.11 R75.1
*SIGNAL* N568780
U5.45 R85.1
*SIGNAL* N568750
U5.2 R63.1
*SIGNAL* N568795
U5.53 R95.1
*SIGNAL* N568759
U5.7 R69.1
*SIGNAL* N568765
U5.10 R73.1
*SIGNAL* N568774
U5.42 R80.1
*SIGNAL* N568777
U5.44 R83.1
*SIGNAL* N568786
U5.48 R89.1
*SIGNAL* PIDE_D1
R220.12 J3.15 R293.1
*SIGNAL* PIDE_D9
R209.13 J3.6 R308.1
*SIGNAL* PIDE_D7
R209.16 J3.3 R306.1
*SIGNAL* PIDE_D2
R220.14 J3.13 R294.1
*SIGNAL* PIDE_D4
R209.10 J3.9 R303.1
*SIGNAL* PIDE_D5
R209.12 J3.7 R304.1
*SIGNAL* N568741
U6.50 R92.1
*SIGNAL* N568723
U6.13 R78.1
*SIGNAL* N568705
U6.4 R66.1
*SIGNAL* N568747
U6.53 R96.1
*SIGNAL* N568720
U6.11 R76.1
*SIGNAL* N568729
U6.44 R84.1
*SIGNAL* N568735
U6.47 R88.1
*SIGNAL* N568708
U6.5 R68.1
*SIGNAL* N568714
U6.8 R72.1
*SIGNAL* N568792
U5.51 R93.1
*SIGNAL* N568762
U5.8 R71.1
*SIGNAL* N568771
U5.13 R77.1
*SIGNAL* N568753
U5.4 R65.1
*SIGNAL* N568783
U5.47 R87.1
*SIGNAL* N568717
U6.10 R74.1
*SIGNAL* N568756
U5.5 R67.1
*SIGNAL* N491492
U4.51 R61.1
*SIGNAL* N491462
U4.8 R50.1
*SIGNAL* N491474
U4.42 R55.1
*SIGNAL* N491453
U4.4 R47.1
*SIGNAL* N568726
U6.42 R82.1
*SIGNAL* N568702
U6.2 R64.1
*SIGNAL* N568732
U6.45 R86.1
*SIGNAL* N568711
U6.7 R70.1
*SIGNAL* N568738
U6.48 R90.1
*SIGNAL* N568744
U6.51 R94.1
*SIGNAL* N491483
U4.47 R58.1
*SIGNAL* N491450
U4.2 R45.1
*SIGNAL* N491456
U4.5 R48.1
*SIGNAL* N491534
U1.48 R27.1
*SIGNAL* N491510
U1.8 R9.1
*SIGNAL* N491540
U1.51 R31.1
*SIGNAL* N491498
U1.2 R1.1
*SIGNAL* N491525
U1.44 R21.1
*SIGNAL* N491480
U4.45 R57.1
*SIGNAL* N491468
U4.11 R52.1
*SIGNAL* N491465
U4.10 R51.1
*SIGNAL* N491477
U4.44 R56.1
*SIGNAL* N491489
U4.50 R60.1
*SIGNAL* N491486
U4.48 R59.1
*SIGNAL* N491459
U4.7 R49.1
*SIGNAL* N491495
U4.53 R62.1
*SIGNAL* N491471
U4.13 R53.1
*SIGNAL* N491528
U1.45 R23.1
*SIGNAL* N491414
U2.13 R16.1
*SIGNAL* N497465
U2.53 R34.1
*SIGNAL* N491411
U2.11 R14.1
*SIGNAL* N497496
U2.5 R6.1
*SIGNAL* N491417
U2.42 R20.1
*SIGNAL* N491420
U2.44 R22.1
*SIGNAL* MD3
R7.2 U3.AC11 R69.2
*SIGNAL* MA11
U4.35 U2.35 U1.35 U3.AD18 U5.35 U6.35
*SIGNAL* MD2
U3.AD11 R5.2 R67.2
*SIGNAL* MD15
U3.AE5 R33.2 R95.2
*SIGNAL* MD5
R11.2 U3.AE11 R73.2
*SIGNAL* N491408
U2.10 R12.1
*SIGNAL* N491519
U1.13 R15.1
*SIGNAL* N491507
U1.7 R7.1
*SIGNAL* N491516
U1.11 R13.1
*SIGNAL* N491522
U1.42 R18.1
*SIGNAL* N491504
U1.5 R5.1
*SIGNAL* N491531
U1.47 R25.1
*SIGNAL* N491537
U1.50 R29.1
*SIGNAL* N491501
U1.4 R3.1
*SIGNAL* N491513
U1.10 R11.1
*SIGNAL* N491543
U1.53 R33.1
*SIGNAL* N2765968
R100.2 U8.1
*SIGNAL* IRDY
U17.A5 J4.45 U21.14 U24.23 U3.J23 U26.K1 R368.2 JP3.35
*SIGNAL* GPIO5_LINK
R361.2 U3.AC9
*SIGNAL* MECC0
R2.2 R20.2 U3.AE14 R35.2
*SIGNAL* MECC4
R10.2 U3.AF13 R28.2 R39.2
*SIGNAL* MECC3
R26.2 R8.2 U3.AD13 R38.2
*SIGNAL* MECC5
R30.2 U3.AF12 R12.2 R40.2
*SIGNAL* MDQM2
U3.AC6 U4.15 U6.15
*SIGNAL* MD28
R59.2 U3.W3 R90.2
*SIGNAL* MDQM0
U3.AC12 U1.15 U5.15
*SIGNAL* N491402
U2.7 R8.1
*SIGNAL* N491423
U2.45 R24.1
*SIGNAL* N497468
U2.51 R32.1
*SIGNAL* N497499
U2.4 R4.1
*SIGNAL* N497502
U2.2 R2.1
*SIGNAL* N497474
U2.48 R28.1
*SIGNAL* N491405
U2.8 R10.1
*SIGNAL* N497477
U2.47 R26.1
*SIGNAL* N497471
U2.50 R30.1
*SIGNAL* MECC1
R22.2 R4.2 U3.AF15 R36.2
*SIGNAL* MECC7
R34.2 R16.2 U3.AD12 R42.2
*SIGNAL* MA0
U4.23 U3.AE22 U2.23 U1.23 U5.23 U6.23
*SIGNAL* M_WE_N
U1.16 U2.16 U4.16 U3.AC16 U6.16 U5.16
*SIGNAL* MD8
U3.AD9 R18.2 R80.2
*SIGNAL* MBA1
U3.AC24 U2.21 U1.21 U4.21 U5.21 U6.21
*SIGNAL* MA6
U4.31 U1.31 U2.31 U3.AC19 U5.31 U6.31
*SIGNAL* MD21
U3.AB2 R51.2 R74.2
*SIGNAL* MD20
U3.AD1 R50.2 R72.2
*SIGNAL* MA1
U4.24 U1.24 U3.AC21 U2.24 U5.24 U6.24
*SIGNAL* MA2
U4.25 U2.25 U3.AE21 U1.25 U5.25 U6.25
*SIGNAL* MA7
U4.32 U2.32 U3.AE19 U1.32 U5.32 U6.32
*SIGNAL* MD14
R31.2 U3.AE6 R93.2
*SIGNAL* MA9
U4.34 U1.34 U3.AC18 U2.34 U5.34 U6.34
*SIGNAL* MA10
U4.22 U1.22 U2.22 U3.AF19 U5.22 U6.22
*SIGNAL* MA5
U4.30 U3.AE20 U2.30 U1.30 U5.30 U6.30
*SIGNAL* M_RAS_N
U1.18 U4.18 U2.18 U3.AF24 U6.18 U5.18
*SIGNAL* MD27
U3.W2 R58.2 R88.2
*SIGNAL* MD13
U3.AD7 R29.2 R91.2
*SIGNAL* MD0
R1.2 U3.AC13 R63.2
*SIGNAL* MD11
U3.AF7 R25.2 R87.2
*SIGNAL* MD26
U3.W4 R57.2 R86.2
*SIGNAL* MD18
U3.AD4 R48.2 R68.2
*SIGNAL* MD12
U3.AC8 R27.2 R89.2
*SIGNAL* MD6
R13.2 U3.AD10 R75.2
*SIGNAL* MA3
U4.26 U3.AD21 U2.26 U1.26 U5.26 U6.26
*SIGNAL* MD1
R3.2 U3.AE12 R65.2
*SIGNAL* MD30
R61.2 U3.W1 R94.2
*SIGNAL* MD25
R56.2 U3.Y2 R84.2
*SIGNAL* MBA0
U4.20 U2.20 U1.20 U3.AB24 U5.20 U6.20
*SIGNAL* MA4
U4.29 U1.29 U3.AF22 U2.29 U5.29 U6.29
*SIGNAL* MDQM1
U3.AC10 U1.39 U5.39
*SIGNAL* MECC6
R32.2 R14.2 U3.AE13 R41.2
*SIGNAL* N686765
U2.15 U2.39 U3.AC15
*SIGNAL* N523868
U3.AD17 U2.19 U4.19 U1.19
*SIGNAL* MD10
U3.AD8 R23.2 R85.2
*SIGNAL* M_CAS_N
U1.17 U4.17 U2.17 U3.AB23 U5.17 U6.17
*SIGNAL* MD19
U3.AC5 R49.2 R70.2
*SIGNAL* MD31
U3.V3 R62.2 R96.2
*SIGNAL* MA8
U4.33 U2.33 U1.33 U3.AD19 U5.33 U6.33
*SIGNAL* MD7
R15.2 U3.AF9 R77.2
*SIGNAL* MD23
R53.2 U3.AA2 R78.2
*SIGNAL* M_BANK_SEL1_N
U3.AF17 U5.19 U6.19
*SIGNAL* MD22
U3.AA4 R52.2 R76.2
*SIGNAL* N2777586
Q2.3 U20.20 Q3.3 R266.2
*SIGNAL* MECC2
U3.AF14 R24.2 R6.2 R37.2
*SIGNAL* MD29
R60.2 U3.V4 R92.2
*SIGNAL* MD4
R9.2 U3.AF10 R71.2
*SIGNAL* MD16
U3.AE4 R45.2 R64.2
*SIGNAL* MD24
R55.2 U3.AB1 R82.2
*SIGNAL* MDQM3
U4.39 U3.AA3 U6.39
*SIGNAL* MD9
U3.AE9 R21.2 R83.2
*SIGNAL* MD17
U3.AD5 R47.2 R66.2
*SIGNAL* N1148255
J5.11 R319.2
*SIGNAL* N1148219
T2.14 J5.2
*SIGNAL* N1148207
J5.1 T2.16
*SIGNAL* N1148243
T2.9 J5.6
*SIGNAL* N1148231
T2.11 J5.3
*SIGNAL* N1148391
C96.1 T2.10
*SIGNAL* N1148377
T2.7 C95.1
*SIGNAL* N1148384
C97.1 T2.15
*SIGNAL* N2789469
R170.2 U12.11
*SIGNAL* N2789472
R172.2 U12.13
*SIGNAL* N1148332
U21.70 J5.12
*SIGNAL* N1143539
U22.6 R318.1
*SIGNAL* N1143497
U21.55 R317.2 U22.4
*SIGNAL* N1143612
U21.87 T2.6 R321.2
*SIGNAL* N1149262
U21.79 Y4.1 R323.1 C98.1
*SIGNAL* N1143485
U21.56 U22.3
*SIGNAL* N1150048
R322.2 U21.2
*SIGNAL* N1143473
U21.57 U22.2
*SIGNAL* N1143639
U21.74 T2.3
*SIGNAL* N1143470
U21.53 U22.1
*SIGNAL* N1143627
U21.73 T2.1
*SIGNAL* N1149250
Y4.4 U21.78 R323.2 C99.1
*SIGNAL* N1143615
R321.1 T2.8 U21.86
*SIGNAL* N2003409
R328.2 U24.69
*SIGNAL* N1148370
C94.1 T2.2
*SIGNAL* N2797502
R494.1 J9.2
*SIGNAL* N2801219
T4.16 C135.1 RV1.1 J7.2 R349.1
*SIGNAL* N862450
U26.D11 J8.A48
*SIGNAL* A_AD15
J8.A45 U26.F10
*SIGNAL* A_AD16
J8.A46 U26.E12
*SIGNAL* A_CBE3
J8.A61 U26.B7
*SIGNAL* N862542
U26.D5 J8.A33 R394.2
*SIGNAL* N862279
U26.B5 J8.A62
*SIGNAL* N862365
U26.B12 J8.A19
*SIGNAL* A_AD1
J8.A3 U26.K12
*SIGNAL* N1598457
U32.12 R524.2 R519.2 R518.2
*SIGNAL* A_AD4
J8.A38 U26.K13
*SIGNAL* A_AD13
J8.A44 U26.F13
*SIGNAL* N862390
U26.B9 J8.A58
*SIGNAL* N868685
J8.A13 U26.D13
*SIGNAL* N863534
U26.B11 J8.A54
*SIGNAL* N862414
U26.J13 J8.A40
*SIGNAL* N862426
U26.E10 J8.A47
*SIGNAL* A_AD14
J8.A11 U26.E13
*SIGNAL* N862581
U26.C12 J8.A49
*SIGNAL* A_AD28
J8.A64 U26.A3
*SIGNAL* A_AD12
J8.A10 U26.F11
*SIGNAL* A_AD25
J8.A28 U26.D7
*SIGNAL* A_AD26
J8.A29 U26.A6
*SIGNAL* A_AD27
J8.A30 U26.C4
*SIGNAL* N2830146
U14.35 U15.1
*SIGNAL* N2830171
U15.3 R202.1 Q1.1
*SIGNAL* A_CBE0
J8.A7 U26.H13
*SIGNAL* A_AD3
J8.A4 U26.J10
*SIGNAL* A_AD5
J8.A5 U26.J12
*SIGNAL* N863492
U26.C13 J8.A14
*SIGNAL* A_AD29
J8.A31 U26.B3
*SIGNAL* A_AD2
J8.A37 U26.K10
*SIGNAL* N862239
U26.A2 J8.A32
*SIGNAL* N2833434
Q4.2 R319.1
*SIGNAL* A_CBE1
J8.A12 U26.E11
*SIGNAL* A_AD17
J8.A55 U26.D10
*SIGNAL* A_AD19
J8.A56 U26.A10
*SIGNAL* N862487
U26.C6 J8.A43
*SIGNAL* A_AD23
J8.A26 U26.A8
*SIGNAL* N863522
U26.B13 J8.A50
*SIGNAL* N862316
U26.C11 J8.A15
*SIGNAL* A_AD30
J8.A65 U26.C3
*SIGNAL* A_AD31
J8.A66 U26.B2
*SIGNAL* N863558
U26.A12 J8.A20
*SIGNAL* N863546
U26.A13 J8.A53
*SIGNAL* N862402
J8.A57 U26.D9
*SIGNAL* A_AD9
J8.A8 U26.G12
*SIGNAL* A_AD0
J8.A2 U26.L13
*SIGNAL* N2705119
R521.1 U32.9
*SIGNAL* MII_TRF
U16.1 U14.34 U15.4
*SIGNAL* N2693631
U15.6 R353.1
*SIGNAL* A_AD24
J8.A27 U26.C7
*SIGNAL* N863510
U26.A5 J8.A59
*SIGNAL* A_AD18
J8.A22 U26.B10
*SIGNAL* A_AD20
J8.A23 U26.C9
*SIGNAL* A_AD21
J8.A24 U26.A9
*SIGNAL* A_AD22
J8.A25 U26.D8
*SIGNAL* A_AD8
J8.A41 U26.H12
*SIGNAL* N862291
U26.D6 J8.A16
*SIGNAL* A_CBE2
J8.A21 U26.A11
*SIGNAL* N862569
U26.B8 J8.A60
*SIGNAL* N862462
U26.A4 J8.A67
*SIGNAL* N862500
U26.L12 J8.A36
*SIGNAL* N862530
U26.C5 J8.A63
*SIGNAL* A_AD10
J8.A42 U26.G11
*SIGNAL* A_AD11
J8.A9 U26.G10
*SIGNAL* N2857527
Q11.5,6,7,8 R491.1
*SIGNAL* PWR_ON
Q11.4 Q13.4 Q9.2 R482.2
*SIGNAL* A_AD6
J8.A39 U26.J11
*SIGNAL* A_AD7
J8.A6 U26.H10
*SIGNAL* N806568
R492.1 R495.2 U35.3 C194.1 C193.2
*SIGNAL* N804924
R501.1 R506.2 U37.3 C210.1 C208.2
*SIGNAL* N839969
R499.1 C207.1
*SIGNAL* N806512
U35.1 R483.2 C184.2 Q10.5,6,7,8
*SIGNAL* N804856
U37.1 R496.2 C199.2 Q12.5,6,7,8
*SIGNAL* N806608
U35.2 R490.2 C187.1
*SIGNAL* N804914
U37.6 R498.1
*SIGNAL* N804970
U37.2 R499.2 C201.1
*SIGNAL* N806556
U35.6 R488.1
*SIGNAL* N839966
R490.1 C192.1
*SIGNAL* N804890
U37.7 C202.1
*SIGNAL* N806540
U35.7 C188.1
*SIGNAL* N810754
R498.2 Q12.4
*SIGNAL* N4975249
U2.37 R19.2
*SIGNAL* N2877244
R54.2 U4.37
*SIGNAL* N2877436
R17.2 U1.37
*SIGNAL* UART1_RTS
U3.AD2 R168.1 R166.1 R458.2 R477.1
*SIGNAL* N952602
U3.AD22 R415.1
*SIGNAL* N952543
U3.AE26 R416.1
*SIGNAL* N952620
U3.D26 R405.1
*SIGNAL* N953622
U3.AB26 R395.2
*SIGNAL* N6941720
Q7.2 R418.1
*SIGNAL* N6941680
Q6.2 R417.1
*SIGNAL* N678439
R417.2 D4.1
*SIGNAL* N806532
Q10.1,2,3 C188.2 U35.5 L5.1 D6.2
*SIGNAL* N804878
Q12.1,2,3 C202.2 U37.5 L6.1 D7.2
*SIGNAL* N810751
R488.2 Q10.4
*SIGNAL* RAM_CLK2
U1.38 U4.38 R46.1 R423.2
*SIGNAL* N2879519
R81.2 U6.37
*SIGNAL* N2879516
R79.2 U5.37
*SIGNAL* PCI_CLK1
U17.E8 R426.1
*SIGNAL* OSC14M
U17.P20 U33.48
*SIGNAL* N677843
C162.2 U33.4 R420.1 Y7.4
*SIGNAL* N952584
R414.1 U3.AC22
*SIGNAL* N678442
Q6.1 R409.2 U3.AC7
*SIGNAL* N679401
U3.V23 R402.2 S1.2
*SIGNAL* N952562
U3.AE24 R413.1
*SIGNAL* N952906
R401.2 U3.D24
*SIGNAL* N952647
U3.E23 R408.1
*SIGNAL* N952627
R406.1 U3.C25
*SIGNAL* N678476
Q7.1 R410.2 U3.AB3
*SIGNAL* N678472
R418.2 D5.1
*SIGNAL* RAM_CLK3
R43.1 U5.38 U6.38 R424.2
*SIGNAL* RAM_CLK1
U2.38 R44.1 R422.2
*SIGNAL* N2881164
U9.1 R127.1
*SIGNAL* N2882814
U10.1 R152.1
*SIGNAL* N815136
R113.2 U9.3 R114.1
*SIGNAL* N815168
R116.1 R115.2 U9.4
*SIGNAL* N815200
R120.1 U9.6 R119.2
*SIGNAL* N814418
R128.2 R129.1 U10.2
*SIGNAL* INT_1543
U16.4 U3.W25
*SIGNAL* USBCLK
U17.B12 U33.26 R433.2 R440.1
*SIGNAL* INT_8029
U21.88 J4.1 J4.4 R315.2 U3.W24
*SIGNAL* PCI_CLK5
J4.9 U21.90 R430.1
*SIGNAL* N677862
C163.2 R420.2 Y7.1 U33.5
*SIGNAL* N835337
R436.2 U33.2 R437.1
*SIGNAL* N952634
R407.1 U3.E24
*SIGNAL* PCI_CLK6
R431.1 JP3.4
*SIGNAL* P_DAT8
U3.R1 U10.18 J8.B6
*SIGNAL* P_DAT10
U10.16 U3.N3 J8.B4
*SIGNAL* P_DAT12
U10.14 U3.M1 J8.B2
*SIGNAL* N814527
R144.2 R145.1 U10.5
*SIGNAL* N815140
R112.1 R111.2 U9.2
*SIGNAL* N659868
R101.2 U7.29
*SIGNAL* N814589
U10.7 R149.1 R148.2
*SIGNAL* N814368
R141.1 U10.3 R140.2
*SIGNAL* N815184
U9.5 R117.2 R118.1
*SIGNAL* N814558
U10.6 R147.1 R146.2
*SIGNAL* N814511
R142.2 R143.1 U10.4
*SIGNAL* P_DAT6
U9.12 U3.R4 U7.26 U8.14 J8.B65 U39.14 JP7.4 U40.27
*SIGNAL* P_DAT14
U3.M3 U10.12 J8.B31
*SIGNAL* N673232
U3.Y1 R137.1
*SIGNAL* N670105
U3.B1 R139.1
*SIGNAL* P_DMA_ACK2
U3.B14 R487.1 R485.2
*SIGNAL* N673287
U3.C11 R132.1
*SIGNAL* N670089
U3.Y4 R103.2
*SIGNAL* N814687
R153.2 U10.9 R154.1
*SIGNAL* N815232
U9.8 R124.1 R123.2
*SIGNAL* N815216
R121.2 U9.7 R122.1
*SIGNAL* N814656
R150.2 U10.8 R151.1
*SIGNAL* N815248
R125.2 U9.9 R126.1
*SIGNAL* P_DAT9
U10.17 U3.P1 J8.B5
*SIGNAL* P_DAT5
U3.P4 U9.13 U7.27 U8.15 J8.B66 U39.15 JP7.6 U40.28
*SIGNAL* P_DAT3
U7.32 U3.T4 U9.15 U8.18 J8.B38 U39.18 JP7.10 U40.2
*SIGNAL* P_DAT0
U3.U4 U7.35 U9.18 U8.21 J8.B41 JP7.16 U39.21 U40.5
*SIGNAL* P_DAT15
U10.11 U3.M4 J8.B30
*SIGNAL* N673294
U3.D14 R131.1
*SIGNAL* N2893795
Q8.2 Q9.3
*SIGNAL* N2891983
U34.1 R442.1 Q8.1
*SIGNAL* VCC3.3_SEN
C191.1 L5.2 C189.1 C190.1 R492.2 Q11.1,2,3 U34.6 C193.1
*SIGNAL* VCC5_SEN
R501.2 C204.1 C203.1 L6.2 C205.1 U34.2 Q13.1,2,3 C208.1
*SIGNAL* N2892017
R441.1 R462.2 U34.3
*SIGNAL* P_DAT13
U10.13 U3.N2 J8.B32
*SIGNAL* P_DAT1
U7.34 U3.U3 U9.17 U8.20 J8.B40 JP7.14 U39.20 U40.4
*SIGNAL* P_DAT2
U8.19 U7.33 U3.U1 U9.16 J8.B39 JP7.12 U39.19 U40.3
*SIGNAL* P_DAT7
U7.25 U3.P2 U9.11 U8.13 J8.B64 U39.13 JP7.2 U40.26
*SIGNAL* P_DMA_ACK0
U3.D16 R447.2 R466.1 U40.24
*SIGNAL* N673273
U3.F3 R134.1
*SIGNAL* N670119
U3.V1 R138.1
*SIGNAL* N673434
R110.2 U3.F2
*SIGNAL* P_HOLD_ACK
U3.U2 R459.2 R478.1
*SIGNAL* N673259
U3.V2 R136.1
*SIGNAL* N673280
U3.A7 R133.1
*SIGNAL* P_ADDR16
U3.C9 U7.2 U8.3 J8.B20
*SIGNAL* P_ADDR22
U8.26 U3.D13 U7.7 J8.B11
*SIGNAL* P_ADDR30
U7.20 U3.C15 U8.11 J8.B28 U39.11 JP7.3
*SIGNAL* P_ADDR11
U3.D8 U7.38 J8.B49
*SIGNAL* P_ADDR31
U3.D15 U7.21 U8.12 J8.B29 U39.12 JP7.1 U40.25
*SIGNAL* P_ADDR15
U8.2 U7.1 U3.A8 J8.B19
*SIGNAL* P_DAT4
U9.14 U3.R2 U7.28 U8.17 J8.B37 JP7.8 U39.17 U40.1
*SIGNAL* P_DAT11
U10.15 U3.N1 J8.B3
*SIGNAL* P_EXT_ACK
U3.Y3 R460.2 R479.1
*SIGNAL* N673266
U3.G2 R135.1
*SIGNAL* N670098
U3.T2 R104.2
*SIGNAL* N2891995
U34.7 Q9.1 R443.1
*SIGNAL* P_ADDR20
U8.25 U7.6 U3.D11 J8.B10 U39.25
*SIGNAL* P_ADDR10
U3.C7 R101.1 J8.B50 R520.2
*SIGNAL* P_ADDR27
U8.8 U7.17 U3.C14 J8.B25 U39.8 JP7.9
*SIGNAL* P_ADDR23
U8.27 U7.8 U3.D12 J8.B12 U39.27
*SIGNAL* P_ADDR26
U8.7 U7.16 U3.A13 J8.B24 U29.1 U28.9 U28.4 U39.7
JP7.11
*SIGNAL* P_ADDR18
U8.28 U7.4 U3.C10 J8.B13
*SIGNAL* P_ADDR25
U8.6 U3.A12 U7.15 J8.B23 U39.6 JP7.13
*SIGNAL* P_ADDR14
U7.40 U8.30 U3.D9 J8.B46
*SIGNAL* P_ADDR19
U8.4 U7.5 U3.A10 J8.B21 U39.4
*SIGNAL* P_DMA_ACK1
U3.B15 R448.2 R467.1
*SIGNAL* P_DMA_ACK3
U3.C12 R484.2 R486.1
*SIGNAL* N2905670
R502.1 R500.1 Q13.5,6,7,8
*SIGNAL* N9558110
R502.2 D8.1
*SIGNAL* N2893805
R462.1 U34.5 R481.1
*SIGNAL* P_ADDR24
U7.14 U3.B13 U8.5 J8.B22 U39.5 JP7.15
*SIGNAL* P_ADDR28
U8.9 U3.A14 U7.18 J8.B26 U39.9 JP7.7
*SIGNAL* P_ADDR12
U3.B8 U7.37 J8.B48
*SIGNAL* P_ADDR17
U3.D10 U7.3 U8.29 J8.B14
*SIGNAL* P_ADDR13
U3.C8 U7.13 R100.1 J8.B47
*SIGNAL* P_ADDR29
U7.19 U3.A15 U8.10 J8.B27 U39.10 JP7.5
*SIGNAL* P_ADDR21
U3.B12 U8.23 U7.36 J8.B8
*SIGNAL* PHY_RST
U14.73 U25.55 U15.11
*SIGNAL* N1848152
U25.23 R363.2 R365.2
*SIGNAL* N953852
R165.1 U11.7
*SIGNAL* TIP
J4.99 R349.2
*SIGNAL* RING
J4.100 R350.2
*SIGNAL* GPIO4_RST
U3.AF18 U15.13 R461.2 R480.1
*SIGNAL* N801569
R163.1 U11.2
*SIGNAL* N801572
R164.1 U11.3
*SIGNAL* N801429
U11.1 R162.2
*SIGNAL* N2939552
U15.2 U16.2
*SIGNAL* N654474
U13.4 C43.2
*SIGNAL* N654460
U13.24 C44.2
*SIGNAL* N654453
U13.6 C44.1
*SIGNAL* N654662
U13.11 U3.AB4 R175.2
*SIGNAL* N654612
U13.14 U3.AE18 R178.2
*SIGNAL* N654758
R158.2 U3.AE17
*SIGNAL* N654467
U13.2 C43.1
*SIGNAL* N654488
U13.26 C42.2
*SIGNAL* N654956
R156.2 U3.AC3 R170.1 R172.1
*SIGNAL* IIC_SCL
R160.2 U3.AD6 U11.6 U33.24
*SIGNAL* IIC_SDA
U3.AE7 R159.2 U11.5 U33.23
*SIGNAL* UART0_RTS
U13.9 U3.AD16 R171.2 R446.2 R465.1
*SIGNAL* N654636
U3.AE16 U13.12 R176.2
*SIGNAL* TX_EN
U3.K23 U14.43 U25.43 R456.2 R475.1
*SIGNAL* N654520
C45.1 U13.25
*SIGNAL* N654503
C37.1 U13.1
*SIGNAL* N654481
U13.28 C42.1
*SIGNAL* N654949
U3.AC1 R157.2 U12.12
*SIGNAL* UART1_TX
U3.AC2 U12.8 R457.2 R476.1
*SIGNAL* UART0_DTR
U13.7 U3.AF2 R167.2 R445.2 R464.1
*SIGNAL* UART0_TX
U13.8 U3.AF3 R169.2 R444.2 R463.1
*SIGNAL* N654674
U13.10 U3.AD15 R174.2
*SIGNAL* N654624
U13.13 U3.AE3 R177.2
*SIGNAL* TX_ERR
U3.K25 U14.38 R455.2 R474.1
*SIGNAL* RXD2
U3.AC20 U14.59 U25.27
*SIGNAL* RXD3
U3.AD20 U14.58 U25.26
*SIGNAL* AVCC_3.3
U14.99 U14.17 U14.16 U14.6 U14.5 R189.1 R190.1 T1.14
C52.1 C55.1 C54.1 C53.1 U24.104 C106.1 T3.14 U24.111
R335.1 U24.112 R336.1 U24.103 C107.1 C129.1 C126.1 U25.6
U25.87 U25.94 U25.74 C128.1 C127.1 U25.66 R497.2 U40.8
R525.1 C242.1
*SIGNAL* SYS_RST
U7.10 U29.3 R400.2 U31.3 U3.D22 U15.12 U40.6
*SIGNAL* RXD1
U3.AF23 U14.60 U25.28
*SIGNAL* TXD0
U3.J26 U14.42 U25.47 R452.2 R471.1
*SIGNAL* TXD1
U3.L25 U14.41 U25.48 R451.2 R470.1
*SIGNAL* TXD2
U3.L24 U14.40 U25.51 R450.2 R469.1
*SIGNAL* TXD3
U3.P25 U14.39 U25.52 R449.2 R468.1
*SIGNAL* RXD0
U3.AE23 U14.61 U25.29
*SIGNAL* PCI_GNT1
U17.B11 R239.2 U3.T23
*SIGNAL* PCI_REQ1
U17.A11 R238.2 U3.C21
*SIGNAL* PERR
J4.55 U24.30 U3.G25 U26.L3 R373.2 JP3.10
*SIGNAL* PCI_REQ5
U3.J25 R379.1
*SIGNAL* PCI_REQ0
U3.C19 U26.A1
*SIGNAL* PCI_REQ4
U3.G23 R378.1
*SIGNAL* N614380
U3.B20 R375.1 R380.1
*SIGNAL* INT_SLOT
U26.K8 R383.2 U3.AA24
*SIGNAL* PCI_CLK0
R375.2 U3.A25 R425.1 R432.1
*SIGNAL* N1124969
R376.2 R374.2 U26.M10
*SIGNAL* N1103751
U26.L11 R382.2
*SIGNAL* N898146
U26.N12 U27.15
*SIGNAL* VCC_5
U17.R7 U17.P6 R221.1 U17.F14 U17.R6 U17.G6 R222.1 U17.R15
D1.1 R224.1 F1.2 C73.1 C68.1 C69.1 C70.1 C71.1
C72.1 U19.3 R252.2 C82.1 R254.1 C81.2 R276.1 R290.1
R289.1 R288.1 R287.1 R286.1 R285.1 R284.1 R283.1 R282.1
R281.1 R280.1 R279.1 R278.1 R277.1 R274.1 R273.1 R272.1
R275.1 R271.1 R313.2 R292.2 R293.2 R294.2 R302.2 R303.2
R304.2 R305.2 R306.2 R307.2 R308.2 R309.2 R310.2 R311.2
R312.2 R314.2 R317.1 C91.1 U21.100 J4.81 U21.39 U21.22
J4.2 R318.2 C89.1 C93.1 C90.1 U22.8 U21.85 U21.75
U21.52 C92.1 J4.5 J4.27 J4.6 J4.77 J4.20 J4.96
Q4.3 U27.6 U27.5 C157.1 R391.2 J10.4 U36.3 R500.2
*SIGNAL* PCIRST
U17.K18 U17.M20 J4.10 U21.89 U24.114 R376.1 U26.G4 U3.B24
JP3.7
*SIGNAL* SERR
J4.51 U24.31 U3.G24 U26.M1 R372.2 JP3.32
*SIGNAL* PCI_GNT0
U3.U23 U26.B1
*SIGNAL* AVPP
U27.10 J8.A18 J8.A52 R393.2
*SIGNAL* PCI_CLK4
U26.H1 R429.1
*SIGNAL* N901507
R381.2 U26.F4
*SIGNAL* N898158
U26.M13 U27.2
*SIGNAL* N898170
U26.N13 U27.1
*SIGNAL* AVCC
U27.13 U27.12 U26.G13 U27.11 U26.A7 J8.A17 J8.A51 R392.2
*SIGNAL* VCC_12
U27.9 C156.1 R390.2 J9.1 C197.1 U37.8 C199.1 R496.1
C180.1 U35.8 C184.1 R483.1 J10.1 C206.1 C179.1 C178.1
C195.1 C196.1 R494.2 C181.1 C198.1 R441.2 R442.2 Q8.3
U34.8 R443.2
*SIGNAL* VCC_3.3
C16.1 C17.1 U1.49 U1.27 U1.1 U1.3 U1.9 U1.43
U4.49 U4.3 U4.9 U4.43 U1.14 U4.1 U4.14 U4.27
U2.27 U2.43 U2.3 U2.49 U2.1 U2.9 U2.14 C1.1
C5.1 C4.1 C3.1 C2.1 C15.1 C14.1 C13.1 C12.1
C11.1 C8.1 C9.1 C10.1 C7.1 C6.1 R42.1 R35.1
R36.1 R37.1 R38.1 R39.1 R40.1 R41.1 R19.1 R54.1
R17.1 U5.27 U5.1 U5.14 U5.49 U5.43 U5.9 U5.3
U6.27 U6.1 U6.14 U6.49 U6.3 U6.9 U6.43 C18.1
C22.1 C21.1 C20.1 C19.1 C23.1 C27.1 C26.1 C25.1
C24.1 R81.1 R79.1 U9.20 U10.20 R99.1 R102.1 R117.1
R119.1 R123.1 R125.1 C31.1 C30.1 R144.1 R146.1 R148.1
R115.1 R113.1 R128.1 R127.2 R107.1 U7.30 R121.1 U8.32
C28.1 R110.1 R103.1 R153.1 R150.1 R111.1 U7.31 R106.1
R109.1 C33.1 R98.1 R105.1 C32.1 C29.1 R142.1 R140.1
R152.2 R108.1 R104.1 R97.1 R155.1 C36.2 R158.1 R160.1
C35.1 U13.3 C34.2 R157.1 R159.1 R156.1 C37.2 U12.3
U11.8 R162.1 R173.1 U15.14 U16.14 R188.1 R201.2 U14.89
R184.1 R206.1 C49.1 R199.2 R191.1 C48.1 U14.30 R205.1
C46.1 C47.1 U14.45 U14.71 R200.2 U14.56 R237.1 R238.1
R240.1 R241.1 R242.1 R243.1 R223.1 U17.F15 U17.R14 U17.F6
R239.1 C74.2 C77.2 C76.2 C75.2 R245.1 R253.1 R265.1
R257.1 R247.1 R255.1 R256.1 R248.1 R249.1 C79.1 R250.1
R315.1 J4.3 J4.15 J4.47 J4.73 J4.8 J4.12 J4.24
J4.54 J4.72 R316.1 U24.96 C111.2 C112.2 C110.1 U24.82
C109.1 U24.4 U24.12 U23.8 R339.2 U24.25 C108.1 R324.1
U24.61 U24.19 U24.5 U24.53 U24.70 U24.18 U24.32 U24.52
U24.42 C113.2 U24.120 R344.1 R334.1 R325.1 Q5.3 R347.1
R352.1 U25.9 C122.1 U25.70 U25.34 U25.50 U25.77 C124.1
U25.21 U25.57 U25.15 U25.41 U25.7 U25.63 U25.38 C123.1
C125.1 R366.1 C158.1 R382.1 R379.2 U26.K2 C154.2 C153.2
R378.2 U26.G1 C155.2 C150.1 U26.F3 U26.L9 R367.1 C152.2
U26.N4 R372.1 R369.1 R368.1 C146.1 R371.1 U26.L6 C147.1
R373.1 C148.1 U26.B4 U27.4 U26.D12 R374.1 U26.H11 R377.1
C149.1 U26.C8 R370.1 U27.3 C151.2 R383.1 U29.14 U28.14
R394.1 U31.14 U32.14 R395.1 R401.1 R404.1 R400.1 U33.15
R436.1 U33.27 U30.3 R402.1 C169.2 R410.1 U33.6 U33.19
C170.2 U33.1 R408.2 U33.42 C168.2 R415.2 R435.1 C165.1
R414.2 R413.2 R409.1 C171.2 C167.1 R399.1 R398.1 C166.1
Q6.3 U33.36 R406.2 R407.2 R434.1 R433.1 U33.30 Q7.3
C164.1 R419.2 C176.1 C177.1 R445.1 C217.1 U3.E7 R460.1
U3.N24 U3.G22 C183.1 C182.1 U38.2 U3.AD14 C172.1 C173.1
U3.B17 R486.2 C186.1 U3.P3 U3.AE10 R456.1 R444.1 U3.U25
U3.C13 U3.AA22 R504.2 R450.1 C213.1 R449.1 U3.AA5 U3.AB21
U3.E8 U3.H22 R448.1 C218.1 C230.2 R458.1 R461.1 C227.2
C211.1 R451.1 U3.AB6 U3.K2 R455.1 C175.1 C174.1 R457.1
R454.1 C232.2 C228.2 U3.AB7 U3.E21 R453.1 R452.1 U3.E6
U3.AB8 U3.W5 C212.1 U3.F5 U3.G5 C215.1 C185.1 R487.2
C214.1 U3.F22 U3.E19 U3.E20 U3.Y5 R447.1 R459.1 C226.2
U3.AB19 R491.2 R446.1 C216.1 C229.2 U3.AB20 U3.W22 U3.Y22
U3.H5 C231.2 C225.1 JP3.22 JP3.19 R513.2 R507.2 R510.2
C239.1 C240.1 U39.30 U39.32 R524.1 U40.12 C241.1
*SIGNAL* CBE1
U17.C7 U21.19 J4.57 U24.34 U3.F24 U26.N1 JP3.43
*SIGNAL* CBE2
U17.C5 U21.12 J4.43 U24.20 U3.K24 U26.J3 JP3.26
*SIGNAL* AD1
U17.A10 J4.83 U21.37 U24.59 U3.B16 U26.K7 JP3.58
*SIGNAL* AD8
U17.D9 J4.69 U21.28 U24.49 U3.B21 U26.M5 JP3.45
*SIGNAL* CBE0
U17.C9 U21.29 J4.70 U24.48 U3.D19 U26.N5 JP3.57
*SIGNAL* TRDY
U17.D6 J4.50 U21.15 U24.24 U3.G26 U26.K3 R369.2 JP3.42
*SIGNAL* AD27
U17.D3 J4.23 U21.96 U24.126 U3.R25 U26.D1 JP3.12
*SIGNAL* AD24
U17.C3 J4.30 U21.99 U24.1 U3.R24 U26.E2 JP3.15
*SIGNAL* N2958209
U20.19 R270.1
*SIGNAL* N2957543
U16.12 R365.1
*SIGNAL* VCC_2.5
R396.1 C160.1 C159.1 U3.E17 U3.AB15 U3.K22 U3.K5 C233.2
U3.U5 U3.T22 U3.L5 U3.T5 U3.M5 C238.2 U3.R5 U3.E10
U3.AB16 C219.1 U3.M22 C221.1 C222.1 U3.E16 U3.AB12 U3.AB17
C224.1 U3.E11 U3.AB11 U3.E15 U3.AB10 U3.L22 U3.U22 U3.E12
U3.R22 C220.1 C223.1 C234.2 C235.2 C236.2 C237.2 R503.2
*SIGNAL* AD11
U17.B8 J4.64 U21.25 U24.43 U3.B22 U26.M4 JP3.38
*SIGNAL* AD16
U17.A4 J4.44 U21.10 U24.17 R346.2 U3.K26 U26.J2 JP3.29
*SIGNAL* AD22
U17.B3 J4.36 U21.4 U24.7 U3.N26 U26.F1 JP3.17
*SIGNAL* AD2
U17.B10 J4.78 U21.36 U24.57 U3.C17 U26.L7 JP3.53
*SIGNAL* AD13
U17.D8 J4.62 U21.23 U24.40 U3.C22 U26.N3 R381.1 JP3.34
*SIGNAL* CBE3
U17.B1 U21.1 J4.29 U24.2 U3.R26 U26.E1 JP3.8
*SIGNAL* AD28
U17.D2 J4.26 U21.95 U24.124 U3.T24 U26.D2 JP3.9
*SIGNAL* AD21
U17.A1 J4.35 U21.5 U24.10 U3.M26 U26.G2 JP3.20
*SIGNAL* N1990217
U24.80 U23.1
*SIGNAL* N1998592
U24.105 R337.1 T3.1
*SIGNAL* N1996957
T3.6 J6.2
*SIGNAL* N1998705
R338.2 R337.2 C102.1
*SIGNAL* AD31
U17.D5 J4.17 U21.92 U24.121 U3.V26 U26.C2 JP3.3
*SIGNAL* AD15
U17.B7 J4.60 U21.20 U24.38 U3.F25 U26.N2 JP3.30
*SIGNAL* AD23
U17.B2 J4.31 U21.3 U24.6 U3.P24 U26.F2 JP3.18
*SIGNAL* PAR
U17.D7 J4.40 U21.18 U24.33 U3.E26 U26.M2 JP3.39
*SIGNAL* AD12
U17.C8 J4.63 U21.24 U24.41 U3.B23 U26.K4 JP3.36
*SIGNAL* STOP
U17.B6 J4.52 U24.27 U3.H23 U26.L2 R370.2 JP3.37
*SIGNAL* AD10
U17.A8 J4.65 U21.26 U24.44 U3.D21 U26.K5 JP3.46
*SIGNAL* FRAME
U17.B5 J4.48 U21.13 U24.21 U3.J24 U26.J4 R367.2 JP3.33
*SIGNAL* N1995832
R325.2 U24.71
*SIGNAL* N1995829
R330.2 U24.75
*SIGNAL* N1998580
U24.110 R336.2 T3.15
*SIGNAL* N1998450
R340.2 R341.2 C104.1
*SIGNAL* N1998468
R342.2 C105.1 R343.2
*SIGNAL* N1996969
T3.5 R341.1
*SIGNAL* N1997023
T3.12 R340.1
*SIGNAL* N1998708
T3.3 C103.1
*SIGNAL* N1998382
J6.4 J6.5 R342.1
*SIGNAL* N1998389
J6.7 J6.8 R343.1
*SIGNAL* AD0
U17.E11 J4.80 U21.38 U24.60 U3.A17 U26.N8 JP3.55
*SIGNAL* AD14
U17.A7 J4.59 R322.1 U21.21 R320.2 U24.39 U3.C26 U26.M3
JP3.31
*SIGNAL* AD4
U17.D10 J4.76 U21.33 U24.55 U3.D17 U26.M7 JP3.51
*SIGNAL* DEVSEL
U17.C6 U21.16 J4.56 U24.26 U26.L1 U3.H25 R371.2 JP3.44
*SIGNAL* AD25
U17.C2 J4.25 U21.98 U24.128 U3.R23 U26.E3 JP3.14
*SIGNAL* AD30
U17.D4 J4.22 U21.93 U24.122 U3.T25 U26.C1 JP3.5
*SIGNAL* AD20
U17.A2 J4.38 U21.6 U24.11 U3.N25 U26.G3 JP3.21
*SIGNAL* AD9
U17.E9 J4.68 U21.27 U24.47 U3.A23 U26.L5 JP3.48
*SIGNAL* AD29
U17.D1 J4.19 U21.94 U24.123 U3.U26 U26.D4 JP3.6
*SIGNAL* N1988390
U24.3 R346.1
*SIGNAL* N1990102
U24.98 Y5.1 R332.1 C100.1
*SIGNAL* N1988769
R333.2 U24.101
*SIGNAL* N1990242
U24.77 U23.4
*SIGNAL* N1990249
U24.78 U23.3
*SIGNAL* AD17
U17.B4 J4.41 U21.9 U24.16 U3.L23 U26.J1 JP3.28
*SIGNAL* AD7
U17.B9 J4.71 U21.30 U24.50 U3.A20 U26.K6 JP3.50
*SIGNAL* AD26
U17.C1 J4.28 U21.97 U24.127 U3.P23 U26.E4 JP3.11
*SIGNAL* AD6
U17.A9 J4.74 U21.31 U24.51 U3.B18 U26.M6 JP3.47
*SIGNAL* AD19
U17.A3 J4.37 U21.7 U24.13 U3.M23 U26.H3 JP3.23
*SIGNAL* AD18
U17.C4 J4.42 U21.8 U24.14 U3.M25 U26.H4 JP3.27
*SIGNAL* N1988701
R339.1 U24.116
*SIGNAL* N1990224
U24.79 U23.2
*SIGNAL* N1990087
Y5.4 U24.97 R332.2 C101.1
*SIGNAL* N1991672
U24.36 R345.1
*SIGNAL* AD5
U17.E10 J4.75 U21.32 U24.54 U3.C18 U26.N6 JP3.52
*SIGNAL* AD3
U17.C10 J4.79 U21.35 U24.56 U3.A18 U26.N7 JP3.56
*SIGNAL* N1998604
U24.106 T3.2 R338.1
*SIGNAL* N1998568
T3.16 U24.109 R335.2
*SIGNAL* N2003822
R334.2 J6.11
*SIGNAL* N1988766
U24.102 R333.1
*SIGNAL* INT_9102
U24.113 R344.2 U3.Y25
*SIGNAL* PCI_CLK2
U24.115 R427.1
*SIGNAL* N2008593
U23.6 R324.2
*SIGNAL* N1817942
R179.2 U14.77
*SIGNAL* N1823800
J1.12 Q1.3
*SIGNAL* N1825702
Y1.1 U14.92 R186.1 C50.1
*SIGNAL* N1823595
T1.11 J1.6
*SIGNAL* N1823564
T1.6 J1.2
*SIGNAL* N1823552
T1.7 J1.1
*SIGNAL* N1823592
T1.10 J1.3
*SIGNAL* N1825945
U14.22 R199.1
*SIGNAL* N1817936
R180.2 U14.79
*SIGNAL* N1817939
R182.2 U14.78
*SIGNAL* N1819983
U14.14 R190.2 T1.15
*SIGNAL* N1817933
R183.2 U14.80
*SIGNAL* N1818200
U14.86 R185.2
*SIGNAL* N1825948
U14.23 R200.1
*SIGNAL* N1823617
J1.11 R188.2
*SIGNAL* N1817930
R181.2 U14.81
*SIGNAL* N1821835
R193.2 R194.2 C56.1
*SIGNAL* N1823657
J1.4 R197.1 J1.5
*SIGNAL* N1823781
R198.1 J1.7 J1.8
*SIGNAL* N1821828
T1.3 C57.1
*SIGNAL* N1823650
T1.5 R195.1
*SIGNAL* N1823643
T1.12 R196.1
*SIGNAL* PCI_REQ3
J4.13 R316.2 U3.A24
*SIGNAL* PCI_GNT2
U24.117 U3.F23
*SIGNAL* PCI_REQ2
U24.118 U3.B19
*SIGNAL* N1818304
U14.2 R187.1
*SIGNAL* N1818307
R187.2 U14.3
*SIGNAL* N1817883
R184.2 U14.82
*SIGNAL* N1825690
Y1.4 U14.91 R186.2 C51.1
*SIGNAL* N1821792
U14.8 R194.1 T1.2
*SIGNAL* N1818319
U14.13 R189.2 T1.16
*SIGNAL* N1825951
U14.24 R201.1
*SIGNAL* N1821735
U14.7 R193.1 T1.1
*SIGNAL* N1939402
J8.B9 U28.8
*SIGNAL* N1939414
J8.B15 U28.6
*SIGNAL* N2062253
C83.2 U18.1 R252.1
*SIGNAL* IRRTX
R261.2 C84.2 U17.T13
*SIGNAL* IRRXL
R260.2 U17.W13 U19.1
*SIGNAL* N2062296
R254.2 U18.10
*SIGNAL* N2063960
U18.9 R261.1 C84.1
*SIGNAL* N2062560
U18.8 R260.1
*SIGNAL* N2080849
R250.2 U17.A12
*SIGNAL* N1827753
U14.27 R204.1
*SIGNAL* N1827750
U14.28 R203.1
*SIGNAL* N1838555
U25.88 T4.1 C136.1
*SIGNAL* N1838571
T4.2 U25.89 C137.1
*SIGNAL* N1840550
C139.1 U25.93
*SIGNAL* N1842314
R356.1 U25.95 C136.2
*SIGNAL* N1842317
R357.1 U25.96 C137.2
*SIGNAL* N1844080
C141.1 C140.1 R354.1 U25.98
*SIGNAL* N1844064
R358.1 U25.100 C139.2
*SIGNAL* N1844061
R359.1 U25.99 C138.2
*SIGNAL* N1844050
C138.1 U25.92
*SIGNAL* N1847778
R351.2 Y6.4 C131.1 U25.76 L4.1
*SIGNAL* N1848166
U25.24 R364.1
*SIGNAL* N1847768
R351.1 Y6.1 C130.1 U25.78
*SIGNAL* N1848239
C144.1 U25.2
*SIGNAL* N1848224
U25.4 C142.1
*SIGNAL* N1848251
C145.1 U25.1
*SIGNAL* N1848227
U25.3 C143.1
*SIGNAL* N1850164
C116.1 U25.71 C117.1
*SIGNAL* N1851928
C119.1 C118.1 U25.72
*SIGNAL* N1851953
C121.1 U25.73 C120.1
*SIGNAL* N1852185
C115.1 U25.67 C114.1
*SIGNAL* N1854274
T4.15 C134.1 RV1.2 J7.3 R350.1
*SIGNAL* N1854288
T4.3 C133.1
*SIGNAL* N923576
U20.21 R268.1
*SIGNAL* FLASH_CS0
U7.22 R523.2
*SIGNAL* N2288674
U29.13 R520.1 R522.1 R521.2
*SIGNAL* N2288620
U32.13 U29.12
*SIGNAL* FLASH_CS1
U8.22 U32.11
*SIGNAL* N2297080
U3.AD25 R397.1
*SIGNAL* GND_POWER
U4.6 U4.52 U4.46 U4.12 U1.6 U1.12 U1.46 U1.52
U4.28 U4.41 U4.54 U1.54 U1.41 U1.28 U2.52 U2.12
U2.28 U2.41 U2.6 U2.46 U2.54 C5.2 C1.2 C2.2
C3.2 C4.2 C15.2 C13.2 C14.2 C11.2 C12.2 C9.2
C8.2 C10.2 C7.2 C6.2 C17.2 C16.2 U6.28 U6.41
U6.54 U6.6 U6.52 U6.46 U6.12 U5.28 U5.41 U5.54
U5.6 U5.52 U5.46 U5.12 C18.2 C22.2 C21.2 C20.2
C19.2 C23.2 C27.2 C26.2 C25.2 C24.2 U9.10 U10.10
R112.2 R114.2 R122.2 R120.2 R154.2 R151.2 R126.2 R124.2
R118.2 R135.2 U7.23 R149.2 R147.2 R136.2 U7.39 R138.2
R116.2 R129.2 R141.2 R143.2 R145.2 U8.16 R137.2 R132.2
R139.2 R130.2 R131.2 R133.2 R134.2 C28.2 C29.2 C31.2
C30.2 C32.2 C33.2 R165.2 R161.2 C41.1 U12.23 C45.2
U13.5 JP1.9 U11.4 U13.23 U12.27 R163.2 JP2.9 U12.5
C36.1 C34.1 U13.27 R164.2 U12.19 U12.15 U15.7 U16.7
R192.2 R185.1 R204.2 C48.2 U14.36 C51.2 U14.49 Q1.2
U14.20 R180.1 R182.1 R202.2 C50.2 U14.94 C46.2 R179.1
R181.1 R183.1 R203.2 U14.84 C49.2 C47.2 R235.2 C66.2
U17.J12 J3.22 R218.2 U17.J9 U17.L11 C65.2 U17.M11 C60.2
U17.K12 J3.24 L2.2 U17.K10 U17.J10 R214.2 U17.M10 U17.M9
C63.2 R217.2 U17.K9 L3.2 R236.2 J3.2 U17.L9 J3.30
U17.M12 J3.26 C67.2 C59.2 U17.J11 C61.2 R219.2 U17.K11
J3.19 U17.L12 C64.2 R216.2 C62.2 U17.L10 C68.2 C73.2
C74.1 C77.1 C76.1 C75.1 C69.2 C70.2 C71.2 C72.2
R264.2 U19.2 C79.2 R258.2 C78.2 R251.2 R259.1 C80.2
C83.1 C82.2 C81.1 U18.2 U18.7 R263.2 R262.2 R291.2
U20.12 C87.2 R269.2 C88.2 BT1.2 C86.2 C85.2 R295.2
R301.2 R300.2 R299.2 R298.2 R297.2 R296.2 U20.16 Q3.2
U21.17 U21.72 U21.34 U21.80 U21.48 U21.11 U21.91 U22.5
C96.2 C97.2 C95.2 C94.2 C98.2 C99.2 C89.2 C93.2
C92.2 C91.2 C90.2 J4.7 J4.11 J4.16 J4.34 J4.21
J4.33 J4.39 J4.53 J4.61 J4.67 J4.85 J4.46 J4.58
J4.66 J4.86 J4.98 U23.5 R330.1 C101.2 C109.2 C104.2
U24.35 U24.99 C105.2 U24.46 C108.2 U24.8 U24.22 U24.28
C111.1 U24.45 R345.2 R328.1 R329.1 C100.2 U24.9 C110.2
U24.58 U24.86 C112.1 U24.15 U24.29 U24.125 U24.76 R327.1
R326.1 U24.37 C113.1 U24.100 R331.1 R348.2 R355.2 D3.2
U25.33 C130.2 U25.37 C132.2 U25.14 U25.62 U25.40 U25.8
U25.69 C131.2 C125.2 C124.2 R364.2 U25.49 U25.56 U25.20
C123.2 U25.10 R362.2 U25.80 U25.79 C122.2 C158.2 U27.7
C149.2 U3.N11 U3.R14 U3.L13 U26.C10 C155.1 U3.M12 U3.P11
C148.2 U3.L14 U3.R12 U3.L16 U26.L4 U26.H2 R386.2 U26.M8
U3.L15 U3.N13 U3.L11 C154.1 U3.R15 U3.P15 C152.1 U3.L12
U3.T16 U3.R16 U3.T14 U3.R11 U3.T15 U26.F12 U3.M15 U3.P12
U3.P14 U3.P13 R387.2 U3.M11 U26.B6 C147.2 R388.2 C150.2
U3.P16 U26.K11 R384.2 R385.2 U3.T13 C151.1 C146.2 U3.N15
U3.N12 U3.T12 U3.M14 U3.M13 U3.P26 U26.D3 U3.R13 U3.M16
U3.N14 U3.T11 R389.2 U3.N16 C153.1 R380.2 C156.2 C157.2
U29.7 U28.7 J8.B34 J8.A68 J8.A34 J8.B1 J8.B35 J8.A1
J8.A35 J8.B68 U31.7 U32.7 D4.2 D5.2 R416.2 R405.2
S2.1 U33.22 U33.16 U30.1 C165.2 U33.3 C164.2 C169.1
C171.1 U33.33 U33.44 C161.2 U31.2 C163.1 C166.2 C162.1
U30.4 U33.10 C167.2 C170.1 C168.1 U33.39 S1.1 C160.2
C159.2 R403.1 R437.2 R440.2 R439.2 R438.2 C197.2 C203.2
C204.2 D7.1 C180.2 C189.2 C190.2 D6.1 J10.3 R466.2
U3.AA1 U3.AB14 C192.2 U3.J5 U3.AD3 U3.L1 R475.2 C211.2
R479.2 R467.2 U3.AF21 C228.1 U3.AF1 C201.2 C215.2 C232.1
U3.A11 U3.A21 C209.2 U3.E18 U3.B25 U35.4 D8.2 U3.AE25
U3.P22 U3.E14 U3.D23 C226.1 U3.AE1 U3.AB18 C212.2 U3.J22
J9.3 U3.B26 U3.E22 R463.2 U3.A2 U3.AB13 C216.2 U3.AF26
U3.AF16 U3.E9 R470.2 R473.2 R472.2 U3.P5 C213.2 U3.AC23
U3.AF6 U3.AA26 C206.2 C229.1 U3.B2 U3.AF25 C217.2 U3.AB5
C214.2 U37.4 U3.AC4 U3.F1 U3.E13 R477.2 U3.C3 U3.N5
U3.A26 J10.2 C218.2 R464.2 U3.L26 R465.2 R478.2 R469.2
R468.2 R495.1 U3.AF8 R476.2 C227.1 U3.AD24 U3.AF11 U3.A16
C194.2 U3.V22 U3.H1 R506.1 C207.2 U3.C24 U3.AB9 C230.1
U3.AB22 U3.T1 U3.D4 C210.2 U3.T26 C231.1 U3.W26 R480.2
U3.E5 U3.F26 R471.2 R474.2 U3.AE2 U3.A1 U3.N22 U3.A6
U3.V5 U3.A19 C187.2 C225.2 C224.2 C219.2 C233.1 C238.1
C237.1 C236.1 C235.1 C234.1 C220.2 C221.2 C222.2 C223.2
C177.2 C176.2 C174.2 C175.2 C172.2 C173.2 C186.2 C185.2
C182.2 C183.2 R485.1 R484.1 R489.1 R493.1 U38.5 C178.2
C179.2 C196.2 C195.2 C191.2 C205.2 C181.2 C198.2 R482.1
U34.4 R481.2 JP3.40 JP3.24 JP3.2 JP3.13 JP3.60 JP3.54
JP3.59 JP3.16 JP3.1 JP3.49 JP3.41 JP3.25 R508.1 R514.1
R511.1 JP4.1 JP4.2 JP5.1 JP5.2 JP6.1 JP6.2 C239.2
U39.2 U39.3 U39.1 C240.2 U39.16 U40.13 U40.11 R528.2
R527.2 C241.2 C243.2 C244.2
*SIGNAL* AGND_3.3
U14.95 U14.12 U14.19 U14.11 U14.10 U14.9 C57.2 C56.2
C52.2 C55.2 C54.2 C53.2 C58.2 U24.108 C102.2 C106.2
C107.2 C103.2 U24.107 C133.2 C145.2 C115.2 C121.2 U25.5
C114.2 U25.68 C143.2 C127.2 R359.2 R357.2 U25.97 C126.2
R356.2 C120.2 U25.91 C129.2 C119.2 C144.2 C142.2 C117.2
U25.90 C141.2 C140.2 U25.75 R358.2 R354.2 C118.2 C128.2
C116.2 R493.2 U36.1 C200.2 U40.7 C242.2
*SIGNAL* CHASSIS
J1.9 J1.10 U18.11 J5.9 J5.10 J6.10 J6.9 C135.2
C134.2 R489.2 J11.5 J11.6
*SIGNAL* SA1
U17.R19 U20.23
*SIGNAL* N2307841
U40.10 J11.2 C244.1
*SIGNAL* N2307829
U40.9 J11.3 R525.2 C243.1
*SIGNAL* RX_ERR
U3.U24 R161.1 U14.68
*SIGNAL* COL
U3.AA25 U14.66 U25.53 R347.2 R348.1
*SIGNAL* RX_DV
U3.V24 U14.67 U25.31 R352.2 R355.1
*SIGNAL* CRS
U3.W23 U14.65 R192.1 U25.54
*SIGNAL* TX_CLK
U3.E25 U14.47 U25.39
*SIGNAL* MDIO
U3.AD26 R155.2 U14.54 U25.22
*SIGNAL* RX_CLK
U3.AF20 U14.64 U25.32
*SIGNAL* N1884120
R191.2 U14.69
*SIGNAL* MD_CLK
U3.H24 U14.53 U16.13 R363.1
*SIGNAL* P_DMA_REQ0
U3.C16 R130.1 U40.23
*SIGNAL* P_CS5
U3.B10 R105.2 U40.19
*SIGNAL* N2309319
U40.15 R528.1
*SIGNAL* N2309326
U40.14 R527.1
*SIGNAL* N816668
U10.19 U9.19 R107.2 U3.C4
*SIGNAL* N1895881
R428.2 U33.11
*SIGNAL* N1895878
R427.2 U33.9
*SIGNAL* N2349479
U18.5 R263.1
*SIGNAL* N2064028
U18.4 R262.1
*SIGNAL* N2367828
U3.D25 R396.2
*SIGNAL* N1996998
T3.11 J6.6
*SIGNAL* N2357374
J6.1 T3.7
*SIGNAL* N2357381
J6.3 T3.10
*SIGNAL* OSC24M
U33.25 R526.1
*SIGNAL* N2400539
R366.2 U3.AF4
*SIGNAL* N1912458
U26.M12 U27.14
*SIGNAL* N1913891
R377.2 U27.16
*SIGNAL* N807424
R503.1 C209.1 U38.3 R505.2
*SIGNAL* N2395779
R526.2 U40.16
*SIGNAL* N858556
J8.B17 R392.1 J8.B51 R391.1
*SIGNAL* N858563
R393.1 J8.B18 J8.B52 R390.1
*SIGNAL* N2493783
U3.AA23 R43.2 R44.2
*SIGNAL* N2493797
R46.2 U3.AC26
*SIGNAL* N2497326
R419.1 U33.47
*SIGNAL* N2496968
R432.2 U33.46
*SIGNAL* N1823695
R195.2 R198.2 R197.2 R196.2 C58.1
*SIGNAL* IOGP4
J3.34 U17.W12
*SIGNAL* N808145
C200.1 U36.2 R497.1
*SIGNAL* P_ADDR7
U3.D7 J8.B55
*SIGNAL* P_ADDR8
U3.A5 J8.B54
*SIGNAL* P_ADDR6
U3.C6 J8.B56
*SIGNAL* P_ADDR9
U3.B7 J8.B53 R522.2
*SIGNAL* P_CS4
U3.B9 R98.2 J8.B61 U15.10
*SIGNAL* P_CS3
U3.A4 R97.2 U15.9
*SIGNAL* N2537171
U38.4 R505.1
*SIGNAL* N2540615
U38.1 R504.1
*SIGNAL* IDE_DET
J3.40 R245.2 U3.A22
*END*
