cds host="10.40.0.194" params="--loop-count 10 --reset --sync --verbose"
cds host="10.40.0.194" params="--loop-count 10 --reset --sync --verbose"
cds host="10.40.0.194" params="--loop-count 10 --reset --sync --verbose"
cds host="10.40.0.194" params="--loop-count 10 --reset --sync --verbose"
cds host="10.40.0.194" params="--loop-count 10 --reset --sync --verbose"
cds host="10.40.0.194" params="--loop-count 10 --reset --sync --verbose"
cds host="10.40.0.194" params="--loop-count 10 --reset --sync --verbose"
cds host="10.40.0.194" params="--loop-count 10 --reset --sync --verbose"
cds host="10.40.0.194" params="--loop-count 10 --reset --sync --verbose"
cds host="10.40.0.194" params="--loop-count 10 --reset --sync --verbose"
cds host="10.40.0.194" params="--loop-count 10 --reset --sync --verbose"
cds host="10.40.0.194" params="--loop-count 10 --reset --sync --verbose"
