#
#  Cleanup
#
include	/opt/broadon/pkgs/test/auto/conf/db-clean-purchase.i
wait
#
#  eTicket Sync
#
include	/opt/broadon/pkgs/test/auto/conf/xs-sync.i
wait
#
#  Purchase
#
include	/opt/broadon/pkgs/test/auto/conf/xs-purchase.i
