#
# Purchase
#
sync	xs.purchase host="10.40.0.194" params="--bb-id 122 --title-id 900000 --content-id 90000001 --timestamp 0 -v"
sync	xs.purchase host="10.40.0.194" params="--bb-id 122 --title-id 910000 --content-id 91000001 --timestamp 0 -v"
sync	xs.purchase host="10.40.0.194" params="--bb-id 122 --title-id 920000 --content-id 92000001 --timestamp 0 -v"
sync	xs.purchase host="10.40.0.194" params="--bb-id 122 --title-id 930000 --content-id 93000001 --timestamp 0 -v"
